{
    "name": "Up",
    "author_nickname": "AndyB",
    "notes": "Try to get the ball as high up as possible.",
    "hint1": "Drop a heavy weight and use its power to get upwards",
    "hint2": "Build a platform balanced on a short column. Drop a heavy weight onto the right side, so the left side flips upwards, knocking the ball into the air.",
    "hint3": "",
    "discussion_id": "72",
    "discussion_slug": "72-level-up",
    "highlight_notes": false,
    "effects": {
        "wind": 0
    },
    "zoom": {
        "x": -2,
        "y": -2,
        "w": 24
    },
    "shapes": [
        {
            "id": 0,
            "number": -1
        },
        {
            "id": 1,
            "number": -1
        },
        {
            "id": 2,
            "number": -1
        },
        {
            "id": 3,
            "number": -1
        },
        {
            "id": 4,
            "number": -1
        }
    ],
    "win_conditions": [
        {
            "bodyEnteredArea": [
                {
                    "RECT": [
                        {
                            "x": 0,
                            "y": 0
                        },
                        {
                            "x": 16,
                            "y": 7
                        }
                    ]
                },
                "ball1"
            ]
        }
    ],
    "lose_conditions": [
        {
            "greaterThan": [
                "time",
                5000
            ]
        }
    ],
    "blocks": [
        {
            "static_block": {
                "x": 0,
                "y": 19,
                "w": 16,
                "h": 1
            }
        }
    ],
    "dynamic_objects": [
        {
            "ball": {
                "x": 7,
                "y": 10,
                "id": "ball1"
            }
        }
    ]
}
