{
    "name": "Dump Right",
    "author_nickname": "AndyB",
    "notes": "That car drives too fast...",
    "hint1": "Try to flip the balloon block and dump the car.",
    "hint2": "Make a bucket to hold the car, and overbalance it by placing blocks.",
    "hint3": "",
    "discussion_id": "77",
    "discussion_slug": "77-dump-right",
    "highlight_notes": false,
    "effects": {},
    "zoom": {
        "x": 0,
        "y": 0,
        "w": 20
    },
    "shapes": [
        {
            "id": 0,
            "number": -1
        },
        {
            "id": 1,
            "number": -1
        },
        {
            "id": 2,
            "number": -1
        },
        {
            "id": 3,
            "number": -1
        },
        {
            "id": 4,
            "number": -1
        }
    ],
    "win_conditions": [
        {
            "bodyEnteredArea": [
                {
                    "RECT": [
                        {
                            "x": 13,
                            "y": 14
                        },
                        {
                            "x": 15,
                            "y": 19
                        }
                    ]
                },
                "main_car"
            ]
        }
    ],
    "lose_conditions": [],
    "blocks": [
        {
            "shape_block": {
                "x": 11,
                "y": 10,
                "id": 0,
                "rotation": 180,
                "reflected": true
            }
        },
        {
            "shape_block": {
                "x": 8,
                "y": 10,
                "id": 0,
                "rotation": 180,
                "reflected": false
            }
        },
        {
            "shape_block": {
                "x": 11,
                "y": 13,
                "id": 2,
                "rotation": 180,
                "reflected": false
            }
        },
        {
            "static_block": {
                "x": 9,
                "y": 14,
                "w": 2,
                "h": 4
            }
        }
    ],
    "dynamic_objects": [
        {
            "floating": {
                "x": 10,
                "y": 11,
                "id": "2"
            }
        },
        {
            "simple_car": {
                "x": 10,
                "y": 7,
                "id": "main_car"
            }
        }
    ]
}
