{
    "name": "Separation",
    "author_nickname": "cf",
    "notes": "Get the first ball in the right pocket and the second ball in the left pocket. Each ball is allowed through its own red zone. 4 Seconds: go!",
    "hint1": "Try to drop something between the balls to send them different ways.",
    "hint2": "Build a leaning tower that topples in between.",
    "hint3": "",
    "discussion_id": "325",
    "discussion_slug": "325-separation",
    "highlight_notes": false,
    "effects": {},
    "zoom": {
        "w": 34.559999999999995,
        "x": -2.2372099644128167,
        "y": 0.4357580071174302
    },
    "shapes": [
        {
            "id": 0,
            "number": -1
        },
        {
            "id": 1,
            "number": -1
        },
        {
            "id": 2,
            "number": -1
        },
        {
            "id": 3,
            "number": -1
        },
        {
            "id": 4,
            "number": -1
        }
    ],
    "win_conditions": [
        {
            "and": [
                {
                    "bodyEnteredArea": [
                        {
                            "RECT": [
                                {
                                    "x": 14,
                                    "y": 16
                                },
                                {
                                    "x": 17,
                                    "y": 19
                                }
                            ]
                        },
                        "main_car"
                    ]
                },
                {
                    "bodyEnteredArea": [
                        {
                            "RECT": [
                                {
                                    "x": -4,
                                    "y": 16
                                },
                                {
                                    "x": -1,
                                    "y": 19
                                }
                            ]
                        },
                        "1"
                    ]
                }
            ]
        }
    ],
    "lose_conditions": [
        {
            "bodyEnteredArea": [
                {
                    "RECT": [
                        {
                            "x": 12,
                            "y": 15
                        },
                        {
                            "x": 14,
                            "y": 18
                        }
                    ]
                },
                "1"
            ]
        },
        {
            "bodyEnteredArea": [
                {
                    "RECT": [
                        {
                            "x": -1,
                            "y": 15
                        },
                        {
                            "x": 1,
                            "y": 18
                        }
                    ]
                },
                "main_car"
            ]
        },
        {
            "greaterThan": [
                "time",
                4000
            ]
        }
    ],
    "blocks": [
        {
            "shape_block": {
                "x": -3,
                "y": 7,
                "id": 4,
                "rotation": 0,
                "reflected": false
            }
        },
        {
            "shape_block": {
                "x": -2,
                "y": 8,
                "id": 4,
                "rotation": 0,
                "reflected": false
            }
        },
        {
            "shape_block": {
                "x": -1,
                "y": 9,
                "id": 4,
                "rotation": 0,
                "reflected": false
            }
        },
        {
            "shape_block": {
                "x": 0,
                "y": 10,
                "id": 4,
                "rotation": 0,
                "reflected": false
            }
        },
        {
            "shape_block": {
                "x": 1,
                "y": 11,
                "id": 4,
                "rotation": 0,
                "reflected": false
            }
        },
        {
            "shape_block": {
                "x": 2,
                "y": 12,
                "id": 4,
                "rotation": 0,
                "reflected": false
            }
        },
        {
            "shape_block": {
                "x": 1,
                "y": 13,
                "id": 0,
                "rotation": 180,
                "reflected": false
            }
        },
        {
            "shape_block": {
                "x": -1,
                "y": 11,
                "id": 0,
                "rotation": 180,
                "reflected": false
            }
        },
        {
            "shape_block": {
                "x": -3,
                "y": 9,
                "id": 0,
                "rotation": 180,
                "reflected": false
            }
        },
        {
            "shape_block": {
                "x": -4,
                "y": 7,
                "id": 3,
                "rotation": 180,
                "reflected": false
            }
        },
        {
            "shape_block": {
                "x": 3,
                "y": 13,
                "id": 4,
                "rotation": 0,
                "reflected": false
            }
        },
        {
            "static_block": {
                "x": 0,
                "y": 14,
                "w": 4,
                "h": 1
            }
        },
        {
            "static_block": {
                "x": -2,
                "y": 12,
                "w": 2,
                "h": 1
            }
        },
        {
            "static_block": {
                "x": -4,
                "y": 10,
                "w": 2,
                "h": 1
            }
        },
        {
            "static_block": {
                "x": -5,
                "y": 8,
                "w": 1,
                "h": 12
            }
        },
        {
            "static_block": {
                "x": -1,
                "y": 18,
                "w": 15,
                "h": 2
            }
        },
        {
            "static_block": {
                "x": -4,
                "y": 19,
                "w": 3,
                "h": 1
            }
        },
        {
            "static_block": {
                "x": 14,
                "y": 19,
                "w": 3,
                "h": 1
            }
        },
        {
            "static_block": {
                "x": 17,
                "y": 1,
                "w": 1,
                "h": 19
            }
        },
        {
            "static_block": {
                "x": -5,
                "y": 1,
                "w": 22,
                "h": 1
            }
        },
        {
            "static_block": {
                "x": 9,
                "y": 14,
                "w": 4,
                "h": 1
            }
        },
        {
            "static_block": {
                "x": 13,
                "y": 12,
                "w": 2,
                "h": 1
            }
        },
        {
            "static_block": {
                "x": 15,
                "y": 10,
                "w": 2,
                "h": 1
            }
        },
        {
            "shape_block": {
                "x": 12,
                "y": 10,
                "id": 0,
                "rotation": 90,
                "reflected": true
            }
        },
        {
            "shape_block": {
                "x": 10,
                "y": 9,
                "id": 0,
                "rotation": 90,
                "reflected": true
            }
        },
        {
            "shape_block": {
                "x": 12,
                "y": 12,
                "id": 3,
                "rotation": 270,
                "reflected": true
            }
        }
    ],
    "dynamic_objects": [
        {
            "ball": {
                "x": 2,
                "y": 10,
                "id": "main_car"
            }
        },
        {
            "ball": {
                "x": -1,
                "y": 7,
                "id": "1"
            }
        }
    ]
}
