{
    "name": "cant push though the wall",
    "author_nickname": "TBE",
    "notes": "Get the car past the wall!",
    "hint1": "Try to build a ramp.",
    "hint2": "Shape your ramp to knock the block out of the way.",
    "hint3": "Build a ramp that peaks below the box, so it bounces to the right and the car jumps on top of it.",
    "discussion_id": "206",
    "discussion_slug": "206-cant-push-though-the-wall",
    "highlight_notes": false,
    "effects": {},
    "zoom": {
        "x": 0,
        "y": 0,
        "w": 60
    },
    "shapes": [
        {
            "id": 0,
            "number": -1
        },
        {
            "id": 1,
            "number": -1
        },
        {
            "id": 2,
            "number": -1
        },
        {
            "id": 3,
            "number": -1
        },
        {
            "id": 4,
            "number": -1
        }
    ],
    "win_conditions": [
        {
            "bodyEnteredArea": [
                {
                    "RECT": [
                        {
                            "x": 20,
                            "y": 16
                        },
                        {
                            "x": 23,
                            "y": 19
                        }
                    ]
                },
                "main_car"
            ]
        }
    ],
    "lose_conditions": [],
    "blocks": [
        {
            "static_block": {
                "x": -8,
                "y": 18,
                "w": 35,
                "h": 2
            }
        },
        {
            "static_block": {
                "x": 16,
                "y": 16,
                "w": 2,
                "h": 2
            }
        },
        {
            "static_block": {
                "x": 16,
                "y": 14,
                "w": 2,
                "h": 2
            }
        }
    ],
    "dynamic_objects": [
        {
            "simple_car": {
                "x": -3,
                "y": 17,
                "id": "main_car"
            }
        },
        {
            "box": {
                "x": 13,
                "y": -3,
                "id": "1"
            }
        }
    ]
}
