{
    "name": "Crack the Egg",
    "author_nickname": "AndyB",
    "notes": "Into the pan!",
    "hint1": "Place blocks inside the egg that cause it to topple.",
    "hint2": "Try a yellow block on top of the bottom bit of egg.",
    "hint3": "Build an arm sticking out of the bottom piece to the right, so the box can slide down it to the green area.",
    "discussion_id": "263",
    "discussion_slug": "263-crack-the-egg",
    "highlight_notes": false,
    "effects": {},
    "zoom": {
        "w": 28.799999999999997,
        "x": 6.4884035773191275,
        "y": -1.496588297495126
    },
    "shapes": [
        {
            "id": 0,
            "number": 2
        },
        {
            "id": 1,
            "number": 2
        },
        {
            "id": 2,
            "number": 2
        },
        {
            "id": 3,
            "number": 2
        },
        {
            "id": 4,
            "number": 2
        }
    ],
    "win_conditions": [
        {
            "bodyEnteredArea": [
                {
                    "RECT": [
                        {
                            "x": 20,
                            "y": 13
                        },
                        {
                            "x": 24,
                            "y": 15
                        }
                    ]
                },
                "main_car"
            ]
        }
    ],
    "lose_conditions": [
        {
            "greaterThan": [
                "time",
                10000
            ]
        }
    ],
    "blocks": [
        {
            "static_block": {
                "x": 7,
                "y": 13,
                "w": 6,
                "h": 2
            }
        },
        {
            "shape_block": {
                "x": 9,
                "y": 11,
                "id": 2,
                "rotation": 0,
                "reflected": false
            }
        },
        {
            "shape_block": {
                "x": 8,
                "y": 10,
                "id": 3,
                "rotation": 90,
                "reflected": false
            }
        },
        {
            "shape_block": {
                "x": 10,
                "y": 10,
                "id": 0,
                "rotation": 0,
                "reflected": false
            }
        },
        {
            "shape_block": {
                "x": 7,
                "y": 9,
                "id": 1,
                "rotation": 270,
                "reflected": false
            }
        },
        {
            "shape_block": {
                "x": 12,
                "y": 9,
                "id": 3,
                "rotation": 90,
                "reflected": false
            }
        },
        {
            "shape_block": {
                "x": 12,
                "y": 8,
                "id": 4,
                "rotation": 270,
                "reflected": false
            }
        },
        {
            "shape_block": {
                "x": 7,
                "y": 7,
                "id": 4,
                "rotation": 0,
                "reflected": false
            }
        },
        {
            "shape_block": {
                "x": 9,
                "y": 9,
                "id": 4,
                "rotation": 0,
                "reflected": false
            }
        },
        {
            "shape_block": {
                "x": 7,
                "y": 2,
                "id": 4,
                "rotation": 180,
                "reflected": false
            }
        },
        {
            "shape_block": {
                "x": 9,
                "y": 4,
                "id": 4,
                "rotation": 180,
                "reflected": false
            }
        },
        {
            "shape_block": {
                "x": 12,
                "y": 3,
                "id": 4,
                "rotation": 90,
                "reflected": false
            }
        },
        {
            "shape_block": {
                "x": 12,
                "y": 11,
                "id": 4,
                "rotation": 90,
                "reflected": false
            }
        },
        {
            "shape_block": {
                "x": 7,
                "y": 11,
                "id": 4,
                "rotation": 180,
                "reflected": false
            }
        },
        {
            "shape_block": {
                "x": 7,
                "y": 1,
                "id": 4,
                "rotation": 270,
                "reflected": false
            }
        },
        {
            "shape_block": {
                "x": 12,
                "y": 1,
                "id": 4,
                "rotation": 0,
                "reflected": false
            }
        },
        {
            "shape_block": {
                "x": 11,
                "y": 2,
                "id": 1,
                "rotation": 180,
                "reflected": false
            }
        },
        {
            "shape_block": {
                "x": 9,
                "y": 0,
                "id": 2,
                "rotation": 0,
                "reflected": false
            }
        },
        {
            "shape_block": {
                "x": 8,
                "y": 2,
                "id": 1,
                "rotation": 270,
                "reflected": false
            }
        },
        {
            "static_block": {
                "x": 14,
                "y": 14,
                "w": 6,
                "h": 1
            }
        },
        {
            "static_block": {
                "x": 20,
                "y": 15,
                "w": 4,
                "h": 1
            }
        },
        {
            "static_block": {
                "x": 24,
                "y": 14,
                "w": 1,
                "h": 1
            }
        }
    ],
    "dynamic_objects": [
        {
            "box": {
                "x": 11,
                "y": 4,
                "id": "main_car"
            }
        }
    ]
}
