{
    "name": "Piano Stool",
    "author_nickname": "AndyB",
    "notes": "Adagio!",
    "hint1": "Break the piano and hope the ball bounces right.",
    "hint2": "Build a platform for the ball to sit on.",
    "hint3": "Breaking the piano in the right place, and the right shape of platform for the ball, should eventually end up with it passing through the green area on its way down.",
    "discussion_id": "266",
    "discussion_slug": "266-piano-stool",
    "highlight_notes": false,
    "effects": {},
    "zoom": {
        "w": 41.66666666666667,
        "x": 6.511917467093563,
        "y": -2.8210601209533968
    },
    "shapes": [
        {
            "id": 2,
            "number": 7
        },
        {
            "id": 4,
            "number": 1
        }
    ],
    "win_conditions": [
        {
            "bodyEnteredArea": [
                {
                    "RECT": [
                        {
                            "x": 14,
                            "y": 21
                        },
                        {
                            "x": 20,
                            "y": 23
                        }
                    ]
                },
                "main_car"
            ]
        }
    ],
    "lose_conditions": [
        {
            "greaterThan": [
                "time",
                20000
            ]
        }
    ],
    "blocks": [
        {
            "shape_block": {
                "x": 5,
                "y": 14,
                "id": 0,
                "rotation": 90,
                "reflected": false
            }
        },
        {
            "shape_block": {
                "x": 7,
                "y": 14,
                "id": 0,
                "rotation": 90,
                "reflected": false
            }
        },
        {
            "shape_block": {
                "x": 11,
                "y": 14,
                "id": 0,
                "rotation": 90,
                "reflected": false
            }
        },
        {
            "shape_block": {
                "x": 13,
                "y": 14,
                "id": 0,
                "rotation": 90,
                "reflected": false
            }
        },
        {
            "shape_block": {
                "x": 15,
                "y": 14,
                "id": 0,
                "rotation": 90,
                "reflected": false
            }
        },
        {
            "shape_block": {
                "x": 8,
                "y": 16,
                "id": 0,
                "rotation": 270,
                "reflected": false
            }
        },
        {
            "shape_block": {
                "x": 16,
                "y": 16,
                "id": 0,
                "rotation": 270,
                "reflected": false
            }
        },
        {
            "shape_block": {
                "x": 19,
                "y": 14,
                "id": 0,
                "rotation": 90,
                "reflected": false
            }
        },
        {
            "shape_block": {
                "x": 21,
                "y": 14,
                "id": 0,
                "rotation": 90,
                "reflected": false
            }
        },
        {
            "shape_block": {
                "x": 22,
                "y": 16,
                "id": 0,
                "rotation": 270,
                "reflected": false
            }
        },
        {
            "shape_block": {
                "x": 25,
                "y": 14,
                "id": 0,
                "rotation": 90,
                "reflected": false
            }
        },
        {
            "shape_block": {
                "x": 27,
                "y": 14,
                "id": 0,
                "rotation": 90,
                "reflected": false
            }
        },
        {
            "shape_block": {
                "x": 29,
                "y": 14,
                "id": 0,
                "rotation": 90,
                "reflected": false
            }
        },
        {
            "shape_block": {
                "x": 30,
                "y": 16,
                "id": 0,
                "rotation": 270,
                "reflected": false
            }
        },
        {
            "shape_block": {
                "x": 2,
                "y": 16,
                "id": 0,
                "rotation": 270,
                "reflected": false
            }
        },
        {
            "static_block": {
                "x": 2,
                "y": 18,
                "w": 1,
                "h": 1
            }
        },
        {
            "static_block": {
                "x": 30,
                "y": 18,
                "w": 1,
                "h": 1
            }
        }
    ],
    "dynamic_objects": [
        {
            "ball": {
                "x": 3,
                "y": 8,
                "id": "main_car"
            }
        }
    ]
}
