{
    "name": "Plinko precision",
    "author_nickname": "Ray 'BLJ' Duck (edit: cf)",
    "notes": "Make all the cars fall into the middle, without touching the edges!",
    "hint1": "Build a funnel for the cars to fall into, so they always hit the win.",
    "hint2": "Anchor round different blocks and connect them to make a strong structure for the cars to fall on.",
    "hint3": "",
    "discussion_id": "319",
    "discussion_slug": "319-plinko-precision-fixed-2",
    "highlight_notes": false,
    "effects": {},
    "zoom": {
        "w": 60,
        "x": 0,
        "y": 0
    },
    "shapes": [
        {
            "id": 0,
            "number": -1
        },
        {
            "id": 1,
            "number": -1
        },
        {
            "id": 2,
            "number": -1
        },
        {
            "id": 3,
            "number": -1
        },
        {
            "id": 4,
            "number": -1
        }
    ],
    "win_conditions": [
        {
            "and": [
                {
                    "bodyEnteredArea": [
                        {
                            "RECT": [
                                {
                                    "x": 4,
                                    "y": 30
                                },
                                {
                                    "x": 18,
                                    "y": 36
                                }
                            ]
                        },
                        "1"
                    ]
                },
                {
                    "bodyEnteredArea": [
                        {
                            "RECT": [
                                {
                                    "x": 4,
                                    "y": 30
                                },
                                {
                                    "x": 18,
                                    "y": 36
                                }
                            ]
                        },
                        "2"
                    ]
                },
                {
                    "bodyEnteredArea": [
                        {
                            "RECT": [
                                {
                                    "x": 4,
                                    "y": 30
                                },
                                {
                                    "x": 18,
                                    "y": 36
                                }
                            ]
                        },
                        "3"
                    ]
                },
                {
                    "bodyEnteredArea": [
                        {
                            "RECT": [
                                {
                                    "x": 4,
                                    "y": 30
                                },
                                {
                                    "x": 18,
                                    "y": 36
                                }
                            ]
                        },
                        "4"
                    ]
                },
                {
                    "bodyEnteredArea": [
                        {
                            "RECT": [
                                {
                                    "x": 4,
                                    "y": 30
                                },
                                {
                                    "x": 18,
                                    "y": 36
                                }
                            ]
                        },
                        "5"
                    ]
                },
                {
                    "bodyEnteredArea": [
                        {
                            "RECT": [
                                {
                                    "x": 4,
                                    "y": 30
                                },
                                {
                                    "x": 18,
                                    "y": 36
                                }
                            ]
                        },
                        "6"
                    ]
                },
                {
                    "bodyEnteredArea": [
                        {
                            "RECT": [
                                {
                                    "x": 4,
                                    "y": 30
                                },
                                {
                                    "x": 18,
                                    "y": 36
                                }
                            ]
                        },
                        "7"
                    ]
                },
                {
                    "bodyEnteredArea": [
                        {
                            "RECT": [
                                {
                                    "x": 4,
                                    "y": 30
                                },
                                {
                                    "x": 18,
                                    "y": 36
                                }
                            ]
                        },
                        "8"
                    ]
                },
                {
                    "bodyEnteredArea": [
                        {
                            "RECT": [
                                {
                                    "x": 4,
                                    "y": 30
                                },
                                {
                                    "x": 18,
                                    "y": 36
                                }
                            ]
                        },
                        "9"
                    ]
                }
            ]
        }
    ],
    "lose_conditions": [
        {
            "bodyEnteredArea": [
                {
                    "RECT": [
                        {
                            "x": -10,
                            "y": 28
                        },
                        {
                            "x": 9,
                            "y": 30
                        }
                    ]
                },
                "1"
            ]
        },
        {
            "bodyEnteredArea": [
                {
                    "RECT": [
                        {
                            "x": 13,
                            "y": 28
                        },
                        {
                            "x": 30,
                            "y": 30
                        }
                    ]
                },
                "1"
            ]
        },
        {
            "bodyEnteredArea": [
                {
                    "RECT": [
                        {
                            "x": -10,
                            "y": 28
                        },
                        {
                            "x": 9,
                            "y": 30
                        }
                    ]
                },
                "2"
            ]
        },
        {
            "bodyEnteredArea": [
                {
                    "RECT": [
                        {
                            "x": 13,
                            "y": 28
                        },
                        {
                            "x": 30,
                            "y": 30
                        }
                    ]
                },
                "2"
            ]
        },
        {
            "bodyEnteredArea": [
                {
                    "RECT": [
                        {
                            "x": -10,
                            "y": 28
                        },
                        {
                            "x": 9,
                            "y": 30
                        }
                    ]
                },
                "3"
            ]
        },
        {
            "bodyEnteredArea": [
                {
                    "RECT": [
                        {
                            "x": 13,
                            "y": 28
                        },
                        {
                            "x": 30,
                            "y": 30
                        }
                    ]
                },
                "3"
            ]
        },
        {
            "bodyEnteredArea": [
                {
                    "RECT": [
                        {
                            "x": -10,
                            "y": 28
                        },
                        {
                            "x": 9,
                            "y": 30
                        }
                    ]
                },
                "4"
            ]
        },
        {
            "bodyEnteredArea": [
                {
                    "RECT": [
                        {
                            "x": 13,
                            "y": 28
                        },
                        {
                            "x": 30,
                            "y": 30
                        }
                    ]
                },
                "4"
            ]
        },
        {
            "bodyEnteredArea": [
                {
                    "RECT": [
                        {
                            "x": -10,
                            "y": 28
                        },
                        {
                            "x": 9,
                            "y": 30
                        }
                    ]
                },
                "5"
            ]
        },
        {
            "bodyEnteredArea": [
                {
                    "RECT": [
                        {
                            "x": 13,
                            "y": 28
                        },
                        {
                            "x": 30,
                            "y": 30
                        }
                    ]
                },
                "5"
            ]
        },
        {
            "bodyEnteredArea": [
                {
                    "RECT": [
                        {
                            "x": -10,
                            "y": 28
                        },
                        {
                            "x": 9,
                            "y": 30
                        }
                    ]
                },
                "6"
            ]
        },
        {
            "bodyEnteredArea": [
                {
                    "RECT": [
                        {
                            "x": 13,
                            "y": 28
                        },
                        {
                            "x": 30,
                            "y": 30
                        }
                    ]
                },
                "6"
            ]
        },
        {
            "bodyEnteredArea": [
                {
                    "RECT": [
                        {
                            "x": -10,
                            "y": 28
                        },
                        {
                            "x": 9,
                            "y": 30
                        }
                    ]
                },
                "7"
            ]
        },
        {
            "bodyEnteredArea": [
                {
                    "RECT": [
                        {
                            "x": 13,
                            "y": 28
                        },
                        {
                            "x": 30,
                            "y": 30
                        }
                    ]
                },
                "7"
            ]
        },
        {
            "bodyEnteredArea": [
                {
                    "RECT": [
                        {
                            "x": -10,
                            "y": 28
                        },
                        {
                            "x": 9,
                            "y": 30
                        }
                    ]
                },
                "8"
            ]
        },
        {
            "bodyEnteredArea": [
                {
                    "RECT": [
                        {
                            "x": 13,
                            "y": 28
                        },
                        {
                            "x": 30,
                            "y": 30
                        }
                    ]
                },
                "8"
            ]
        },
        {
            "bodyEnteredArea": [
                {
                    "RECT": [
                        {
                            "x": -10,
                            "y": 28
                        },
                        {
                            "x": 9,
                            "y": 30
                        }
                    ]
                },
                "9"
            ]
        },
        {
            "bodyEnteredArea": [
                {
                    "RECT": [
                        {
                            "x": 13,
                            "y": 28
                        },
                        {
                            "x": 30,
                            "y": 30
                        }
                    ]
                },
                "9"
            ]
        },
        {
            "greaterThan": [
                "time",
                10000
            ]
        }
    ],
    "blocks": [
        {
            "static_block": {
                "x": 8,
                "y": -7,
                "w": 2,
                "h": 2
            }
        },
        {
            "static_block": {
                "x": -3,
                "y": -1,
                "w": 2,
                "h": 2
            }
        },
        {
            "static_block": {
                "x": 24,
                "y": 0,
                "w": 2,
                "h": 2
            }
        },
        {
            "static_block": {
                "x": 10,
                "y": 23,
                "w": 2,
                "h": 2
            }
        },
        {
            "static_block": {
                "x": -2,
                "y": 23,
                "w": 2,
                "h": 2
            }
        },
        {
            "static_block": {
                "x": 11,
                "y": 3,
                "w": 2,
                "h": 2
            }
        },
        {
            "static_block": {
                "x": 24,
                "y": 18,
                "w": 2,
                "h": 2
            }
        },
        {
            "static_block": {
                "x": 22,
                "y": 28,
                "w": 2,
                "h": 2
            }
        },
        {
            "static_block": {
                "x": -4,
                "y": 13,
                "w": 2,
                "h": 2
            }
        },
        {
            "static_block": {
                "x": 12,
                "y": 12,
                "w": 2,
                "h": 2
            }
        },
        {
            "static_block": {
                "x": 3,
                "y": 30,
                "w": 1,
                "h": 7
            }
        },
        {
            "static_block": {
                "x": 4,
                "y": 36,
                "w": 14,
                "h": 1
            }
        },
        {
            "static_block": {
                "x": 18,
                "y": 30,
                "w": 1,
                "h": 7
            }
        },
        {
            "shape_block": {
                "x": 20,
                "y": 28,
                "id": 0,
                "rotation": 0,
                "reflected": false
            }
        },
        {
            "shape_block": {
                "x": 17,
                "y": 28,
                "id": 0,
                "rotation": 0,
                "reflected": false
            }
        },
        {
            "shape_block": {
                "x": 14,
                "y": 28,
                "id": 0,
                "rotation": 0,
                "reflected": false
            }
        },
        {
            "shape_block": {
                "x": 17,
                "y": 30,
                "id": 0,
                "rotation": 90,
                "reflected": true
            }
        },
        {
            "shape_block": {
                "x": 23,
                "y": 27,
                "id": 0,
                "rotation": 0,
                "reflected": false
            }
        },
        {
            "shape_block": {
                "x": 21,
                "y": 27,
                "id": 4,
                "rotation": 270,
                "reflected": false
            }
        },
        {
            "shape_block": {
                "x": 4,
                "y": 28,
                "id": 0,
                "rotation": 0,
                "reflected": true
            }
        },
        {
            "shape_block": {
                "x": 7,
                "y": 28,
                "id": 0,
                "rotation": 0,
                "reflected": true
            }
        },
        {
            "shape_block": {
                "x": 4,
                "y": 30,
                "id": 0,
                "rotation": 270,
                "reflected": false
            }
        },
        {
            "shape_block": {
                "x": 6,
                "y": 27,
                "id": 4,
                "rotation": 0,
                "reflected": false
            }
        },
        {
            "shape_block": {
                "x": 5,
                "y": 26,
                "id": 4,
                "rotation": 0,
                "reflected": false
            }
        },
        {
            "shape_block": {
                "x": 4,
                "y": 25,
                "id": 4,
                "rotation": 0,
                "reflected": false
            }
        },
        {
            "shape_block": {
                "x": 3,
                "y": 24,
                "id": 4,
                "rotation": 0,
                "reflected": false
            }
        },
        {
            "shape_block": {
                "x": 2,
                "y": 23,
                "id": 4,
                "rotation": 0,
                "reflected": false
            }
        },
        {
            "shape_block": {
                "x": 4,
                "y": 27,
                "id": 1,
                "rotation": 180,
                "reflected": true
            }
        },
        {
            "shape_block": {
                "x": 0,
                "y": 24,
                "id": 0,
                "rotation": 270,
                "reflected": false
            }
        },
        {
            "shape_block": {
                "x": 2,
                "y": 25,
                "id": 1,
                "rotation": 270,
                "reflected": false
            }
        },
        {
            "shape_block": {
                "x": 3,
                "y": 26,
                "id": 4,
                "rotation": 0,
                "reflected": false
            }
        },
        {
            "shape_block": {
                "x": 2,
                "y": 29,
                "id": 0,
                "rotation": 90,
                "reflected": false
            }
        },
        {
            "shape_block": {
                "x": 22,
                "y": 25,
                "id": 0,
                "rotation": 270,
                "reflected": false
            }
        },
        {
            "shape_block": {
                "x": 22,
                "y": 23,
                "id": 3,
                "rotation": 270,
                "reflected": false
            }
        },
        {
            "shape_block": {
                "x": 19,
                "y": 30,
                "id": 0,
                "rotation": 270,
                "reflected": true
            }
        },
        {
            "shape_block": {
                "x": 16,
                "y": 32,
                "id": 0,
                "rotation": 180,
                "reflected": false
            }
        },
        {
            "shape_block": {
                "x": 19,
                "y": 26,
                "id": 0,
                "rotation": 270,
                "reflected": false
            }
        },
        {
            "shape_block": {
                "x": 0,
                "y": 22,
                "id": 4,
                "rotation": 270,
                "reflected": false
            }
        },
        {
            "shape_block": {
                "x": 15,
                "y": 27,
                "id": 4,
                "rotation": 270,
                "reflected": false
            }
        },
        {
            "shape_block": {
                "x": 16,
                "y": 27,
                "id": 3,
                "rotation": 0,
                "reflected": false
            }
        },
        {
            "shape_block": {
                "x": 17,
                "y": 26,
                "id": 4,
                "rotation": 270,
                "reflected": false
            }
        },
        {
            "shape_block": {
                "x": 18,
                "y": 25,
                "id": 4,
                "rotation": 270,
                "reflected": false
            }
        },
        {
            "shape_block": {
                "x": 19,
                "y": 24,
                "id": 4,
                "rotation": 270,
                "reflected": false
            }
        },
        {
            "shape_block": {
                "x": 20,
                "y": 23,
                "id": 4,
                "rotation": 270,
                "reflected": false
            }
        },
        {
            "shape_block": {
                "x": 21,
                "y": 22,
                "id": 4,
                "rotation": 270,
                "reflected": false
            }
        },
        {
            "shape_block": {
                "x": 21,
                "y": 24,
                "id": 1,
                "rotation": 90,
                "reflected": true
            }
        },
        {
            "shape_block": {
                "x": 9,
                "y": -4,
                "id": 4,
                "rotation": 90,
                "reflected": true
            }
        },
        {
            "shape_block": {
                "x": 14,
                "y": 14,
                "id": 4,
                "rotation": 90,
                "reflected": true
            }
        }
    ],
    "dynamic_objects": [
        {
            "simple_car": {
                "x": -2,
                "y": -2,
                "id": "9"
            }
        },
        {
            "left_car": {
                "x": 13,
                "y": 11,
                "id": "1"
            }
        },
        {
            "simple_car": {
                "x": 12,
                "y": 2,
                "id": "2"
            }
        },
        {
            "left_car": {
                "x": 9,
                "y": -8,
                "id": "3"
            }
        },
        {
            "left_car": {
                "x": 25,
                "y": -1,
                "id": "4"
            }
        },
        {
            "simple_car": {
                "x": -3,
                "y": 12,
                "id": "5"
            }
        },
        {
            "left_car": {
                "x": 25,
                "y": 17,
                "id": "6"
            }
        },
        {
            "left_car": {
                "x": 11,
                "y": 22,
                "id": "7"
            }
        },
        {
            "simple_car": {
                "x": -1,
                "y": 22,
                "id": "8"
            }
        }
    ]
}
