{
    "name": "Stairs 5",
    "author_nickname": "AndyB",
    "notes": "Skip that second step!",
    "hint1": "Drop a blue on the ball to bounce it, then slow it down.",
    "hint2": "Place a slope on the second-last step to slow the ball as it falls. Adjust the height of the blue block to persuade the ball to head for the green.",
    "hint3": "",
    "discussion_id": "159",
    "discussion_slug": "159-stairs-5",
    "highlight_notes": false,
    "effects": {},
    "zoom": {
        "x": 0,
        "y": 0,
        "w": 20
    },
    "shapes": [
        {
            "id": 2,
            "number": 1
        },
        {
            "id": 3,
            "number": 4
        },
        {
            "id": 4,
            "number": 2
        }
    ],
    "win_conditions": [
        {
            "bodyEnteredArea": [
                {
                    "RECT": [
                        {
                            "x": 13,
                            "y": 17
                        },
                        {
                            "x": 15,
                            "y": 19
                        }
                    ]
                },
                "main_car"
            ]
        }
    ],
    "lose_conditions": [
        {
            "bodyEnteredArea": [
                {
                    "RECT": [
                        {
                            "x": 7,
                            "y": 11
                        },
                        {
                            "x": 9,
                            "y": 13
                        }
                    ]
                },
                "main_car"
            ]
        },
        {
            "greaterThan": [
                "time",
                10000
            ]
        }
    ],
    "blocks": [
        {
            "static_block": {
                "x": 5,
                "y": 11,
                "w": 2,
                "h": 2
            }
        },
        {
            "static_block": {
                "x": 11,
                "y": 17,
                "w": 2,
                "h": 2
            }
        },
        {
            "static_block": {
                "x": 13,
                "y": 19,
                "w": 4,
                "h": 1
            }
        },
        {
            "static_block": {
                "x": 9,
                "y": 15,
                "w": 2,
                "h": 2
            }
        },
        {
            "static_block": {
                "x": 7,
                "y": 13,
                "w": 2,
                "h": 2
            }
        },
        {
            "shape_block": {
                "x": 5,
                "y": 3,
                "id": 2,
                "rotation": 0,
                "reflected": false
            }
        },
        {
            "shape_block": {
                "x": 12,
                "y": 16,
                "id": 4,
                "rotation": 270,
                "reflected": false
            }
        }
    ],
    "dynamic_objects": [
        {
            "ball": {
                "x": 7,
                "y": 10,
                "id": "main_car"
            }
        }
    ]
}