{
    "name": "diversion",
    "author_nickname": "cf",
    "notes": "Get the anvil over to the left a bit!",
    "hint1": "You'll need to collide with the ground on the right.",
    "hint2": "Place a red block on the ground, sticking out left, and make your anvil wide enough to hit it.",
    "hint3": "Place a red block under the anvil that sticks out and hits the block on the ground.",
    "discussion_id": "260",
    "discussion_slug": "260-diversion",
    "effects": {},
    "zoom": {
        "w": 34.559999999999995,
        "x": 0.7255690607734795,
        "y": 4.544353591160227
    },
    "shapes": [
        {
            "id": 0,
            "number": -1
        },
        {
            "id": 1,
            "number": -1
        },
        {
            "id": 2,
            "number": -1
        },
        {
            "id": 3,
            "number": -1
        },
        {
            "id": 4,
            "number": -1
        }
    ],
    "win_conditions": [
        {
            "bodyEnteredArea": [
                {
                    "RECT": [
                        {
                            "x": 3,
                            "y": 15
                        },
                        {
                            "x": 6,
                            "y": 23
                        }
                    ]
                },
                "main_car"
            ]
        }
    ],
    "lose_conditions": [],
    "blocks": [
        {
            "static_block": {
                "x": 11,
                "y": 16,
                "w": 10,
                "h": 3
            }
        }
    ],
    "dynamic_objects": [
        {
            "anvil": {
                "x": 9,
                "y": 4,
                "id": "main_car"
            }
        }
    ]
}
