{
    "name": "Snippy",
    "author_nickname": "AndyB",
    "notes": "Get the left-hand ball into the pocket",
    "hint1": "Make a slope and jump the ball over.",
    "hint2": "Catch the ball on the other side.",
    "hint3": "Clamp your catching apparatus around the edge of the pocket.",
    "discussion_id": "288",
    "discussion_slug": "288-snippy",
    "highlight_notes": false,
    "effects": {},
    "zoom": {
        "w": 24,
        "x": -4.255319148936171,
        "y": -0.5744680851063823
    },
    "shapes": [
        {
            "id": 0,
            "number": -1
        },
        {
            "id": 1,
            "number": -1
        },
        {
            "id": 2,
            "number": -1
        },
        {
            "id": 3,
            "number": -1
        },
        {
            "id": 4,
            "number": -1
        }
    ],
    "win_conditions": [
        {
            "bodyEnteredArea": [
                {
                    "RECT": [
                        {
                            "x": 9,
                            "y": 11
                        },
                        {
                            "x": 12,
                            "y": 13
                        }
                    ]
                },
                "main_car"
            ]
        }
    ],
    "lose_conditions": [
        {
            "greaterThan": [
                "time",
                10000
            ]
        }
    ],
    "blocks": [
        {
            "static_block": {
                "x": 8,
                "y": 11,
                "w": 1,
                "h": 2
            }
        },
        {
            "static_block": {
                "x": 9,
                "y": 13,
                "w": 3,
                "h": 1
            }
        },
        {
            "static_block": {
                "x": 12,
                "y": 11,
                "w": 1,
                "h": 2
            }
        },
        {
            "static_block": {
                "x": -1,
                "y": 10,
                "w": 9,
                "h": 1
            }
        },
        {
            "static_block": {
                "x": 3,
                "y": 9,
                "w": 1,
                "h": 1
            }
        },
        {
            "shape_block": {
                "x": 9,
                "y": 9,
                "id": 4,
                "rotation": 90,
                "reflected": false
            }
        },
        {
            "shape_block": {
                "x": 9,
                "y": 8,
                "id": 4,
                "rotation": 270,
                "reflected": false
            }
        },
        {
            "shape_block": {
                "x": 10,
                "y": 8,
                "id": 4,
                "rotation": 90,
                "reflected": false
            }
        },
        {
            "shape_block": {
                "x": 7,
                "y": 9,
                "id": 0,
                "rotation": 0,
                "reflected": false
            }
        }
    ],
    "dynamic_objects": [
        {
            "ball": {
                "x": 1,
                "y": 9,
                "id": "main_car"
            }
        },
        {
            "ball": {
                "x": 8,
                "y": 8,
                "id": "1"
            }
        }
    ]
}