{
  "name": "Bridge the gap",
  "author_nickname": "AndyB",
  "notes": "__CAR_NOTES__",
  "hint1": "Place a red block into the hole and the car should be able to get to the other side",
  "hint2": "",
  "hint3": "",
  "discussion_id": "63",
  "discussion_slug": "63-bridge-the-gap",
  "highlight_notes": true,
  "effects": {},
  "zoom": {
    "x": 0,
    "y": 0,
    "w": 20
  },
  "shapes": [
    {
      "id": 0,
      "number": -1
    }
  ],
  "win_conditions": [
    {
      "bodyEnteredArea": [
        {
          "RECT": [
            {
              "x": 14,
              "y": 14
            },
            {
              "x": 16,
              "y": 18
            }
          ]
        },
        "main_car"
      ]
    }
  ],
  "lose_conditions": [
    {
      "greaterThan": [
        "time",
        5000000
      ]
    }
  ],
  "blocks": [
    {
      "static_block": {
        "x": 0,
        "y": 18,
        "w": 9,
        "h": 2
      }
    },
    {
      "static_block": {
        "x": 12,
        "y": 18,
        "w": 8,
        "h": 2
      }
    },
    {
      "static_block": {
        "x": 9,
        "y": 19,
        "w": 2,
        "h": 1
      }
    },
    {
      "shape_block": {
        "x": 10,
        "y": 18,
        "id": 0,
        "rotation": 0,
        "reflected": false
      }
    }
  ],
  "dynamic_objects": [
    {
      "simple_car": {
        "x": 4,
        "y": 15,
        "id": "main_car"
      }
    }
  ]
}
