{
    "name": "Demolition",
    "author_nickname": "AndyB",
    "notes": "Can you knock over the tower?",
    "hint1": "Try dropping a block onto another one.",
    "hint2": "Place a block on the ground, and drop something heavy onto it, off-centre.",
    "discussion_id": "68",
    "discussion_slug": "68-demolition",
    "effects": {},
    "shapes": [
        {
            "id": 0,
            "number": -1
        },
        {
            "id": 1,
            "number": -1
        },
        {
            "id": 2,
            "number": -1
        },
        {
            "id": 3,
            "number": -1
        },
        {
            "id": 4,
            "number": -1
        }
    ],
    "win_conditions": [
        {
            "bodyEnteredArea": [
                {
                    "RECT": [
                        {
                            "x": 0,
                            "y": 14
                        },
                        {
                            "x": 20,
                            "y": 16
                        }
                    ]
                },
                "main_car"
            ]
        }
    ],
    "lose_conditions": [],
    "blocks": [
        {
            "static_block": {
                "x": 0,
                "y": 16,
                "w": 20,
                "h": 2
            }
        },
        {
            "shape_block": {
                "x": 9,
                "y": 14,
                "id": 2,
                "rotation": 0,
                "reflected": false
            }
        },
        {
            "shape_block": {
                "x": 9,
                "y": 12,
                "id": 2,
                "rotation": 0,
                "reflected": false
            }
        },
        {
            "shape_block": {
                "x": 9,
                "y": 10,
                "id": 2,
                "rotation": 0,
                "reflected": false
            }
        }
    ],
    "dynamic_objects": [
        {
            "box": {
                "x": 10,
                "y": 9,
                "id": "main_car"
            }
        }
    ]
}
