{
    "name": "wack it",
    "author_nickname": "TBE",
    "notes": "Hit the ball!",
    "hint1": "Drop a block onto the ball to move it.",
    "hint2": "Drop it on the right-hand side of the ball.",
    "hint3": "",
    "discussion_id": "197",
    "discussion_slug": "197-wack-it",
    "highlight_notes": false,
    "effects": {},
    "zoom": {
        "x": -2,
        "y": 0,
        "w": 30
    },
    "shapes": [
        {
            "id": 0,
            "number": -1
        },
        {
            "id": 1,
            "number": -1
        },
        {
            "id": 2,
            "number": -1
        },
        {
            "id": 3,
            "number": -1
        },
        {
            "id": 4,
            "number": -1
        }
    ],
    "win_conditions": [
        {
            "bodyEnteredArea": [
                {
                    "RECT": [
                        {
                            "x": 14,
                            "y": 10
                        },
                        {
                            "x": 17,
                            "y": 14
                        }
                    ]
                },
                "main_car"
            ]
        }
    ],
    "lose_conditions": [],
    "blocks": [
        {
            "static_block": {
                "x": -2,
                "y": -1,
                "w": 2,
                "h": 17
            }
        },
        {
            "static_block": {
                "x": 0,
                "y": 14,
                "w": 2,
                "h": 2
            }
        },
        {
            "static_block": {
                "x": 2,
                "y": 14,
                "w": 16,
                "h": 2
            }
        },
        {
            "static_block": {
                "x": 0,
                "y": 5,
                "w": 2,
                "h": 2
            }
        },
        {
            "static_block": {
                "x": 2,
                "y": 7,
                "w": 2,
                "h": 2
            }
        },
        {
            "static_block": {
                "x": 2,
                "y": 5,
                "w": 2,
                "h": 2
            }
        },
        {
            "shape_block": {
                "x": 0,
                "y": -7,
                "id": 2,
                "rotation": 0,
                "reflected": false
            }
        }
    ],
    "dynamic_objects": [
        {
            "ball": {
                "x": 2,
                "y": 2,
                "id": "main_car"
            }
        }
    ]
}
