{
    "name": "can you get up",
    "author_nickname": "TBE",
    "notes": "The exit is up a bit",
    "hint1": "Bridge across the gap and make a slope up",
    "hint2": "Build up from the bottom to support your bridge",
    "hint3": "Use slope blocks to persuade the car to go higher",
    "discussion_id": "174",
    "discussion_slug": "174-can-you-get-up",
    "highlight_notes": false,
    "effects": {},
    "zoom": {
        "w": 41.66666666666667,
        "x": -9.10194174757282,
        "y": -7.5512405609492985
    },
    "shapes": [
        {
            "id": 0,
            "number": -1
        },
        {
            "id": 1,
            "number": -1
        },
        {
            "id": 2,
            "number": -1
        },
        {
            "id": 3,
            "number": -1
        },
        {
            "id": 4,
            "number": -1
        }
    ],
    "win_conditions": [
        {
            "bodyEnteredArea": [
                {
                    "RECT": [
                        {
                            "x": 12,
                            "y": -9
                        },
                        {
                            "x": 16,
                            "y": -5
                        }
                    ]
                },
                "main_car"
            ]
        }
    ],
    "lose_conditions": [
        {
            "greaterThan": [
                "time",
                5000
            ]
        }
    ],
    "blocks": [
        {
            "static_block": {
                "x": -14,
                "y": 2,
                "w": 2,
                "h": 2
            }
        },
        {
            "static_block": {
                "x": -12,
                "y": 2,
                "w": 2,
                "h": 2
            }
        },
        {
            "static_block": {
                "x": -10,
                "y": 2,
                "w": 2,
                "h": 2
            }
        },
        {
            "static_block": {
                "x": -10,
                "y": 4,
                "w": 2,
                "h": 2
            }
        },
        {
            "static_block": {
                "x": -10,
                "y": 6,
                "w": 2,
                "h": 2
            }
        },
        {
            "static_block": {
                "x": -10,
                "y": 8,
                "w": 2,
                "h": 2
            }
        },
        {
            "static_block": {
                "x": 0,
                "y": 2,
                "w": 2,
                "h": 2
            }
        },
        {
            "static_block": {
                "x": 0,
                "y": 4,
                "w": 2,
                "h": 2
            }
        },
        {
            "static_block": {
                "x": 0,
                "y": 6,
                "w": 2,
                "h": 2
            }
        },
        {
            "static_block": {
                "x": 0,
                "y": 8,
                "w": 2,
                "h": 2
            }
        },
        {
            "static_block": {
                "x": 2,
                "y": 2,
                "w": 2,
                "h": 2
            }
        },
        {
            "static_block": {
                "x": 4,
                "y": 2,
                "w": 2,
                "h": 2
            }
        },
        {
            "static_block": {
                "x": -6,
                "y": 9,
                "w": 6,
                "h": 2
            }
        },
        {
            "static_block": {
                "x": -8,
                "y": 9,
                "w": 2,
                "h": 2
            }
        },
        {
            "static_block": {
                "x": -5,
                "y": 9,
                "w": 2,
                "h": 2
            }
        },
        {
            "static_block": {
                "x": 2,
                "y": 9,
                "w": 30,
                "h": 2
            }
        }
    ],
    "dynamic_objects": [
        {
            "simple_car": {
                "x": -12,
                "y": 1,
                "id": "main_car"
            }
        }
    ]
}
