{
    "name": "Multi-cricket",
    "author_nickname": "AndyB",
    "notes": "Stop the bails getting knocked over!",
    "hint1": "Experiment with different positions for your \"bat\".",
    "hint2": "",
    "hint3": "",
    "discussion_id": "117",
    "discussion_slug": "117-multi-cricket",
    "highlight_notes": false,
    "effects": {},
    "zoom": {
        "x": 3,
        "y": 0,
        "w": 22
    },
    "shapes": [
        {
            "id": 0,
            "number": 2
        }
    ],
    "win_conditions": [
        {
            "greaterThan": [
                "time",
                5000
            ]
        }
    ],
    "lose_conditions": [
        {
            "bodyEnteredArea": [
                {
                    "RECT": [
                        {
                            "x": 17,
                            "y": 11
                        },
                        {
                            "x": 25,
                            "y": 15
                        }
                    ]
                },
                "1"
            ]
        }
    ],
    "blocks": [
        {
            "static_block": {
                "x": 3,
                "y": 15,
                "w": 22,
                "h": 2
            }
        },
        {
            "shape_block": {
                "x": 16,
                "y": 13,
                "id": 3,
                "rotation": 90,
                "reflected": false
            }
        },
        {
            "shape_block": {
                "x": 16,
                "y": 11,
                "id": 3,
                "rotation": 90,
                "reflected": false
            }
        },
        {
            "shape_block": {
                "x": 17,
                "y": 11,
                "id": 4,
                "rotation": 90,
                "reflected": false
            }
        }
    ],
    "dynamic_objects": [
        {
            "box": {
                "x": 17,
                "y": 10,
                "id": "1"
            }
        },
        {
            "bouncy": {
                "x": 6,
                "y": 11,
                "id": "main_car"
            }
        },
        {
            "bouncy": {
                "x": 4,
                "y": -8,
                "id": "2"
            }
        },
        {
            "ball": {
                "x": 10,
                "y": 3,
                "id": "3"
            }
        },
        {
            "ball": {
                "x": 14,
                "y": 3,
                "id": "4"
            }
        }
    ]
}