<?xml version="1.0" encoding="UTF-8" standalone="no"?>
<!-- Created with Inkscape (http://www.inkscape.org/) -->

<svg
   width="300mm"
   height="300mm"
   viewBox="0 0 300 300"
   version="1.1"
   id="svg5"
   inkscape:version="1.1.2 (0a00cf5339, 2022-02-04)"
   sodipodi:docname="diamondblockblack.svg"
   xmlns:inkscape="http://www.inkscape.org/namespaces/inkscape"
   xmlns:sodipodi="http://sodipodi.sourceforge.net/DTD/sodipodi-0.dtd"
   xmlns:xlink="http://www.w3.org/1999/xlink"
   xmlns="http://www.w3.org/2000/svg"
   xmlns:svg="http://www.w3.org/2000/svg">
  <sodipodi:namedview
     id="namedview7"
     pagecolor="#505050"
     bordercolor="#eeeeee"
     borderopacity="1"
     inkscape:pageshadow="0"
     inkscape:pageopacity="0"
     inkscape:pagecheckerboard="true"
     inkscape:document-units="mm"
     showgrid="false"
     width="300mm"
     inkscape:zoom="0.25"
     inkscape:cx="1028"
     inkscape:cy="478"
     inkscape:window-width="1876"
     inkscape:window-height="1015"
     inkscape:window-x="44"
     inkscape:window-y="41"
     inkscape:window-maximized="1"
     inkscape:current-layer="layer1-5"
     showguides="true"
     inkscape:guide-bbox="true"
     inkscape:snap-bbox="true"
     inkscape:snap-global="true" />
  <defs
     id="defs2">
    <inkscape:perspective
       sodipodi:type="inkscape:persp3d"
       inkscape:vp_x="41.848824 : 126.70991 : 1"
       inkscape:vp_y="0 : 1000 : 0"
       inkscape:vp_z="-162.21616 : -82.812504 : 1"
       inkscape:persp3d-origin="200 : 33.333331 : 1"
       id="perspective2245" />
    <clipPath
       clipPathUnits="userSpaceOnUse"
       id="clipPath20825">
      <rect
         style="opacity:0.392018;fill:#ffffff;fill-opacity:1;stroke:none;stroke-width:936.295;stroke-linecap:butt;stroke-linejoin:miter;stroke-miterlimit:4;stroke-dasharray:none;stroke-opacity:1;paint-order:stroke markers fill"
         id="rect20827"
         width="1106.6488"
         height="1114.7675"
         x="208.68936"
         y="236.50517" />
    </clipPath>
    <clipPath
       clipPathUnits="userSpaceOnUse"
       id="clipPath20829">
      <rect
         style="opacity:0.392018;fill:#ffffff;fill-opacity:1;stroke:none;stroke-width:247.728;stroke-linecap:butt;stroke-linejoin:miter;stroke-miterlimit:4;stroke-dasharray:none;stroke-opacity:1;paint-order:stroke markers fill"
         id="rect20831"
         width="292.80084"
         height="294.94888"
         x="55.215729"
         y="62.575329" />
    </clipPath>
    <clipPath
       clipPathUnits="userSpaceOnUse"
       id="clipPath20833">
      <rect
         style="opacity:0.392018;fill:#ffffff;fill-opacity:1;stroke:none;stroke-width:247.728;stroke-linecap:butt;stroke-linejoin:miter;stroke-miterlimit:4;stroke-dasharray:none;stroke-opacity:1;paint-order:stroke markers fill"
         id="rect20835"
         width="292.80084"
         height="294.94888"
         x="55.215729"
         y="62.575329" />
    </clipPath>
    <clipPath
       clipPathUnits="userSpaceOnUse"
       id="clipPath20837">
      <rect
         style="opacity:0.392018;fill:#ffffff;fill-opacity:1;stroke:none;stroke-width:936.295;stroke-linecap:butt;stroke-linejoin:miter;stroke-miterlimit:4;stroke-dasharray:none;stroke-opacity:1;paint-order:stroke markers fill"
         id="rect20839"
         width="1106.6488"
         height="1114.7675"
         x="208.68936"
         y="236.50517" />
    </clipPath>
    <clipPath
       clipPathUnits="userSpaceOnUse"
       id="clipPath20841">
      <rect
         style="opacity:0.392018;fill:#ffffff;fill-opacity:1;stroke:none;stroke-width:247.728;stroke-linecap:butt;stroke-linejoin:miter;stroke-miterlimit:4;stroke-dasharray:none;stroke-opacity:1;paint-order:stroke markers fill"
         id="rect20843"
         width="292.80084"
         height="294.94888"
         x="55.215729"
         y="62.575329" />
    </clipPath>
    <clipPath
       clipPathUnits="userSpaceOnUse"
       id="clipPath20845">
      <rect
         style="opacity:0.392018;fill:#ffffff;fill-opacity:1;stroke:none;stroke-width:247.728;stroke-linecap:butt;stroke-linejoin:miter;stroke-miterlimit:4;stroke-dasharray:none;stroke-opacity:1;paint-order:stroke markers fill"
         id="rect20847"
         width="292.80084"
         height="294.94888"
         x="55.215729"
         y="62.575329" />
    </clipPath>
    <clipPath
       clipPathUnits="userSpaceOnUse"
       id="clipPath20849">
      <rect
         style="opacity:0.392018;fill:#ffffff;fill-opacity:1;stroke:none;stroke-width:247.728;stroke-linecap:butt;stroke-linejoin:miter;stroke-miterlimit:4;stroke-dasharray:none;stroke-opacity:1;paint-order:stroke markers fill"
         id="rect20851"
         width="292.80084"
         height="294.94888"
         x="55.215729"
         y="62.575329"
         transform="scale(1,-1)" />
    </clipPath>
    <inkscape:perspective
       sodipodi:type="inkscape:persp3d"
       inkscape:vp_x="41.848824 : 126.70991 : 1"
       inkscape:vp_y="0 : 1000 : 0"
       inkscape:vp_z="-162.21616 : -82.812504 : 1"
       inkscape:persp3d-origin="200 : 33.333331 : 1"
       id="perspective2245-5" />
    <clipPath
       clipPathUnits="userSpaceOnUse"
       id="clipPath20825-3">
      <rect
         style="opacity:0.392018;fill:#ffffff;fill-opacity:1;stroke:none;stroke-width:936.295;stroke-linecap:butt;stroke-linejoin:miter;stroke-miterlimit:4;stroke-dasharray:none;stroke-opacity:1;paint-order:stroke markers fill"
         id="rect20827-5"
         width="1106.6488"
         height="1114.7675"
         x="208.68936"
         y="236.50517" />
    </clipPath>
    <clipPath
       clipPathUnits="userSpaceOnUse"
       id="clipPath20829-6">
      <rect
         style="opacity:0.392018;fill:#ffffff;fill-opacity:1;stroke:none;stroke-width:247.728;stroke-linecap:butt;stroke-linejoin:miter;stroke-miterlimit:4;stroke-dasharray:none;stroke-opacity:1;paint-order:stroke markers fill"
         id="rect20831-2"
         width="292.80084"
         height="294.94888"
         x="55.215729"
         y="62.575329" />
    </clipPath>
    <clipPath
       clipPathUnits="userSpaceOnUse"
       id="clipPath20833-9">
      <rect
         style="opacity:0.392018;fill:#ffffff;fill-opacity:1;stroke:none;stroke-width:247.728;stroke-linecap:butt;stroke-linejoin:miter;stroke-miterlimit:4;stroke-dasharray:none;stroke-opacity:1;paint-order:stroke markers fill"
         id="rect20835-1"
         width="292.80084"
         height="294.94888"
         x="55.215729"
         y="62.575329" />
    </clipPath>
    <clipPath
       clipPathUnits="userSpaceOnUse"
       id="clipPath20837-2">
      <rect
         style="opacity:0.392018;fill:#ffffff;fill-opacity:1;stroke:none;stroke-width:936.295;stroke-linecap:butt;stroke-linejoin:miter;stroke-miterlimit:4;stroke-dasharray:none;stroke-opacity:1;paint-order:stroke markers fill"
         id="rect20839-7"
         width="1106.6488"
         height="1114.7675"
         x="208.68936"
         y="236.50517" />
    </clipPath>
    <clipPath
       clipPathUnits="userSpaceOnUse"
       id="clipPath20841-0">
      <rect
         style="opacity:0.392018;fill:#ffffff;fill-opacity:1;stroke:none;stroke-width:247.728;stroke-linecap:butt;stroke-linejoin:miter;stroke-miterlimit:4;stroke-dasharray:none;stroke-opacity:1;paint-order:stroke markers fill"
         id="rect20843-9"
         width="292.80084"
         height="294.94888"
         x="55.215729"
         y="62.575329" />
    </clipPath>
    <clipPath
       clipPathUnits="userSpaceOnUse"
       id="clipPath20845-3">
      <rect
         style="opacity:0.392018;fill:#ffffff;fill-opacity:1;stroke:none;stroke-width:247.728;stroke-linecap:butt;stroke-linejoin:miter;stroke-miterlimit:4;stroke-dasharray:none;stroke-opacity:1;paint-order:stroke markers fill"
         id="rect20847-6"
         width="292.80084"
         height="294.94888"
         x="55.215729"
         y="62.575329" />
    </clipPath>
    <clipPath
       clipPathUnits="userSpaceOnUse"
       id="clipPath20849-0">
      <rect
         style="opacity:0.392018;fill:#ffffff;fill-opacity:1;stroke:none;stroke-width:247.728;stroke-linecap:butt;stroke-linejoin:miter;stroke-miterlimit:4;stroke-dasharray:none;stroke-opacity:1;paint-order:stroke markers fill"
         id="rect20851-6"
         width="292.80084"
         height="294.94888"
         x="55.215729"
         y="62.575329"
         transform="scale(1,-1)" />
    </clipPath>
    <inkscape:perspective
       sodipodi:type="inkscape:persp3d"
       inkscape:vp_x="41.848824 : 126.70991 : 1"
       inkscape:vp_y="0 : 1000 : 0"
       inkscape:vp_z="-162.21616 : -82.812504 : 1"
       inkscape:persp3d-origin="200 : 33.333331 : 1"
       id="perspective2245-2" />
    <clipPath
       clipPathUnits="userSpaceOnUse"
       id="clipPath20825-9">
      <rect
         style="opacity:0.392018;fill:#ffffff;fill-opacity:1;stroke:none;stroke-width:936.295;stroke-linecap:butt;stroke-linejoin:miter;stroke-miterlimit:4;stroke-dasharray:none;stroke-opacity:1;paint-order:stroke markers fill"
         id="rect20827-3"
         width="1106.6488"
         height="1114.7675"
         x="208.68936"
         y="236.50517" />
    </clipPath>
    <clipPath
       clipPathUnits="userSpaceOnUse"
       id="clipPath20829-1">
      <rect
         style="opacity:0.392018;fill:#ffffff;fill-opacity:1;stroke:none;stroke-width:247.728;stroke-linecap:butt;stroke-linejoin:miter;stroke-miterlimit:4;stroke-dasharray:none;stroke-opacity:1;paint-order:stroke markers fill"
         id="rect20831-9"
         width="292.80084"
         height="294.94888"
         x="55.215729"
         y="62.575329" />
    </clipPath>
    <clipPath
       clipPathUnits="userSpaceOnUse"
       id="clipPath20833-4">
      <rect
         style="opacity:0.392018;fill:#ffffff;fill-opacity:1;stroke:none;stroke-width:247.728;stroke-linecap:butt;stroke-linejoin:miter;stroke-miterlimit:4;stroke-dasharray:none;stroke-opacity:1;paint-order:stroke markers fill"
         id="rect20835-7"
         width="292.80084"
         height="294.94888"
         x="55.215729"
         y="62.575329" />
    </clipPath>
    <clipPath
       clipPathUnits="userSpaceOnUse"
       id="clipPath20837-8">
      <rect
         style="opacity:0.392018;fill:#ffffff;fill-opacity:1;stroke:none;stroke-width:936.295;stroke-linecap:butt;stroke-linejoin:miter;stroke-miterlimit:4;stroke-dasharray:none;stroke-opacity:1;paint-order:stroke markers fill"
         id="rect20839-4"
         width="1106.6488"
         height="1114.7675"
         x="208.68936"
         y="236.50517" />
    </clipPath>
    <clipPath
       clipPathUnits="userSpaceOnUse"
       id="clipPath20841-5">
      <rect
         style="opacity:0.392018;fill:#ffffff;fill-opacity:1;stroke:none;stroke-width:247.728;stroke-linecap:butt;stroke-linejoin:miter;stroke-miterlimit:4;stroke-dasharray:none;stroke-opacity:1;paint-order:stroke markers fill"
         id="rect20843-0"
         width="292.80084"
         height="294.94888"
         x="55.215729"
         y="62.575329" />
    </clipPath>
    <clipPath
       clipPathUnits="userSpaceOnUse"
       id="clipPath20845-36">
      <rect
         style="opacity:0.392018;fill:#ffffff;fill-opacity:1;stroke:none;stroke-width:247.728;stroke-linecap:butt;stroke-linejoin:miter;stroke-miterlimit:4;stroke-dasharray:none;stroke-opacity:1;paint-order:stroke markers fill"
         id="rect20847-1"
         width="292.80084"
         height="294.94888"
         x="55.215729"
         y="62.575329" />
    </clipPath>
    <clipPath
       clipPathUnits="userSpaceOnUse"
       id="clipPath20849-06">
      <rect
         style="opacity:0.392018;fill:#ffffff;fill-opacity:1;stroke:none;stroke-width:247.728;stroke-linecap:butt;stroke-linejoin:miter;stroke-miterlimit:4;stroke-dasharray:none;stroke-opacity:1;paint-order:stroke markers fill"
         id="rect20851-3"
         width="292.80084"
         height="294.94888"
         x="55.215729"
         y="62.575329"
         transform="scale(1,-1)" />
    </clipPath>
    <inkscape:perspective
       sodipodi:type="inkscape:persp3d"
       inkscape:vp_x="41.848824 : 126.70991 : 1"
       inkscape:vp_y="0 : 1000 : 0"
       inkscape:vp_z="-162.21616 : -82.812504 : 1"
       inkscape:persp3d-origin="200 : 33.333331 : 1"
       id="perspective2245-6" />
    <clipPath
       clipPathUnits="userSpaceOnUse"
       id="clipPath20825-5">
      <rect
         style="opacity:0.392018;fill:#ffffff;fill-opacity:1;stroke:none;stroke-width:936.295;stroke-linecap:butt;stroke-linejoin:miter;stroke-miterlimit:4;stroke-dasharray:none;stroke-opacity:1;paint-order:stroke markers fill"
         id="rect20827-6"
         width="1106.6488"
         height="1114.7675"
         x="208.68936"
         y="236.50517" />
    </clipPath>
    <clipPath
       clipPathUnits="userSpaceOnUse"
       id="clipPath20829-3">
      <rect
         style="opacity:0.392018;fill:#ffffff;fill-opacity:1;stroke:none;stroke-width:247.728;stroke-linecap:butt;stroke-linejoin:miter;stroke-miterlimit:4;stroke-dasharray:none;stroke-opacity:1;paint-order:stroke markers fill"
         id="rect20831-94"
         width="292.80084"
         height="294.94888"
         x="55.215729"
         y="62.575329" />
    </clipPath>
    <clipPath
       clipPathUnits="userSpaceOnUse"
       id="clipPath20833-8">
      <rect
         style="opacity:0.392018;fill:#ffffff;fill-opacity:1;stroke:none;stroke-width:247.728;stroke-linecap:butt;stroke-linejoin:miter;stroke-miterlimit:4;stroke-dasharray:none;stroke-opacity:1;paint-order:stroke markers fill"
         id="rect20835-12"
         width="292.80084"
         height="294.94888"
         x="55.215729"
         y="62.575329" />
    </clipPath>
    <clipPath
       clipPathUnits="userSpaceOnUse"
       id="clipPath20837-9">
      <rect
         style="opacity:0.392018;fill:#ffffff;fill-opacity:1;stroke:none;stroke-width:936.295;stroke-linecap:butt;stroke-linejoin:miter;stroke-miterlimit:4;stroke-dasharray:none;stroke-opacity:1;paint-order:stroke markers fill"
         id="rect20839-3"
         width="1106.6488"
         height="1114.7675"
         x="208.68936"
         y="236.50517" />
    </clipPath>
    <clipPath
       clipPathUnits="userSpaceOnUse"
       id="clipPath20841-9">
      <rect
         style="opacity:0.392018;fill:#ffffff;fill-opacity:1;stroke:none;stroke-width:247.728;stroke-linecap:butt;stroke-linejoin:miter;stroke-miterlimit:4;stroke-dasharray:none;stroke-opacity:1;paint-order:stroke markers fill"
         id="rect20843-08"
         width="292.80084"
         height="294.94888"
         x="55.215729"
         y="62.575329" />
    </clipPath>
    <clipPath
       clipPathUnits="userSpaceOnUse"
       id="clipPath20845-8">
      <rect
         style="opacity:0.392018;fill:#ffffff;fill-opacity:1;stroke:none;stroke-width:247.728;stroke-linecap:butt;stroke-linejoin:miter;stroke-miterlimit:4;stroke-dasharray:none;stroke-opacity:1;paint-order:stroke markers fill"
         id="rect20847-5"
         width="292.80084"
         height="294.94888"
         x="55.215729"
         y="62.575329" />
    </clipPath>
    <clipPath
       clipPathUnits="userSpaceOnUse"
       id="clipPath20849-09">
      <rect
         style="opacity:0.392018;fill:#ffffff;fill-opacity:1;stroke:none;stroke-width:247.728;stroke-linecap:butt;stroke-linejoin:miter;stroke-miterlimit:4;stroke-dasharray:none;stroke-opacity:1;paint-order:stroke markers fill"
         id="rect20851-63"
         width="292.80084"
         height="294.94888"
         x="55.215729"
         y="62.575329"
         transform="scale(1,-1)" />
    </clipPath>
    <linearGradient
       inkscape:collect="always"
       xlink:href="#linearGradient53508"
       id="linearGradient53510"
       x1="199.82172"
       y1="-118.95808"
       x2="200.80431"
       y2="-303.72198"
       gradientUnits="userSpaceOnUse" />
    <linearGradient
       inkscape:collect="always"
       id="linearGradient53508">
      <stop
         style="stop-color:#19191a;stop-opacity:1"
         offset="0"
         id="stop53504" />
      <stop
         style="stop-color:#2a2a2a;stop-opacity:1"
         offset="1"
         id="stop53506" />
    </linearGradient>
    <clipPath
       clipPathUnits="userSpaceOnUse"
       id="clipPath20849-0-4">
      <rect
         style="opacity:0.392018;fill:#ffffff;fill-opacity:1;stroke:none;stroke-width:247.728;stroke-linecap:butt;stroke-linejoin:miter;stroke-miterlimit:4;stroke-dasharray:none;stroke-opacity:1;paint-order:stroke markers fill"
         id="rect20851-6-3"
         width="292.80084"
         height="294.94888"
         x="55.215729"
         y="62.575329"
         transform="scale(1,-1)" />
    </clipPath>
    <linearGradient
       inkscape:collect="always"
       xlink:href="#linearGradient22036"
       id="linearGradient28878"
       x1="759.35034"
       y1="246.61069"
       x2="754.31421"
       y2="437.81616"
       gradientUnits="userSpaceOnUse" />
    <linearGradient
       inkscape:collect="always"
       id="linearGradient22036">
      <stop
         style="stop-color:#1e1e1e;stop-opacity:1"
         offset="0"
         id="stop22032" />
      <stop
         style="stop-color:#313131;stop-opacity:1"
         offset="1"
         id="stop22034" />
    </linearGradient>
    <clipPath
       clipPathUnits="userSpaceOnUse"
       id="clipPath20837-2-8">
      <rect
         style="opacity:0.392018;fill:#ffffff;fill-opacity:1;stroke:none;stroke-width:936.295;stroke-linecap:butt;stroke-linejoin:miter;stroke-miterlimit:4;stroke-dasharray:none;stroke-opacity:1;paint-order:stroke markers fill"
         id="rect20839-7-3"
         width="1106.6488"
         height="1114.7675"
         x="208.68936"
         y="236.50517" />
    </clipPath>
    <linearGradient
       inkscape:collect="always"
       xlink:href="#linearGradient36275"
       id="linearGradient36277"
       x1="55.215729"
       y1="210.04977"
       x2="109.76923"
       y2="210.04977"
       gradientUnits="userSpaceOnUse" />
    <linearGradient
       inkscape:collect="always"
       id="linearGradient36275">
      <stop
         style="stop-color:#29292c;stop-opacity:1"
         offset="0"
         id="stop36271" />
      <stop
         style="stop-color:#212022;stop-opacity:1"
         offset="1"
         id="stop36273" />
    </linearGradient>
    <clipPath
       clipPathUnits="userSpaceOnUse"
       id="clipPath20833-9-3">
      <rect
         style="opacity:0.392018;fill:#ffffff;fill-opacity:1;stroke:none;stroke-width:247.728;stroke-linecap:butt;stroke-linejoin:miter;stroke-miterlimit:4;stroke-dasharray:none;stroke-opacity:1;paint-order:stroke markers fill"
         id="rect20835-1-8"
         width="292.80084"
         height="294.94888"
         x="55.215729"
         y="62.575329" />
    </clipPath>
    <linearGradient
       inkscape:collect="always"
       xlink:href="#linearGradient46576"
       id="linearGradient46578"
       x1="194.24768"
       y1="309.01398"
       x2="193.70741"
       y2="355.93658"
       gradientUnits="userSpaceOnUse" />
    <linearGradient
       inkscape:collect="always"
       id="linearGradient46576">
      <stop
         style="stop-color:#222222;stop-opacity:1"
         offset="0"
         id="stop46572" />
      <stop
         style="stop-color:#2c2c2c;stop-opacity:1"
         offset="1"
         id="stop46574" />
    </linearGradient>
    <clipPath
       clipPathUnits="userSpaceOnUse"
       id="clipPath20829-6-7">
      <rect
         style="opacity:0.392018;fill:#ffffff;fill-opacity:1;stroke:none;stroke-width:247.728;stroke-linecap:butt;stroke-linejoin:miter;stroke-miterlimit:4;stroke-dasharray:none;stroke-opacity:1;paint-order:stroke markers fill"
         id="rect20831-2-5"
         width="292.80084"
         height="294.94888"
         x="55.215729"
         y="62.575329" />
    </clipPath>
    <linearGradient
       inkscape:collect="always"
       xlink:href="#linearGradient41620"
       id="linearGradient41622"
       x1="1114.6938"
       y1="793.88892"
       x2="1315.3334"
       y2="793.88892"
       gradientUnits="userSpaceOnUse" />
    <linearGradient
       inkscape:collect="always"
       id="linearGradient41620">
      <stop
         style="stop-color:#1f1f1f;stop-opacity:1"
         offset="0"
         id="stop41616" />
      <stop
         style="stop-color:#343435;stop-opacity:1"
         offset="1"
         id="stop41618" />
    </linearGradient>
    <clipPath
       clipPathUnits="userSpaceOnUse"
       id="clipPath20825-3-5">
      <rect
         style="opacity:0.392018;fill:#ffffff;fill-opacity:1;stroke:none;stroke-width:936.295;stroke-linecap:butt;stroke-linejoin:miter;stroke-miterlimit:4;stroke-dasharray:none;stroke-opacity:1;paint-order:stroke markers fill"
         id="rect20827-5-9"
         width="1106.6488"
         height="1114.7675"
         x="208.68936"
         y="236.50517" />
    </clipPath>
  </defs>
  <g
     inkscape:label="Layer 1"
     inkscape:groupmode="layer"
     id="layer1">
    <path
       style="fill:none;stroke:#000000;stroke-width:0.264583px;stroke-linecap:butt;stroke-linejoin:miter;stroke-opacity:1"
       d="M 351.61511,61.122832 Z"
       id="path3587"
       clip-path="url(#clipPath20845)" />
    <path
       style="fill:none;stroke:#000000;stroke-width:0.264583px;stroke-linecap:butt;stroke-linejoin:miter;stroke-opacity:1"
       d="M 351.61511,361.12283 Z"
       id="path3591"
       clip-path="url(#clipPath20841)" />
    <g
       inkscape:label="Layer 1"
       id="layer1-2"
       transform="translate(6.5921438,0.25938471)">
      <path
         style="fill:none;stroke:#000000;stroke-width:0.264583px;stroke-linecap:butt;stroke-linejoin:miter;stroke-opacity:1"
         d="M 351.61511,61.122832 Z"
         id="path3587-6"
         clip-path="url(#clipPath20845-3)" />
      <path
         style="fill:none;stroke:#000000;stroke-width:0.264583px;stroke-linecap:butt;stroke-linejoin:miter;stroke-opacity:1"
         d="M 351.61511,361.12283 Z"
         id="path3591-1"
         clip-path="url(#clipPath20841-0)" />
      <g
         inkscape:label="Layer 1"
         id="layer1-5"
         transform="translate(-523.46933,-7.1367276)">
        <path
           style="fill:none;stroke:#000000;stroke-width:0.264583px;stroke-linecap:butt;stroke-linejoin:miter;stroke-opacity:1"
           d="M 351.61511,61.122832 Z"
           id="path3587-8"
           clip-path="url(#clipPath20845-8)" />
        <path
           style="fill:none;stroke:#000000;stroke-width:0.264583px;stroke-linecap:butt;stroke-linejoin:miter;stroke-opacity:1"
           d="M 351.61511,361.12283 Z"
           id="path3591-4"
           clip-path="url(#clipPath20841-9)" />
        <rect
           style="fill:url(#linearGradient53510);fill-opacity:1;stroke:none;stroke-width:11.04;stroke-linecap:butt;stroke-linejoin:miter;stroke-miterlimit:18.2;stroke-dasharray:none;stroke-opacity:1;paint-order:stroke markers fill"
           id="rect2638"
           width="188.96005"
           height="188.96001"
           x="107.86923"
           y="-307.08649"
           transform="matrix(1.0361657,0,0,-1.0422321,457.70132,-63.162258)"
           clip-path="url(#clipPath20849-0-4)" />
        <path
           id="path7490"
           style="fill:url(#linearGradient28878);fill-opacity:1;stroke:none;stroke-width:14.6079;stroke-linecap:butt;stroke-linejoin:miter;stroke-miterlimit:4;stroke-dasharray:none;stroke-opacity:1"
           transform="matrix(0.27415199,0,0,0.27265659,457.7014,-59.596839)"
           d="M 215.86914,243.80273 407.69531,438.46289 H 1121.875 l 186.2773,-194.66016 z"
           clip-path="url(#clipPath20837-2-8)" />
        <path
           style="fill:url(#linearGradient36277);fill-opacity:1;stroke:none;stroke-width:3.8;stroke-linecap:butt;stroke-linejoin:miter;stroke-miterlimit:4;stroke-dasharray:none;stroke-opacity:1"
           d="m 107.86938,116.00997 0.86419,191.28193 -51.618337,48.33114 V 64.506376 Z"
           id="path7854"
           clip-path="url(#clipPath20833-9-3)"
           sodipodi:nodetypes="ccccc"
           transform="matrix(1.0608854,0,0,1.0296412,456.28964,-59.54084)" />
        <path
           style="fill:url(#linearGradient46578);fill-opacity:1;stroke:none;stroke-width:3.8;stroke-linecap:butt;stroke-linejoin:miter;stroke-miterlimit:4;stroke-dasharray:none;stroke-opacity:1"
           d="m 54.669569,355.37672 53.199661,-48.29025 h 188.96006 l 49.28595,48.53657 z"
           id="path14311"
           clip-path="url(#clipPath20829-6-7)"
           transform="matrix(1.0293514,0,0,1.0305131,460.60801,-59.596839)"
           sodipodi:nodetypes="ccccc" />
        <path
           id="path16368"
           style="fill:url(#linearGradient41622);fill-opacity:1;stroke:none;stroke-width:14.3622;stroke-linecap:butt;stroke-linejoin:miter;stroke-miterlimit:4;stroke-dasharray:none;stroke-opacity:1"
           d="M 1308.1523,243.80273 1121.875,438.46289 v 722.17971 l 186.2773,183.4453 z"
           transform="matrix(0.27415199,0,0,0.27265659,458.24966,-59.597061)"
           clip-path="url(#clipPath20825-3-5)" />
      </g>
    </g>
  </g>
</svg>
