<?xml version="1.0" encoding="UTF-8" standalone="no"?>
<!-- Created with Inkscape (http://www.inkscape.org/) -->

<svg
   width="2000"
   height="1000"
   viewBox="0 0 529.16665 264.58334"
   version="1.1"
   id="svg134035"
   inkscape:version="1.1.2 (0a00cf5339, 2022-02-04)"
   sodipodi:docname="dinamicrectange.svg"
   xmlns:inkscape="http://www.inkscape.org/namespaces/inkscape"
   xmlns:sodipodi="http://sodipodi.sourceforge.net/DTD/sodipodi-0.dtd"
   xmlns:xlink="http://www.w3.org/1999/xlink"
   xmlns="http://www.w3.org/2000/svg"
   xmlns:svg="http://www.w3.org/2000/svg">
  <sodipodi:namedview
     id="namedview134037"
     pagecolor="#505050"
     bordercolor="#eeeeee"
     borderopacity="1"
     inkscape:pageshadow="0"
     inkscape:pageopacity="0"
     inkscape:pagecheckerboard="0"
     inkscape:document-units="mm"
     showgrid="false"
     units="px"
     showguides="true"
     inkscape:guide-bbox="true"
     inkscape:zoom="0.16"
     inkscape:cx="2750"
     inkscape:cy="-1046.875"
     inkscape:window-width="1876"
     inkscape:window-height="1015"
     inkscape:window-x="44"
     inkscape:window-y="41"
     inkscape:window-maximized="1"
     inkscape:current-layer="layer1">
    <sodipodi:guide
       position="465.3785,1799.1667"
       orientation="0,-1"
       id="guide148270" />
  </sodipodi:namedview>
  <defs
     id="defs134032">
    <linearGradient
       inkscape:collect="always"
       id="linearGradient145658">
      <stop
         style="stop-color:#fef639;stop-opacity:1;"
         offset="0"
         id="stop145654" />
      <stop
         style="stop-color:#a19b01;stop-opacity:1"
         offset="1"
         id="stop145656" />
    </linearGradient>
    <linearGradient
       inkscape:collect="always"
       id="linearGradient145284">
      <stop
         style="stop-color:#fef639;stop-opacity:1;"
         offset="0"
         id="stop145280" />
      <stop
         style="stop-color:#948e01;stop-opacity:1"
         offset="1"
         id="stop145282" />
    </linearGradient>
    <linearGradient
       inkscape:collect="always"
       id="linearGradient136696">
      <stop
         style="stop-color:#fc9a4a;stop-opacity:1"
         offset="0"
         id="stop136692" />
      <stop
         style="stop-color:#a04802;stop-opacity:0.98431373"
         offset="1"
         id="stop136694" />
    </linearGradient>
    <linearGradient
       id="linearGradient136183">
      <stop
         style="stop-color:#fc882a;stop-opacity:1"
         offset="0"
         id="stop136181" />
    </linearGradient>
    <linearGradient
       inkscape:collect="always"
       xlink:href="#linearGradient136696"
       id="linearGradient136698"
       x1="0.016169623"
       y1="140.56702"
       x2="65.550227"
       y2="140.56702"
       gradientUnits="userSpaceOnUse"
       gradientTransform="matrix(1.0009646,0,0,2.0325468,0.58754999,-155.03002)" />
    <linearGradient
       inkscape:collect="always"
       xlink:href="#linearGradient136696"
       id="linearGradient136831"
       gradientUnits="userSpaceOnUse"
       x1="0.016169623"
       y1="140.56702"
       x2="65.550227"
       y2="140.56702"
       gradientTransform="matrix(-0.05356434,1.0925823,-5.1488639,-0.01136632,1020.7028,2.223359)" />
    <linearGradient
       inkscape:collect="always"
       xlink:href="#linearGradient136696"
       id="linearGradient136885"
       gradientUnits="userSpaceOnUse"
       gradientTransform="matrix(1.0009646,0,0,2.0203142,464.93217,-152.07765)"
       x1="0.016169623"
       y1="140.56702"
       x2="65.550227"
       y2="140.56702" />
    <linearGradient
       inkscape:collect="always"
       xlink:href="#linearGradient136696"
       id="linearGradient136939"
       gradientUnits="userSpaceOnUse"
       gradientTransform="matrix(-0.05356434,1.0925822,-5.1488639,-0.01136632,992.40978,194.06394)"
       x1="0.016169623"
       y1="140.56702"
       x2="65.550227"
       y2="140.56702" />
    <linearGradient
       inkscape:collect="always"
       xlink:href="#linearGradient145284"
       id="linearGradient145286"
       x1="1045.8406"
       y1="526.99719"
       x2="1054.8146"
       y2="201.22417"
       gradientUnits="userSpaceOnUse"
       gradientTransform="matrix(0.26483855,0,0,0.2483917,0.58754999,0.67121958)" />
    <linearGradient
       inkscape:collect="always"
       xlink:href="#linearGradient145658"
       id="linearGradient145660"
       x1="1794.042"
       y1="662.60364"
       x2="-426.95224"
       y2="631.10175"
       gradientUnits="userSpaceOnUse"
       gradientTransform="matrix(0.26483855,0,0,0.2483917,0.58754999,0.67121958)" />
  </defs>
  <g
     inkscape:label="Layer 1"
     inkscape:groupmode="layer"
     id="layer1">
    <path
       style="color:#000000;fill:#f5f5f5;fill-opacity:0.625039;-inkscape-stroke:none"
       d="m 402.14453,129.78125 -350.968749,3.65234 0.05273,5.00977 349.912104,-3.64063 26.41407,11.33594 49.1582,-1.2832 -0.13086,-5.00781 -48.06055,1.2539 z"
       id="path137620" />
    <path
       id="rect136690"
       style="fill:url(#linearGradient136698);stroke-width:18.8693;stroke-linejoin:round;paint-order:stroke markers fill"
       d="M 2.0792123,0.23324609 H 64.725532 c 0.817415,0 1.475477,0.61719652 1.475477,1.38384771 V 259.74096 c 0,0.76666 -0.658062,1.38385 -1.475477,1.38385 H 2.0792123 c -0.8174143,0 -1.47547709,-0.61719 -1.47547709,-1.38385 V 1.6170938 c 0,-0.76665119 0.65806279,-1.38384771 1.47547709,-1.38384771 z" />
    <path
       id="rect136690-2"
       style="fill:url(#linearGradient136885);stroke-width:18.8125;stroke-linejoin:round;paint-order:stroke markers fill"
       d="m 466.41497,2.2511747 h 62.66408 c 0.8125,0 1.4666,0.6134816 1.4666,1.3755196 V 260.19709 c 0,0.76203 -0.6541,1.37551 -1.4666,1.37551 h -62.66408 c -0.81249,0 -1.46659,-0.61348 -1.46659,-1.37551 V 3.6266943 c 0,-0.762038 0.6541,-1.3755196 1.46659,-1.3755196 z" />
    <path
       id="rect136690-1"
       style="fill:url(#linearGradient136831);stroke-width:31.3792;stroke-linejoin:round;paint-order:stroke markers fill"
       d="M 0.03407879,-0.01185761 V 71.597239 L 530.54552,72.767882 V 1.3203371 c 0,-0.063003 0.053,-0.1036514 0.0709,-0.1610667 z" />
    <path
       id="rect136690-1-8"
       style="fill:url(#linearGradient136939);stroke-width:31.3792;stroke-linejoin:round;paint-order:stroke markers fill"
       d="m 1.091364,191.89305 v 71.6091 l 528.054956,1.16628 v -71.60911 z" />
    <path
       style="fill:url(#linearGradient145286);fill-opacity:1;stroke:none;stroke-width:21.2948;stroke-linejoin:round;stroke-miterlimit:4;stroke-dasharray:none;stroke-opacity:0.625039;paint-order:stroke markers fill"
       d="m 414.8063,135.39018 -12.63992,-5.49601 -162.78146,1.75982 c -89.52979,0.9679 -165.01806,1.75446 -167.751708,1.74793 l -4.970273,-0.0118 V 102.49698 71.603926 l 137.705791,0.729176 c 75.73817,0.401046 165.20309,0.729407 198.81089,0.729688 l 61.10512,4.97e-4 v 33.304833 33.30483 l -5.42585,0.69751 c -2.98426,0.38363 -11.27291,0.65661 -18.41926,0.60662 l -12.99337,-0.0909 z"
       id="path142048" />
    <path
       style="fill:url(#linearGradient145660);fill-opacity:1;stroke:none;stroke-width:21.2948;stroke-linejoin:round;stroke-miterlimit:4;stroke-dasharray:none;stroke-opacity:0.625039;paint-order:stroke markers fill"
       d="M 173.96235,191.79736 66.662939,191.5116 V 164.81004 138.1085 l 79.816731,-0.75977 c 43.8992,-0.41787 119.10893,-1.22895 167.13277,-1.80241 l 87.31603,-1.04266 12.50321,5.47586 12.50322,5.47586 h 19.17492 19.17492 v 23.58228 23.58227 l -91.51149,-0.2684 c -50.33133,-0.14762 -139.79622,-0.39699 -198.8109,-0.55417 z"
       id="path145125" />
    <path
       id="path146562"
       style="fill:#3e3e3e;stroke-width:6.93582;stroke-linejoin:round;stroke-opacity:0.625039;paint-order:stroke markers fill"
       d="M 40.545695,34.766552 A 10.009646,9.3880329 0 0 1 30.536049,44.154585 10.009646,9.3880329 0 0 1 20.526402,34.766552 10.009646,9.3880329 0 0 1 30.536049,25.378519 10.009646,9.3880329 0 0 1 40.545695,34.766552 Z" />
    <path
       id="path146562-9"
       style="fill:#3e3e3e;stroke-width:6.93582;stroke-linejoin:round;stroke-opacity:0.625039;paint-order:stroke markers fill"
       d="m 43.674972,234.89937 a 10.009646,9.3880329 0 0 1 -10.009647,9.38803 10.009646,9.3880329 0 0 1 -10.009646,-9.38803 10.009646,9.3880329 0 0 1 10.009646,-9.38803 10.009646,9.3880329 0 0 1 10.009647,9.38803 z" />
    <path
       id="path146562-2"
       style="fill:#3e3e3e;stroke-width:6.93582;stroke-linejoin:round;stroke-opacity:0.625039;paint-order:stroke markers fill"
       d="m 506.76377,224.04111 a 10.009646,9.3880329 0 0 1 -10.00965,9.38803 10.009646,9.3880329 0 0 1 -10.00965,-9.38803 10.009646,9.3880329 0 0 1 10.00965,-9.38804 10.009646,9.3880329 0 0 1 10.00965,9.38804 z" />
    <path
       id="path146562-6"
       style="fill:#3e3e3e;stroke-width:6.93582;stroke-linejoin:round;stroke-opacity:0.625039;paint-order:stroke markers fill"
       d="m 505.10987,31.694818 a 10.009646,9.3880329 0 0 1 -10.00965,9.388033 10.009646,9.3880329 0 0 1 -10.00965,-9.388033 10.009646,9.3880329 0 0 1 10.00965,-9.388032 10.009646,9.3880329 0 0 1 10.00965,9.388032 z" />
  </g>
</svg>
