<?xml version="1.0" encoding="UTF-8" standalone="no"?>
<!-- Created with Inkscape (http://www.inkscape.org/) -->

<svg
   width="1000mm"
   height="1000mm"
   viewBox="0 0 1000 1000"
   version="1.1"
   id="svg62046"
   inkscape:version="1.1.2 (0a00cf5339, 2022-02-04)"
   sodipodi:docname="dynamicball.svg"
   xmlns:inkscape="http://www.inkscape.org/namespaces/inkscape"
   xmlns:sodipodi="http://sodipodi.sourceforge.net/DTD/sodipodi-0.dtd"
   xmlns="http://www.w3.org/2000/svg"
   xmlns:svg="http://www.w3.org/2000/svg">
  <sodipodi:namedview
     id="namedview62048"
     pagecolor="#505050"
     bordercolor="#eeeeee"
     borderopacity="1"
     inkscape:pageshadow="0"
     inkscape:pageopacity="0"
     inkscape:pagecheckerboard="true"
     inkscape:document-units="mm"
     showgrid="false"
     width="1000mm"
     inkscape:zoom="0.16"
     inkscape:cx="1475"
     inkscape:cy="1596.875"
     inkscape:window-width="1876"
     inkscape:window-height="1015"
     inkscape:window-x="44"
     inkscape:window-y="41"
     inkscape:window-maximized="1"
     inkscape:current-layer="layer1" />
  <defs
     id="defs62043" />
  <g
     inkscape:label="Layer 1"
     inkscape:groupmode="layer"
     id="layer1">
    <ellipse
       style="opacity:1;fill:#fdfdfd;fill-opacity:0.99983;stroke-width:20.6682;stroke-linejoin:round;stroke-opacity:0.758722;paint-order:stroke markers fill"
       id="path62141"
       cx="508.34756"
       cy="488.60791"
       rx="93.075241"
       ry="93.677719" />
    <path
       style="fill:none;stroke:#000000;stroke-width:6.8627;stroke-linecap:butt;stroke-linejoin:miter;stroke-miterlimit:4;stroke-dasharray:none;stroke-opacity:1"
       d="M 460.38627,410.01268 254.61793,68.949038 C 80.303791,160.25432 15.404575,317.35373 3.6677225,506.42112 l 409.1786475,-22.13967 8.7557,-37.46503 15.39009,-22.1742 z"
       id="path64962"
       sodipodi:nodetypes="ccccccc" />
    <path
       style="fill:none;stroke:#000000;stroke-width:6.8627;stroke-linecap:butt;stroke-linejoin:miter;stroke-miterlimit:4;stroke-dasharray:none;stroke-opacity:1"
       d="M 555.68003,407.18116 745.35454,64.865115 C 901.75013,163.65844 981.18953,285.93932 996.30473,502.33719 l -393.0848,-20.88725 -8.7557,-37.46504 -15.39009,-22.1742 z"
       id="path64962-3"
       sodipodi:nodetypes="ccccccc" />
    <path
       style="fill:none;stroke:#000000;stroke-width:6.8627;stroke-linecap:butt;stroke-linejoin:miter;stroke-miterlimit:4;stroke-dasharray:none;stroke-opacity:1"
       d="M 561.16671,565.68574 765.12948,921.30367 C 921.52509,822.51035 981.18957,718.73504 996.30473,502.33719 l -393.0848,-20.88725 -2.30323,36.45682 -18.00621,31.28093 z"
       id="path64962-3-6"
       sodipodi:nodetypes="ccccccc" />
    <path
       style="fill:none;stroke:#000000;stroke-width:6.8627;stroke-linecap:butt;stroke-linejoin:miter;stroke-miterlimit:4;stroke-dasharray:none;stroke-opacity:1"
       d="M 460.15569,572.70668 253.7916,931.82042 C 97.395996,833.02709 18.782893,722.81898 3.6677225,506.42112 l 409.1786475,-22.13967 4.95696,36.45684 19.39012,33.34621 z"
       id="path64962-3-6-1"
       sodipodi:nodetypes="ccccccc" />
    <path
       style="fill:none;stroke:#000000;stroke-width:6.8627;stroke-linecap:butt;stroke-linejoin:miter;stroke-miterlimit:4;stroke-dasharray:none;stroke-opacity:1"
       d="M 561.16671,565.68574 765.12948,921.30367 C 605.46961,1005.7532 444.74163,1032.4385 253.7916,931.82042 l 206.36409,-359.11374 35.65278,10.13672 40.32533,-1.84131 z"
       id="path64962-3-6-1-0"
       sodipodi:nodetypes="ccccccc" />
    <path
       style="fill:none;stroke:#000000;stroke-width:6.8627;stroke-linecap:butt;stroke-linejoin:miter;stroke-miterlimit:4;stroke-dasharray:none;stroke-opacity:1"
       d="M 555.68003,407.18116 745.35454,64.865115 C 587.99846,-9.5154181 446.26157,-25.975517 254.61793,68.949038 l 205.76834,341.063642 31.7781,-14.43746 38.05792,0.55061 z"
       id="path64962-3-6-1-0-6"
       sodipodi:nodetypes="ccccccc" />
    <path
       style="opacity:1;fill:#fdfdfd;fill-opacity:0.99983;stroke-width:60.6583;stroke-linejoin:round;stroke-miterlimit:4;stroke-dasharray:none;stroke-opacity:0.758722;paint-order:stroke markers fill"
       d="m 8.8741665,493.32218 c 0.664063,-4.35107 1.8807015,-16.12639 2.7036415,-26.16736 3.443186,-42.01144 16.187789,-102.32171 30.592492,-144.7704 15.11498,-44.54178 44.712436,-99.66315 71.92041,-133.9423 14.86206,-18.72459 49.96991,-53.06551 71.36294,-69.80397 20.91217,-16.36223 65.94041,-45.037262 67.70467,-43.11593 2.80403,3.05362 199.73478,331.162 199.73478,332.78017 0,1.08355 -4.12783,4.305 -9.17297,7.1589 -13.04789,7.38078 -24.48493,24.67675 -29.6301,44.8089 -2.39805,9.38308 -4.96371,17.66768 -5.70148,18.41026 -1.14722,1.15462 -370.316269,22.288 -392.752001,22.48336 -7.6370325,0.0665 -7.9193605,-0.26085 -6.7623825,-7.84163 z"
       id="path69813" />
    <path
       style="opacity:1;fill:#e95306;fill-opacity:1;stroke-width:60.6583;stroke-linejoin:round;stroke-miterlimit:4;stroke-dasharray:none;stroke-opacity:0.758722;paint-order:stroke markers fill"
       d="M 362.19872,238.82149 C 307.66113,148.18949 263.0395,72.981849 263.0395,71.693402 c 0,-3.454212 48.54596,-24.43726 84.64812,-36.587512 108.49554,-36.514395 210.7318,-36.06682236 317.17048,1.388518 25.38152,8.931659 73.42001,28.982651 73.42001,30.645098 0,1.429698 -181.52695,329.882284 -183.78339,332.535424 -0.88597,1.04168 -6.42336,-0.30349 -12.30534,-2.98929 -14.77,-6.74415 -49.28216,-6.98509 -62.18433,-0.43413 -4.93518,2.50582 -11.14974,5.18588 -13.8101,5.95573 -4.21559,1.21989 -17.57717,-19.77217 -103.99623,-163.38575 z"
       id="path71956" />
    <path
       style="opacity:1;fill:#08c25d;fill-opacity:1;stroke-width:60.6583;stroke-linejoin:round;stroke-miterlimit:4;stroke-dasharray:none;stroke-opacity:0.758722;paint-order:stroke markers fill"
       d="m 781.81142,486.48038 c -92.44784,-5.09007 -169.86828,-9.32983 -172.04551,-9.42173 -2.92277,-0.12344 -4.74012,-4.33618 -6.94561,-16.10054 -3.80226,-20.28162 -16.50873,-40.36164 -30.91897,-48.86127 l -10.40063,-6.13462 6.33663,-11.39316 c 3.48513,-6.26622 45.00225,-81.22346 92.26023,-166.57164 47.258,-85.34816 87.17435,-155.159044 88.70301,-155.135296 3.63244,0.05642 38.0745,24.950323 65.98721,47.693996 99.05382,80.71046 156.5919,192.68458 172.47175,335.64495 1.487,13.38795 3.1436,27.90169 3.6812,32.25276 l 0.9776,7.91108 -21.01002,-0.31497 c -11.55546,-0.17322 -96.64907,-4.47951 -189.09689,-9.56956 z"
       id="path74803" />
    <path
       style="opacity:1;fill:#d81718;fill-opacity:1;stroke-width:60.6583;stroke-linejoin:round;stroke-miterlimit:4;stroke-dasharray:none;stroke-opacity:0.758722;paint-order:stroke markers fill"
       d="M 224.24418,906.72726 C 93.293316,817.41225 30.712811,710.69546 11.543315,544.01442 9.5532805,526.71085 8.3536445,512.12201 8.8774565,511.59482 10.019812,510.44504 407.51104,488.82446 408.53626,489.85631 c 0.3924,0.39495 1.73397,7.97104 2.98132,16.83578 2.74743,19.52596 17.70642,46.67364 31.99399,58.06283 5.15984,4.11314 9.38153,8.39306 9.38153,9.51099 0,2.55854 -195.46243,343.33062 -199.31193,347.48335 -2.23741,2.41367 -8.39972,-0.74173 -29.33699,-15.022 z"
       id="path77455" />
    <path
       style="opacity:1;fill:#dbd751;fill-opacity:1;stroke-width:60.6583;stroke-linejoin:round;stroke-miterlimit:4;stroke-dasharray:none;stroke-opacity:0.758722;paint-order:stroke markers fill"
       d="m 467.40421,991.34049 c -70.09264,-6.76046 -121.7097,-20.74762 -183.9183,-49.83804 -11.9106,-5.56974 -21.65567,-11.13181 -21.65567,-12.36013 0,-1.84145 196.9011,-346.41519 199.94144,-349.89431 0.5267,-0.60271 7.90188,0.76651 16.38926,3.0427 8.92055,2.39238 24.33527,4.13856 36.53383,4.13856 19.18791,0 22.16593,-0.65876 32.82833,-7.26187 l 11.72614,-7.26187 3.38574,5.43624 c 9.04921,14.52983 194.99125,340.07649 194.99125,341.39004 0,2.39756 -56.9188,29.00688 -82.49243,38.56491 -71.95391,26.89245 -149.72646,39.63817 -207.72959,34.04377 z"
       id="path79834" />
    <path
       style="opacity:1;fill:#1c77e0;fill-opacity:1;stroke-width:60.6583;stroke-linejoin:round;stroke-miterlimit:4;stroke-dasharray:none;stroke-opacity:0.758722;paint-order:stroke markers fill"
       d="m 667.5365,742.50321 c -54.20502,-94.77292 -98.5546,-173.40616 -98.5546,-174.74056 0,-1.33437 4.23532,-5.85173 9.41179,-10.03859 13.74487,-11.11719 25.85793,-34.62304 27.75491,-53.85947 0.84747,-8.59371 1.99585,-16.08286 2.55192,-16.64254 0.87071,-0.87634 381.60971,18.76977 382.72151,19.74839 0.2249,0.19799 -1.0868,14.75002 -2.9149,32.33789 -18.42754,177.28868 -70.82684,272.00106 -199.85082,361.23289 -11.53243,7.97571 -21.32743,14.4507 -21.76666,14.38884 -0.43924,-0.0618 -45.14817,-77.65394 -99.35315,-172.42685 z"
       id="path84436" />
  </g>
</svg>
