{
    "name": "Flipping tree",
    "author_nickname": "AndyB",
    "notes": "Someone flipped the tree upside down.",
    "hint1": "Build a frame all the way around the ball and under the exit.",
    "hint2": "",
    "hint3": "",
    "discussion_id": "233",
    "discussion_slug": "233-flipping-tree",
    "highlight_notes": false,
    "effects": {},
    "zoom": {
        "w": 34.72222222222223,
        "x": 0.561465721040185,
        "y": -9.123817966903074
    },
    "shapes": [
        {
            "id": 0,
            "number": -1
        },
        {
            "id": 1,
            "number": -1
        },
        {
            "id": 2,
            "number": -1
        },
        {
            "id": 3,
            "number": -1
        },
        {
            "id": 4,
            "number": -1
        }
    ],
    "win_conditions": [
        {
            "bodyEnteredArea": [
                {
                    "RECT": [
                        {
                            "x": 7,
                            "y": 14
                        },
                        {
                            "x": 9,
                            "y": 16
                        }
                    ]
                },
                "main_car"
            ]
        }
    ],
    "lose_conditions": [
        {
            "greaterThan": [
                "time",
                10000
            ]
        }
    ],
    "blocks": [
        {
            "shape_block": {
                "x": 8,
                "y": 5,
                "id": 3,
                "rotation": 270,
                "reflected": false
            }
        },
        {
            "shape_block": {
                "x": 5,
                "y": 4,
                "id": 3,
                "rotation": 270,
                "reflected": false
            }
        },
        {
            "shape_block": {
                "x": 12,
                "y": 5,
                "id": 3,
                "rotation": 270,
                "reflected": false
            }
        },
        {
            "shape_block": {
                "x": 15,
                "y": 4,
                "id": 3,
                "rotation": 270,
                "reflected": false
            }
        },
        {
            "shape_block": {
                "x": 11,
                "y": 2,
                "id": 3,
                "rotation": 0,
                "reflected": false
            }
        },
        {
            "shape_block": {
                "x": 7,
                "y": 1,
                "id": 3,
                "rotation": 90,
                "reflected": false
            }
        },
        {
            "static_block": {
                "x": 6,
                "y": 3,
                "w": 8,
                "h": 1
            }
        },
        {
            "static_block": {
                "x": 14,
                "y": 2,
                "w": 2,
                "h": 1
            }
        },
        {
            "static_block": {
                "x": 5,
                "y": 2,
                "w": 1,
                "h": 1
            }
        },
        {
            "static_block": {
                "x": 9,
                "y": -5,
                "w": 1,
                "h": 8
            }
        },
        {
            "static_block": {
                "x": 3,
                "y": -6,
                "w": 13,
                "h": 1
            }
        },
        {
            "static_block": {
                "x": 7,
                "y": 0,
                "w": 2,
                "h": 1
            }
        },
        {
            "static_block": {
                "x": 10,
                "y": 1,
                "w": 3,
                "h": 1
            }
        },
        {
            "shape_block": {
                "x": 10,
                "y": -7,
                "id": 4,
                "rotation": 0,
                "reflected": false
            }
        },
        {
            "shape_block": {
                "x": 8,
                "y": -8,
                "id": 0,
                "rotation": 90,
                "reflected": false
            }
        },
        {
            "shape_block": {
                "x": 8,
                "y": -11,
                "id": 0,
                "rotation": 90,
                "reflected": false
            }
        },
        {
            "shape_block": {
                "x": 8,
                "y": -14,
                "id": 0,
                "rotation": 90,
                "reflected": false
            }
        },
        {
            "shape_block": {
                "x": 9,
                "y": -16,
                "id": 0,
                "rotation": 180,
                "reflected": false
            }
        },
        {
            "shape_block": {
                "x": 12,
                "y": -16,
                "id": 0,
                "rotation": 180,
                "reflected": false
            }
        },
        {
            "shape_block": {
                "x": 14,
                "y": -14,
                "id": 0,
                "rotation": 180,
                "reflected": false
            }
        },
        {
            "shape_block": {
                "x": 14,
                "y": -12,
                "id": 0,
                "rotation": 270,
                "reflected": false
            }
        },
        {
            "shape_block": {
                "x": 19,
                "y": -6,
                "id": 0,
                "rotation": 270,
                "reflected": true
            }
        },
        {
            "shape_block": {
                "x": 19,
                "y": -3,
                "id": 0,
                "rotation": 270,
                "reflected": true
            }
        },
        {
            "shape_block": {
                "x": 19,
                "y": 0,
                "id": 0,
                "rotation": 270,
                "reflected": true
            }
        },
        {
            "shape_block": {
                "x": 19,
                "y": 3,
                "id": 0,
                "rotation": 270,
                "reflected": true
            }
        },
        {
            "shape_block": {
                "x": 19,
                "y": 6,
                "id": 0,
                "rotation": 270,
                "reflected": true
            }
        },
        {
            "shape_block": {
                "x": 18,
                "y": 9,
                "id": 0,
                "rotation": 180,
                "reflected": true
            }
        },
        {
            "shape_block": {
                "x": 16,
                "y": 11,
                "id": 0,
                "rotation": 180,
                "reflected": true
            }
        },
        {
            "shape_block": {
                "x": 14,
                "y": 13,
                "id": 0,
                "rotation": 180,
                "reflected": true
            }
        },
        {
            "shape_block": {
                "x": 12,
                "y": 15,
                "id": 0,
                "rotation": 180,
                "reflected": true
            }
        },
        {
            "shape_block": {
                "x": 9,
                "y": 16,
                "id": 0,
                "rotation": 180,
                "reflected": true
            }
        },
        {
            "shape_block": {
                "x": 5,
                "y": -7,
                "id": 0,
                "rotation": 180,
                "reflected": true
            }
        },
        {
            "shape_block": {
                "x": 2,
                "y": -6,
                "id": 0,
                "rotation": 270,
                "reflected": false
            }
        },
        {
            "shape_block": {
                "x": 4,
                "y": -5,
                "id": 0,
                "rotation": 0,
                "reflected": false
            }
        },
        {
            "shape_block": {
                "x": 19,
                "y": -11,
                "id": 0,
                "rotation": 0,
                "reflected": false
            }
        },
        {
            "shape_block": {
                "x": 19,
                "y": -9,
                "id": 0,
                "rotation": 270,
                "reflected": true
            }
        },
        {
            "shape_block": {
                "x": 16,
                "y": -11,
                "id": 0,
                "rotation": 180,
                "reflected": false
            }
        },
        {
            "shape_block": {
                "x": 6,
                "y": -16,
                "id": 0,
                "rotation": 180,
                "reflected": false
            }
        },
        {
            "shape_block": {
                "x": 3,
                "y": -16,
                "id": 0,
                "rotation": 180,
                "reflected": false
            }
        },
        {
            "shape_block": {
                "x": 0,
                "y": -16,
                "id": 0,
                "rotation": 180,
                "reflected": false
            }
        },
        {
            "shape_block": {
                "x": -3,
                "y": -16,
                "id": 0,
                "rotation": 180,
                "reflected": false
            }
        }
    ],
    "dynamic_objects": [
        {
            "ball": {
                "x": 10,
                "y": -14,
                "id": "main_car"
            }
        }
    ]
}