{
    "name": "Spiral",
    "author_nickname": "Tom",
    "notes": "Send the beachball around the spiral.",
    "hint1": "You can drop something on the beachball to make it move quickly.",
    "hint2": "Placing a green block in the bottom right corner can deflect the ball into the goal.",
    "hint3": "Drop about five blue blocks onto the beachball to get it moving quickly.",
    "discussion_id": "129",
    "discussion_slug": "129-spiral",
    "highlight_notes": false,
    "effects": {},
    "zoom": {
        "x": 0,
        "y": 0,
        "w": 20
    },
    "shapes": [
        {
            "id": 0,
            "number": -1
        },
        {
            "id": 1,
            "number": -1
        },
        {
            "id": 2,
            "number": -1
        }
    ],
    "win_conditions": [
        {
            "bodyEnteredArea": [
                {
                    "RECT": [
                        {
                            "x": 6,
                            "y": 10
                        },
                        {
                            "x": 8,
                            "y": 12
                        }
                    ]
                },
                "main_car"
            ]
        }
    ],
    "lose_conditions": [],
    "blocks": [
        {
            "static_block": {
                "x": 5,
                "y": 7,
                "w": 9,
                "h": 1
            }
        },
        {
            "static_block": {
                "x": 5,
                "y": 8,
                "w": 1,
                "h": 5
            }
        },
        {
            "static_block": {
                "x": 8,
                "y": 11,
                "w": 1,
                "h": 1
            }
        },
        {
            "static_block": {
                "x": 13,
                "y": 8,
                "w": 1,
                "h": 9
            }
        },
        {
            "static_block": {
                "x": -6,
                "y": 17,
                "w": 20,
                "h": 1
            }
        },
        {
            "static_block": {
                "x": 6,
                "y": 12,
                "w": 3,
                "h": 1
            }
        },
        {
            "shape_block": {
                "x": 12,
                "y": 15,
                "id": 1,
                "rotation": 90,
                "reflected": false
            }
        },
        {
            "shape_block": {
                "x": 1,
                "y": -21,
                "id": 2,
                "rotation": 90,
                "reflected": false
            }
        },
        {
            "shape_block": {
                "x": 1,
                "y": -19,
                "id": 2,
                "rotation": 90,
                "reflected": false
            }
        },
        {
            "shape_block": {
                "x": 1,
                "y": -17,
                "id": 2,
                "rotation": 90,
                "reflected": false
            }
        },
        {
            "shape_block": {
                "x": 1,
                "y": -15,
                "id": 2,
                "rotation": 90,
                "reflected": false
            }
        },
        {
            "shape_block": {
                "x": 1,
                "y": -13,
                "id": 2,
                "rotation": 90,
                "reflected": false
            }
        },
        {
            "shape_block": {
                "x": 1,
                "y": -11,
                "id": 2,
                "rotation": 90,
                "reflected": false
            }
        }
    ],
    "dynamic_objects": [
        {
            "ball": {
                "x": 2,
                "y": 8,
                "id": "main_car"
            }
        }
    ]
}
