{
    "name": "2023",
    "author_nickname": "Tom",
    "notes": "Get both cars through the year unscathed.",
    "hint1": "You can drive the top car over the top of the letters.",
    "hint2": "Push or pull the 23 off the right hand edge after the top car has used them.",
    "hint3": "Use triangles to tip the sides of the zero in the desired directions.",
    "discussion_id": "170",
    "discussion_slug": "170-2023",
    "highlight_notes": false,
    "effects": {},
    "zoom": {
        "x": 0,
        "y": 0,
        "w": 30
    },
    "shapes": [
        {
            "id": 0,
            "number": -1
        },
        {
            "id": 1,
            "number": -1
        },
        {
            "id": 4,
            "number": -1
        }
    ],
    "win_conditions": [
        {
            "and": [
                {
                    "bodyEnteredArea": [
                        {
                            "RECT": [
                                {
                                    "x": 2,
                                    "y": 4
                                },
                                {
                                    "x": 4,
                                    "y": 6
                                }
                            ]
                        },
                        "main_car"
                    ]
                },
                {
                    "bodyEnteredArea": [
                        {
                            "RECT": [
                                {
                                    "x": 17,
                                    "y": 12
                                },
                                {
                                    "x": 19,
                                    "y": 14
                                }
                            ]
                        },
                        "1"
                    ]
                }
            ]
        }
    ],
    "lose_conditions": [],
    "blocks": [
        {
            "static_block": {
                "x": 1,
                "y": 16,
                "w": 19,
                "h": 1
            }
        },
        {
            "shape_block": {
                "x": 3,
                "y": 14,
                "id": 2,
                "rotation": 0,
                "reflected": false
            }
        },
        {
            "shape_block": {
                "x": 1,
                "y": 14,
                "id": 2,
                "rotation": 0,
                "reflected": false
            }
        },
        {
            "shape_block": {
                "x": 7,
                "y": 14,
                "id": 2,
                "rotation": 0,
                "reflected": false
            }
        },
        {
            "shape_block": {
                "x": 11,
                "y": 14,
                "id": 2,
                "rotation": 0,
                "reflected": false
            }
        },
        {
            "shape_block": {
                "x": 13,
                "y": 14,
                "id": 2,
                "rotation": 0,
                "reflected": false
            }
        },
        {
            "shape_block": {
                "x": 17,
                "y": 14,
                "id": 2,
                "rotation": 0,
                "reflected": false
            }
        },
        {
            "shape_block": {
                "x": 17,
                "y": 10,
                "id": 2,
                "rotation": 0,
                "reflected": false
            }
        },
        {
            "shape_block": {
                "x": 17,
                "y": 6,
                "id": 2,
                "rotation": 0,
                "reflected": false
            }
        },
        {
            "shape_block": {
                "x": 19,
                "y": 8,
                "id": 3,
                "rotation": 90,
                "reflected": false
            }
        },
        {
            "shape_block": {
                "x": 19,
                "y": 12,
                "id": 3,
                "rotation": 90,
                "reflected": false
            }
        },
        {
            "shape_block": {
                "x": 11,
                "y": 12,
                "id": 3,
                "rotation": 90,
                "reflected": false
            }
        },
        {
            "shape_block": {
                "x": 13,
                "y": 10,
                "id": 2,
                "rotation": 90,
                "reflected": false
            }
        },
        {
            "shape_block": {
                "x": 14,
                "y": 8,
                "id": 3,
                "rotation": 90,
                "reflected": false
            }
        },
        {
            "shape_block": {
                "x": 13,
                "y": 6,
                "id": 2,
                "rotation": 90,
                "reflected": false
            }
        },
        {
            "shape_block": {
                "x": 11,
                "y": 7,
                "id": 4,
                "rotation": 270,
                "reflected": false
            }
        },
        {
            "shape_block": {
                "x": 11,
                "y": 8,
                "id": 4,
                "rotation": 90,
                "reflected": false
            }
        },
        {
            "shape_block": {
                "x": 1,
                "y": 8,
                "id": 4,
                "rotation": 90,
                "reflected": false
            }
        },
        {
            "shape_block": {
                "x": 1,
                "y": 7,
                "id": 4,
                "rotation": 270,
                "reflected": false
            }
        },
        {
            "shape_block": {
                "x": 2,
                "y": 7,
                "id": 2,
                "rotation": 270,
                "reflected": false
            }
        },
        {
            "shape_block": {
                "x": 4,
                "y": 9,
                "id": 3,
                "rotation": 270,
                "reflected": false
            }
        },
        {
            "shape_block": {
                "x": 1,
                "y": 13,
                "id": 3,
                "rotation": 270,
                "reflected": false
            }
        },
        {
            "shape_block": {
                "x": 9,
                "y": 9,
                "id": 3,
                "rotation": 270,
                "reflected": false
            }
        },
        {
            "shape_block": {
                "x": 9,
                "y": 11,
                "id": 3,
                "rotation": 270,
                "reflected": false
            }
        },
        {
            "shape_block": {
                "x": 9,
                "y": 13,
                "id": 3,
                "rotation": 270,
                "reflected": false
            }
        },
        {
            "shape_block": {
                "x": 6,
                "y": 9,
                "id": 3,
                "rotation": 270,
                "reflected": false
            }
        },
        {
            "shape_block": {
                "x": 6,
                "y": 11,
                "id": 3,
                "rotation": 270,
                "reflected": false
            }
        },
        {
            "shape_block": {
                "x": 6,
                "y": 13,
                "id": 3,
                "rotation": 270,
                "reflected": false
            }
        },
        {
            "shape_block": {
                "x": 7,
                "y": 7,
                "id": 2,
                "rotation": 270,
                "reflected": false
            }
        },
        {
            "shape_block": {
                "x": 2,
                "y": 11,
                "id": 2,
                "rotation": 270,
                "reflected": false
            }
        },
        {
            "shape_block": {
                "x": 16,
                "y": 7,
                "id": 4,
                "rotation": 270,
                "reflected": false
            }
        },
        {
            "shape_block": {
                "x": 16,
                "y": 14,
                "id": 4,
                "rotation": 180,
                "reflected": false
            }
        },
        {
            "shape_block": {
                "x": 19,
                "y": 7,
                "id": 4,
                "rotation": 0,
                "reflected": false
            }
        },
        {
            "shape_block": {
                "x": 19,
                "y": 11,
                "id": 4,
                "rotation": 0,
                "reflected": false
            }
        },
        {
            "shape_block": {
                "x": 1,
                "y": 11,
                "id": 4,
                "rotation": 270,
                "reflected": false
            }
        },
        {
            "shape_block": {
                "x": 3,
                "y": 9,
                "id": 4,
                "rotation": 270,
                "reflected": false
            }
        },
        {
            "shape_block": {
                "x": 11,
                "y": 11,
                "id": 4,
                "rotation": 270,
                "reflected": false
            }
        },
        {
            "shape_block": {
                "x": 13,
                "y": 9,
                "id": 4,
                "rotation": 270,
                "reflected": false
            }
        },
        {
            "shape_block": {
                "x": 19,
                "y": 10,
                "id": 4,
                "rotation": 90,
                "reflected": false
            }
        },
        {
            "shape_block": {
                "x": 19,
                "y": 14,
                "id": 4,
                "rotation": 90,
                "reflected": false
            }
        },
        {
            "shape_block": {
                "x": 14,
                "y": 10,
                "id": 4,
                "rotation": 90,
                "reflected": false
            }
        },
        {
            "shape_block": {
                "x": 12,
                "y": 12,
                "id": 4,
                "rotation": 90,
                "reflected": false
            }
        },
        {
            "shape_block": {
                "x": 4,
                "y": 10,
                "id": 4,
                "rotation": 90,
                "reflected": false
            }
        },
        {
            "shape_block": {
                "x": 2,
                "y": 12,
                "id": 4,
                "rotation": 90,
                "reflected": false
            }
        },
        {
            "static_block": {
                "x": -2,
                "y": 1,
                "w": 2,
                "h": 2
            }
        },
        {
            "static_block": {
                "x": 21,
                "y": 1,
                "w": 2,
                "h": 2
            }
        },
        {
            "static_block": {
                "x": -2,
                "y": 19,
                "w": 2,
                "h": 2
            }
        },
        {
            "static_block": {
                "x": 21,
                "y": 19,
                "w": 2,
                "h": 2
            }
        },
        {
            "shape_block": {
                "x": 15,
                "y": 6,
                "id": 1,
                "rotation": 0,
                "reflected": false
            }
        },
        {
            "shape_block": {
                "x": 10,
                "y": 6,
                "id": 1,
                "rotation": 0,
                "reflected": false
            }
        },
        {
            "shape_block": {
                "x": 5,
                "y": 6,
                "id": 1,
                "rotation": 0,
                "reflected": false
            }
        },
        {
            "shape_block": {
                "x": 1,
                "y": 5,
                "id": 1,
                "rotation": 90,
                "reflected": false
            }
        },
        {
            "shape_block": {
                "x": 1,
                "y": 2,
                "id": 1,
                "rotation": 90,
                "reflected": false
            }
        },
        {
            "shape_block": {
                "x": 0,
                "y": 0,
                "id": 1,
                "rotation": 0,
                "reflected": false
            }
        },
        {
            "shape_block": {
                "x": -3,
                "y": 1,
                "id": 0,
                "rotation": 270,
                "reflected": false
            }
        },
        {
            "shape_block": {
                "x": 8,
                "y": 9,
                "id": 4,
                "rotation": 180,
                "reflected": false
            }
        },
        {
            "shape_block": {
                "x": 21,
                "y": 12,
                "id": 1,
                "rotation": 0,
                "reflected": false
            }
        },
        {
            "shape_block": {
                "x": 24,
                "y": 12,
                "id": 1,
                "rotation": 0,
                "reflected": false
            }
        },
        {
            "shape_block": {
                "x": 27,
                "y": 12,
                "id": 1,
                "rotation": 0,
                "reflected": false
            }
        },
        {
            "shape_block": {
                "x": 15,
                "y": 11,
                "id": 1,
                "rotation": 0,
                "reflected": false
            }
        },
        {
            "shape_block": {
                "x": 21,
                "y": 11,
                "id": 1,
                "rotation": 180,
                "reflected": false
            }
        },
        {
            "shape_block": {
                "x": 24,
                "y": 11,
                "id": 1,
                "rotation": 180,
                "reflected": false
            }
        },
        {
            "shape_block": {
                "x": 27,
                "y": 11,
                "id": 1,
                "rotation": 180,
                "reflected": false
            }
        },
        {
            "shape_block": {
                "x": 21,
                "y": 9,
                "id": 0,
                "rotation": 0,
                "reflected": true
            }
        },
        {
            "shape_block": {
                "x": 24,
                "y": 9,
                "id": 0,
                "rotation": 0,
                "reflected": true
            }
        },
        {
            "shape_block": {
                "x": 27,
                "y": 9,
                "id": 0,
                "rotation": 0,
                "reflected": true
            }
        },
        {
            "shape_block": {
                "x": 29,
                "y": 10,
                "id": 1,
                "rotation": 90,
                "reflected": true
            }
        },
        {
            "shape_block": {
                "x": 29,
                "y": 13,
                "id": 1,
                "rotation": 180,
                "reflected": true
            }
        },
        {
            "shape_block": {
                "x": 6,
                "y": 15,
                "id": 4,
                "rotation": 0,
                "reflected": true
            }
        },
        {
            "shape_block": {
                "x": 30,
                "y": 11,
                "id": 0,
                "rotation": 270,
                "reflected": true
            }
        },
        {
            "shape_block": {
                "x": 31,
                "y": 10,
                "id": 0,
                "rotation": 90,
                "reflected": true
            }
        },
        {
            "shape_block": {
                "x": 32,
                "y": 13,
                "id": 1,
                "rotation": 180,
                "reflected": true
            }
        },
        {
            "shape_block": {
                "x": 33,
                "y": 11,
                "id": 1,
                "rotation": 0,
                "reflected": true
            }
        },
        {
            "shape_block": {
                "x": 35,
                "y": 12,
                "id": 0,
                "rotation": 0,
                "reflected": true
            }
        },
        {
            "shape_block": {
                "x": 33,
                "y": 9,
                "id": 0,
                "rotation": 0,
                "reflected": true
            }
        },
        {
            "shape_block": {
                "x": 34,
                "y": 10,
                "id": 0,
                "rotation": 180,
                "reflected": true
            }
        }
    ],
    "dynamic_objects": [
        {
            "left_car": {
                "x": 18,
                "y": 5,
                "id": "main_car"
            }
        },
        {
            "simple_car": {
                "x": 4,
                "y": 12.999999999999998,
                "id": "1"
            }
        }
    ]
}
