{
    "name": "Reverse Droppers",
    "author_nickname": "AndyB",
    "notes": "Get them into the opposite pockets.",
    "hint1": "Smash the cubes out of the droppers quite early. Get one to fall slightly before the other. Augment the droppers to guide their paths so they fall right.",
    "hint2": "",
    "hint3": "",
    "discussion_id": "300",
    "discussion_slug": "300-reverse-droppers",
    "highlight_notes": false,
    "effects": {},
    "zoom": {
        "w": 49.76639999999998,
        "x": 0.9650476399561009,
        "y": 1.9301479692645565
    },
    "shapes": [
        {
            "id": 0,
            "number": -1
        },
        {
            "id": 1,
            "number": -1
        },
        {
            "id": 2,
            "number": -1
        },
        {
            "id": 3,
            "number": -1
        },
        {
            "id": 4,
            "number": -1
        }
    ],
    "win_conditions": [
        {
            "and": [
                {
                    "bodyEnteredArea": [
                        {
                            "RECT": [
                                {
                                    "x": 24,
                                    "y": 26
                                },
                                {
                                    "x": 28,
                                    "y": 29
                                }
                            ]
                        },
                        "left"
                    ]
                },
                {
                    "bodyEnteredArea": [
                        {
                            "RECT": [
                                {
                                    "x": -6,
                                    "y": 26
                                },
                                {
                                    "x": -2,
                                    "y": 29
                                }
                            ]
                        },
                        "right"
                    ]
                }
            ]
        }
    ],
    "lose_conditions": [
        {
            "greaterThan": [
                "time",
                20000
            ]
        }
    ],
    "blocks": [
        {
            "shape_block": {
                "x": -1,
                "y": -4,
                "id": 3,
                "rotation": 90,
                "reflected": false
            }
        },
        {
            "shape_block": {
                "x": 0,
                "y": -5,
                "id": 3,
                "rotation": 0,
                "reflected": false
            }
        },
        {
            "static_block": {
                "x": -7,
                "y": 26,
                "w": 1,
                "h": 3
            }
        },
        {
            "static_block": {
                "x": -6,
                "y": 29,
                "w": 4,
                "h": 1
            }
        },
        {
            "static_block": {
                "x": -2,
                "y": 26,
                "w": 1,
                "h": 3
            }
        },
        {
            "static_block": {
                "x": 23,
                "y": 26,
                "w": 1,
                "h": 3
            }
        },
        {
            "static_block": {
                "x": 24,
                "y": 29,
                "w": 4,
                "h": 1
            }
        },
        {
            "static_block": {
                "x": 28,
                "y": 26,
                "w": 1,
                "h": 3
            }
        },
        {
            "shape_block": {
                "x": 22,
                "y": -3,
                "id": 3,
                "rotation": 270,
                "reflected": false
            }
        },
        {
            "shape_block": {
                "x": 20,
                "y": -5,
                "id": 3,
                "rotation": 0,
                "reflected": false
            }
        },
        {
            "shape_block": {
                "x": 0,
                "y": 2,
                "id": 0,
                "rotation": 270,
                "reflected": true
            }
        },
        {
            "shape_block": {
                "x": 0,
                "y": -1,
                "id": 0,
                "rotation": 270,
                "reflected": false
            }
        },
        {
            "shape_block": {
                "x": 21,
                "y": -1,
                "id": 0,
                "rotation": 90,
                "reflected": true
            }
        },
        {
            "shape_block": {
                "x": 21,
                "y": 2,
                "id": 0,
                "rotation": 90,
                "reflected": false
            }
        },
        {
            "shape_block": {
                "x": 22,
                "y": -2,
                "id": 4,
                "rotation": 90,
                "reflected": false
            }
        },
        {
            "shape_block": {
                "x": 22,
                "y": -5,
                "id": 4,
                "rotation": 0,
                "reflected": false
            }
        },
        {
            "shape_block": {
                "x": -1,
                "y": -2,
                "id": 4,
                "rotation": 180,
                "reflected": false
            }
        },
        {
            "shape_block": {
                "x": -1,
                "y": -5,
                "id": 4,
                "rotation": 270,
                "reflected": false
            }
        },
        {
            "shape_block": {
                "x": -1,
                "y": 26,
                "id": 0,
                "rotation": 90,
                "reflected": true
            }
        },
        {
            "shape_block": {
                "x": 1,
                "y": 25,
                "id": 0,
                "rotation": 90,
                "reflected": true
            }
        },
        {
            "shape_block": {
                "x": 3,
                "y": 24,
                "id": 0,
                "rotation": 90,
                "reflected": true
            }
        },
        {
            "shape_block": {
                "x": 5,
                "y": 23,
                "id": 0,
                "rotation": 90,
                "reflected": true
            }
        },
        {
            "shape_block": {
                "x": 7,
                "y": 22,
                "id": 0,
                "rotation": 90,
                "reflected": true
            }
        },
        {
            "shape_block": {
                "x": 9,
                "y": 21,
                "id": 0,
                "rotation": 90,
                "reflected": true
            }
        },
        {
            "shape_block": {
                "x": 22,
                "y": 26,
                "id": 0,
                "rotation": 270,
                "reflected": false
            }
        },
        {
            "shape_block": {
                "x": 20,
                "y": 25,
                "id": 0,
                "rotation": 270,
                "reflected": false
            }
        },
        {
            "shape_block": {
                "x": 18,
                "y": 24,
                "id": 0,
                "rotation": 270,
                "reflected": false
            }
        },
        {
            "shape_block": {
                "x": 16,
                "y": 23,
                "id": 0,
                "rotation": 270,
                "reflected": false
            }
        },
        {
            "shape_block": {
                "x": 14,
                "y": 22,
                "id": 0,
                "rotation": 270,
                "reflected": false
            }
        },
        {
            "shape_block": {
                "x": 12,
                "y": 21,
                "id": 0,
                "rotation": 270,
                "reflected": false
            }
        },
        {
            "shape_block": {
                "x": 10,
                "y": 21,
                "id": 2,
                "rotation": 270,
                "reflected": false
            }
        },
        {
            "shape_block": {
                "x": 0,
                "y": 26,
                "id": 3,
                "rotation": 270,
                "reflected": false
            }
        },
        {
            "shape_block": {
                "x": 2,
                "y": 25,
                "id": 3,
                "rotation": 270,
                "reflected": false
            }
        },
        {
            "shape_block": {
                "x": 4,
                "y": 24,
                "id": 3,
                "rotation": 270,
                "reflected": false
            }
        },
        {
            "shape_block": {
                "x": 6,
                "y": 23,
                "id": 3,
                "rotation": 270,
                "reflected": false
            }
        },
        {
            "shape_block": {
                "x": 8,
                "y": 22,
                "id": 3,
                "rotation": 270,
                "reflected": false
            }
        },
        {
            "shape_block": {
                "x": 13,
                "y": 22,
                "id": 3,
                "rotation": 270,
                "reflected": false
            }
        },
        {
            "shape_block": {
                "x": 15,
                "y": 23,
                "id": 3,
                "rotation": 270,
                "reflected": false
            }
        },
        {
            "shape_block": {
                "x": 17,
                "y": 24,
                "id": 3,
                "rotation": 270,
                "reflected": false
            }
        },
        {
            "shape_block": {
                "x": 19,
                "y": 25,
                "id": 3,
                "rotation": 270,
                "reflected": false
            }
        },
        {
            "shape_block": {
                "x": 21,
                "y": 26,
                "id": 3,
                "rotation": 270,
                "reflected": false
            }
        },
        {
            "shape_block": {
                "x": 24,
                "y": -4,
                "id": 0,
                "rotation": 0,
                "reflected": false
            }
        },
        {
            "shape_block": {
                "x": -2,
                "y": -20,
                "id": 2,
                "rotation": 0,
                "reflected": false
            }
        },
        {
            "shape_block": {
                "x": 18,
                "y": -2,
                "id": 0,
                "rotation": 0,
                "reflected": true
            }
        },
        {
            "shape_block": {
                "x": 15,
                "y": -2,
                "id": 0,
                "rotation": 0,
                "reflected": true
            }
        },
        {
            "shape_block": {
                "x": 2,
                "y": 5,
                "id": 0,
                "rotation": 180,
                "reflected": true
            }
        },
        {
            "shape_block": {
                "x": 2,
                "y": -2,
                "id": 4,
                "rotation": 90,
                "reflected": true
            }
        },
        {
            "shape_block": {
                "x": 2,
                "y": -1,
                "id": 4,
                "rotation": 270,
                "reflected": true
            }
        },
        {
            "shape_block": {
                "x": 3,
                "y": -1,
                "id": 4,
                "rotation": 90,
                "reflected": true
            }
        },
        {
            "shape_block": {
                "x": 3,
                "y": 0,
                "id": 4,
                "rotation": 270,
                "reflected": true
            }
        },
        {
            "shape_block": {
                "x": -4,
                "y": -20,
                "id": 2,
                "rotation": 270,
                "reflected": true
            }
        },
        {
            "shape_block": {
                "x": -2,
                "y": -18,
                "id": 2,
                "rotation": 270,
                "reflected": true
            }
        },
        {
            "shape_block": {
                "x": 4,
                "y": 0,
                "id": 4,
                "rotation": 90,
                "reflected": true
            }
        },
        {
            "shape_block": {
                "x": 4,
                "y": 1,
                "id": 4,
                "rotation": 270,
                "reflected": true
            }
        },
        {
            "shape_block": {
                "x": 5,
                "y": 1,
                "id": 4,
                "rotation": 90,
                "reflected": true
            }
        },
        {
            "shape_block": {
                "x": 6,
                "y": 2,
                "id": 4,
                "rotation": 90,
                "reflected": true
            }
        },
        {
            "shape_block": {
                "x": 5,
                "y": 2,
                "id": 4,
                "rotation": 270,
                "reflected": true
            }
        },
        {
            "shape_block": {
                "x": 10,
                "y": 19,
                "id": 3,
                "rotation": 180,
                "reflected": true
            }
        },
        {
            "shape_block": {
                "x": -2,
                "y": -3,
                "id": 0,
                "rotation": 90,
                "reflected": true
            }
        },
        {
            "shape_block": {
                "x": 23,
                "y": -20,
                "id": 2,
                "rotation": 90,
                "reflected": true
            }
        },
        {
            "shape_block": {
                "x": -7,
                "y": 25,
                "id": 3,
                "rotation": 90,
                "reflected": true
            }
        },
        {
            "shape_block": {
                "x": 28,
                "y": 25,
                "id": 3,
                "rotation": 90,
                "reflected": true
            }
        }
    ],
    "dynamic_objects": [
        {
            "floating": {
                "x": 1,
                "y": 4,
                "id": "f1"
            }
        },
        {
            "floating": {
                "x": 21,
                "y": 4,
                "id": "f2"
            }
        },
        {
            "box": {
                "x": 1,
                "y": -3,
                "id": "left"
            }
        },
        {
            "box": {
                "x": 21,
                "y": -3,
                "id": "right"
            }
        }
    ]
}
