{
    "name": "Windy 2",
    "author_nickname": "AndyB",
    "notes": "You have fewer blocks this time.",
    "hint1": "We've got to stop this before things get moving!",
    "hint2": "Build a cage around the ball.",
    "hint3": "",
    "discussion_id": "87",
    "discussion_slug": "87-windy-2",
    "highlight_notes": false,
    "effects": {
        "wind": 50
    },
    "zoom": {
        "x": 0,
        "y": 0,
        "w": 20
    },
    "shapes": [
        {
            "id": 0,
            "number": 2
        },
        {
            "id": 1,
            "number": 2
        }
    ],
    "win_conditions": [
        {
            "greaterThan": [
                "time",
                3000
            ]
        }
    ],
    "lose_conditions": [
        {
            "bodyEnteredArea": [
                {
                    "RECT": [
                        {
                            "x": 15,
                            "y": 5
                        },
                        {
                            "x": 17,
                            "y": 16
                        }
                    ]
                },
                "main_car"
            ]
        }
    ],
    "blocks": [
        {
            "static_block": {
                "x": 3,
                "y": 16,
                "w": 14,
                "h": 2
            }
        },
        {
            "static_block": {
                "x": 3,
                "y": 11,
                "w": 2,
                "h": 5
            }
        },
        {
            "shape_block": {
                "x": 6,
                "y": 10,
                "id": 0,
                "rotation": 90,
                "reflected": false
            }
        },
        {
            "shape_block": {
                "x": 1,
                "y": 10,
                "id": 0,
                "rotation": 270,
                "reflected": true
            }
        },
        {
            "shape_block": {
                "x": 2,
                "y": 8,
                "id": 1,
                "rotation": 180,
                "reflected": true
            }
        },
        {
            "shape_block": {
                "x": 5,
                "y": 8,
                "id": 1,
                "rotation": 180,
                "reflected": true
            }
        }
    ],
    "dynamic_objects": [
        {
            "ball": {
                "x": 4,
                "y": 10,
                "id": "main_car"
            }
        }
    ]
}
