{
    "name": "Marbles",
    "author_nickname": "AndyB",
    "notes": "Flip the box into the target!",
    "hint1": "Try to drop blocks from the right height to catapult the box.",
    "hint2": "Add slopes to the edges of the flipper to make it longer.",
    "hint3": "Experiment with dropping different numbers of blocks from different heights onto the right hand side of the flipper.",
    "discussion_id": "234",
    "discussion_slug": "234-marbles",
    "highlight_notes": false,
    "effects": {},
    "zoom": {
        "w": 28.799999999999997,
        "x": 5.554042553191496,
        "y": 0.6411914893617044
    },
    "shapes": [
        {
            "id": 0,
            "number": -1
        },
        {
            "id": 1,
            "number": -1
        },
        {
            "id": 2,
            "number": -1
        },
        {
            "id": 3,
            "number": -1
        },
        {
            "id": 4,
            "number": -1
        }
    ],
    "win_conditions": [
        {
            "bodyEnteredArea": [
                {
                    "RECT": [
                        {
                            "x": 6,
                            "y": 8
                        },
                        {
                            "x": 13,
                            "y": 12
                        }
                    ]
                },
                "main_car"
            ]
        }
    ],
    "lose_conditions": [
        {
            "greaterThan": [
                "time",
                10000
            ]
        }
    ],
    "blocks": [
        {
            "static_block": {
                "x": 5,
                "y": 8,
                "w": 1,
                "h": 4
            }
        },
        {
            "static_block": {
                "x": 5,
                "y": 7,
                "w": 3,
                "h": 1
            }
        },
        {
            "static_block": {
                "x": 11,
                "y": 7,
                "w": 3,
                "h": 1
            }
        },
        {
            "static_block": {
                "x": 13,
                "y": 8,
                "w": 1,
                "h": 4
            }
        },
        {
            "static_block": {
                "x": 5,
                "y": 12,
                "w": 9,
                "h": 1
            }
        },
        {
            "static_block": {
                "x": 18,
                "y": 20,
                "w": 8,
                "h": 1
            }
        },
        {
            "shape_block": {
                "x": 21,
                "y": 19,
                "id": 4,
                "rotation": 270,
                "reflected": false
            }
        },
        {
            "shape_block": {
                "x": 22,
                "y": 19,
                "id": 4,
                "rotation": 90,
                "reflected": true
            }
        },
        {
            "shape_block": {
                "x": 23,
                "y": 18,
                "id": 0,
                "rotation": 180,
                "reflected": false
            }
        },
        {
            "shape_block": {
                "x": 20,
                "y": 18,
                "id": 0,
                "rotation": 180,
                "reflected": true
            }
        },
        {
            "shape_block": {
                "x": 18,
                "y": 18,
                "id": 4,
                "rotation": 180,
                "reflected": false
            }
        },
        {
            "shape_block": {
                "x": 25,
                "y": 18,
                "id": 4,
                "rotation": 180,
                "reflected": true
            }
        },
        {
            "shape_block": {
                "x": 23,
                "y": 4,
                "id": 2,
                "rotation": 180,
                "reflected": true
            }
        },
        {
            "shape_block": {
                "x": 23,
                "y": 2,
                "id": 2,
                "rotation": 180,
                "reflected": true
            }
        },
        {
            "shape_block": {
                "x": 23,
                "y": 0,
                "id": 2,
                "rotation": 180,
                "reflected": true
            }
        }
    ],
    "dynamic_objects": [
        {
            "box": {
                "x": 20,
                "y": 17,
                "id": "main_car"
            }
        }
    ]
}