{
    "name": "Christmas Tree ",
    "author_nickname": "Tom",
    "notes": "Put the toy car under the tree ready for Christmas morning",
    "hint1": "Get the car to bounce off something at the bottom.",
    "hint2": "It may help to place a ramp at the top to make the car flip.",
    "hint3": "Pile up blocks at the bottom to bounce the car off.",
    "discussion_id": "135",
    "discussion_slug": "135-christmas-tree",
    "highlight_notes": false,
    "effects": {},
    "zoom": {
        "x": 0,
        "y": 0,
        "w": 20
    },
    "shapes": [
        {
            "id": 4,
            "number": -1
        }
    ],
    "win_conditions": [
        {
            "bodyEnteredArea": [
                {
                    "RECT": [
                        {
                            "x": 7,
                            "y": 16
                        },
                        {
                            "x": 11,
                            "y": 19
                        }
                    ]
                },
                "main_car"
            ]
        }
    ],
    "lose_conditions": [
        {
            "greaterThan": [
                "time",
                10000
            ]
        }
    ],
    "blocks": [
        {
            "static_block": {
                "x": 8,
                "y": 4,
                "w": 2,
                "h": 2
            }
        },
        {
            "static_block": {
                "x": 7,
                "y": 7,
                "w": 4,
                "h": 2
            }
        },
        {
            "static_block": {
                "x": 6,
                "y": 10,
                "w": 6,
                "h": 2
            }
        },
        {
            "static_block": {
                "x": 5,
                "y": 13,
                "w": 8,
                "h": 2
            }
        },
        {
            "static_block": {
                "x": -6,
                "y": 19,
                "w": 42,
                "h": 8
            }
        }
    ],
    "dynamic_objects": [
        {
            "simple_car": {
                "x": 9,
                "y": 3,
                "id": "main_car"
            }
        }
    ]
}
