{
    "name": "Tidy up",
    "author_nickname": "AndyB",
    "notes": "Get all the balls into the pit!",
    "hint1": "Build a backstop wall on the right and smash the balls that way.",
    "hint2": "Drop a wedge-shaped weight onto the balls to move them.",
    "hint3": "Control the weight with a wall on the left.",
    "discussion_id": "132",
    "discussion_slug": "132-tidy-up",
    "highlight_notes": false,
    "effects": {},
    "zoom": {
        "x": 5,
        "y": 0,
        "w": 30
    },
    "shapes": [
        {
            "id": 0,
            "number": -1
        },
        {
            "id": 1,
            "number": -1
        },
        {
            "id": 2,
            "number": -1
        },
        {
            "id": 3,
            "number": -1
        },
        {
            "id": 4,
            "number": -1
        }
    ],
    "win_conditions": [
        {
            "and": [
                {
                    "bodyEnteredArea": [
                        {
                            "RECT": [
                                {
                                    "x": 18,
                                    "y": 14
                                },
                                {
                                    "x": 25,
                                    "y": 18
                                }
                            ]
                        },
                        "1"
                    ]
                },
                {
                    "bodyEnteredArea": [
                        {
                            "RECT": [
                                {
                                    "x": 18,
                                    "y": 14
                                },
                                {
                                    "x": 25,
                                    "y": 18
                                }
                            ]
                        },
                        "2"
                    ]
                },
                {
                    "bodyEnteredArea": [
                        {
                            "RECT": [
                                {
                                    "x": 18,
                                    "y": 14
                                },
                                {
                                    "x": 25,
                                    "y": 18
                                }
                            ]
                        },
                        "3"
                    ]
                },
                {
                    "bodyEnteredArea": [
                        {
                            "RECT": [
                                {
                                    "x": 18,
                                    "y": 14
                                },
                                {
                                    "x": 25,
                                    "y": 18
                                }
                            ]
                        },
                        "4"
                    ]
                },
                {
                    "bodyEnteredArea": [
                        {
                            "RECT": [
                                {
                                    "x": 18,
                                    "y": 14
                                },
                                {
                                    "x": 25,
                                    "y": 18
                                }
                            ]
                        },
                        "5"
                    ]
                },
                {
                    "bodyEnteredArea": [
                        {
                            "RECT": [
                                {
                                    "x": 18,
                                    "y": 14
                                },
                                {
                                    "x": 25,
                                    "y": 18
                                }
                            ]
                        },
                        "6"
                    ]
                }
            ]
        }
    ],
    "lose_conditions": [
        {
            "greaterThan": [
                "time",
                20000
            ]
        }
    ],
    "blocks": [
        {
            "static_block": {
                "x": 5,
                "y": 16,
                "w": 12,
                "h": 1
            }
        },
        {
            "static_block": {
                "x": 17,
                "y": 15,
                "w": 1,
                "h": 4
            }
        },
        {
            "static_block": {
                "x": 25,
                "y": 15,
                "w": 1,
                "h": 4
            }
        },
        {
            "static_block": {
                "x": 18,
                "y": 18,
                "w": 7,
                "h": 1
            }
        },
        {
            "shape_block": {
                "x": 5,
                "y": 15,
                "id": 2,
                "rotation": 270,
                "reflected": false
            }
        },
        {
            "shape_block": {
                "x": 5,
                "y": 12,
                "id": 2,
                "rotation": 0,
                "reflected": false
            }
        },
        {
            "shape_block": {
                "x": 7,
                "y": 3,
                "id": 4,
                "rotation": 90,
                "reflected": false
            }
        },
        {
            "shape_block": {
                "x": 8,
                "y": 2,
                "id": 4,
                "rotation": 90,
                "reflected": false
            }
        },
        {
            "shape_block": {
                "x": 7,
                "y": 1,
                "id": 3,
                "rotation": 90,
                "reflected": false
            }
        },
        {
            "shape_block": {
                "x": 8,
                "y": 0,
                "id": 3,
                "rotation": 90,
                "reflected": false
            }
        },
        {
            "shape_block": {
                "x": 7,
                "y": -1,
                "id": 3,
                "rotation": 90,
                "reflected": false
            }
        },
        {
            "shape_block": {
                "x": 8,
                "y": -2,
                "id": 3,
                "rotation": 90,
                "reflected": false
            }
        },
        {
            "shape_block": {
                "x": 7,
                "y": -3,
                "id": 3,
                "rotation": 90,
                "reflected": false
            }
        },
        {
            "shape_block": {
                "x": 8,
                "y": -4,
                "id": 3,
                "rotation": 90,
                "reflected": false
            }
        },
        {
            "shape_block": {
                "x": 7,
                "y": -5,
                "id": 3,
                "rotation": 90,
                "reflected": false
            }
        },
        {
            "shape_block": {
                "x": 8,
                "y": -6,
                "id": 3,
                "rotation": 90,
                "reflected": false
            }
        },
        {
            "shape_block": {
                "x": 7,
                "y": -7,
                "id": 3,
                "rotation": 90,
                "reflected": false
            }
        },
        {
            "shape_block": {
                "x": 8,
                "y": -8,
                "id": 3,
                "rotation": 90,
                "reflected": false
            }
        },
        {
            "shape_block": {
                "x": 7,
                "y": -9,
                "id": 3,
                "rotation": 90,
                "reflected": false
            }
        },
        {
            "shape_block": {
                "x": 16,
                "y": 15,
                "id": 4,
                "rotation": 270,
                "reflected": false
            }
        },
        {
            "shape_block": {
                "x": 8,
                "y": -10,
                "id": 3,
                "rotation": 90,
                "reflected": false
            }
        },
        {
            "shape_block": {
                "x": 9,
                "y": 1,
                "id": 4,
                "rotation": 90,
                "reflected": false
            }
        },
        {
            "shape_block": {
                "x": 10,
                "y": 0,
                "id": 4,
                "rotation": 90,
                "reflected": false
            }
        },
        {
            "shape_block": {
                "x": 9,
                "y": -1,
                "id": 3,
                "rotation": 90,
                "reflected": false
            }
        },
        {
            "shape_block": {
                "x": 26,
                "y": 18,
                "id": 0,
                "rotation": 90,
                "reflected": false
            }
        },
        {
            "shape_block": {
                "x": 26,
                "y": 15,
                "id": 0,
                "rotation": 90,
                "reflected": true
            }
        },
        {
            "shape_block": {
                "x": 26,
                "y": 13,
                "id": 2,
                "rotation": 90,
                "reflected": true
            }
        },
        {
            "shape_block": {
                "x": 26,
                "y": 11,
                "id": 2,
                "rotation": 90,
                "reflected": true
            }
        },
        {
            "shape_block": {
                "x": 25,
                "y": 9,
                "id": 2,
                "rotation": 180,
                "reflected": true
            }
        },
        {
            "shape_block": {
                "x": 1,
                "y": 0,
                "id": 2,
                "rotation": 180,
                "reflected": true
            }
        },
        {
            "shape_block": {
                "x": 9,
                "y": -9,
                "id": 3,
                "rotation": 270,
                "reflected": true
            }
        },
        {
            "shape_block": {
                "x": 11,
                "y": -10,
                "id": 4,
                "rotation": 90,
                "reflected": true
            }
        },
        {
            "shape_block": {
                "x": 10,
                "y": -8,
                "id": 3,
                "rotation": 90,
                "reflected": true
            }
        },
        {
            "shape_block": {
                "x": 11,
                "y": -8,
                "id": 3,
                "rotation": 90,
                "reflected": true
            }
        }
    ],
    "dynamic_objects": [
        {
            "ball": {
                "x": 10,
                "y": 15,
                "id": "6"
            }
        },
        {
            "ball": {
                "x": 12,
                "y": 15,
                "id": "1"
            }
        },
        {
            "ball": {
                "x": 11,
                "y": 13,
                "id": "4"
            }
        },
        {
            "ball": {
                "x": 8,
                "y": 15,
                "id": "2"
            }
        },
        {
            "ball": {
                "x": 9,
                "y": 13,
                "id": "3"
            }
        },
        {
            "ball": {
                "x": 10,
                "y": 11,
                "id": "5"
            }
        }
    ]
}
