{
    "name": "Pottier Shot",
    "author_nickname": "Tom",
    "notes": "Get all three balls into the pot.",
    "hint1": "Drop light blocks onto the balls to bounce them to the right.",
    "hint2": "Build a frame around the pot to guide the balls into it.",
    "hint3": "",
    "discussion_id": "267",
    "discussion_slug": "267-pottier-shot",
    "highlight_notes": false,
    "effects": {},
    "zoom": {
        "w": 52.86484036984222,
        "x": 0,
        "y": 0
    },
    "shapes": [
        {
            "id": 0,
            "number": -1
        },
        {
            "id": 1,
            "number": -1
        },
        {
            "id": 2,
            "number": -1
        },
        {
            "id": 3,
            "number": -1
        },
        {
            "id": 4,
            "number": -1
        }
    ],
    "win_conditions": [
        {
            "and": [
                {
                    "bodyEnteredArea": [
                        {
                            "RECT": [
                                {
                                    "x": 24,
                                    "y": 8
                                },
                                {
                                    "x": 28,
                                    "y": 12
                                }
                            ]
                        },
                        "X"
                    ]
                },
                {
                    "bodyEnteredArea": [
                        {
                            "RECT": [
                                {
                                    "x": 24,
                                    "y": 8
                                },
                                {
                                    "x": 28,
                                    "y": 12
                                }
                            ]
                        },
                        "Y"
                    ]
                },
                {
                    "bodyEnteredArea": [
                        {
                            "RECT": [
                                {
                                    "x": 24,
                                    "y": 8
                                },
                                {
                                    "x": 28,
                                    "y": 12
                                }
                            ]
                        },
                        "Z"
                    ]
                }
            ]
        }
    ],
    "lose_conditions": [
        {
            "greaterThan": [
                "time",
                10000
            ]
        }
    ],
    "blocks": [
        {
            "static_block": {
                "x": -9,
                "y": 32,
                "w": 35,
                "h": 3
            }
        },
        {
            "static_block": {
                "x": 22,
                "y": 8,
                "w": 2,
                "h": 5
            }
        },
        {
            "static_block": {
                "x": 23,
                "y": 12,
                "w": 6,
                "h": 2
            }
        },
        {
            "static_block": {
                "x": 28,
                "y": 8,
                "w": 2,
                "h": 5
            }
        },
        {
            "shape_block": {
                "x": 28,
                "y": 6,
                "id": 2,
                "rotation": 0,
                "reflected": false
            }
        },
        {
            "shape_block": {
                "x": 28,
                "y": 4,
                "id": 2,
                "rotation": 0,
                "reflected": false
            }
        },
        {
            "shape_block": {
                "x": 28,
                "y": 2,
                "id": 2,
                "rotation": 0,
                "reflected": false
            }
        },
        {
            "shape_block": {
                "x": 28,
                "y": 0,
                "id": 2,
                "rotation": 0,
                "reflected": false
            }
        },
        {
            "shape_block": {
                "x": 23,
                "y": 7,
                "id": 1,
                "rotation": 180,
                "reflected": false
            }
        },
        {
            "shape_block": {
                "x": 22,
                "y": 6,
                "id": 4,
                "rotation": 180,
                "reflected": false
            }
        },
        {
            "shape_block": {
                "x": 21,
                "y": 5,
                "id": 4,
                "rotation": 180,
                "reflected": false
            }
        },
        {
            "shape_block": {
                "x": 20,
                "y": 4,
                "id": 4,
                "rotation": 180,
                "reflected": false
            }
        },
        {
            "shape_block": {
                "x": 22,
                "y": 5,
                "id": 4,
                "rotation": 0,
                "reflected": false
            }
        },
        {
            "shape_block": {
                "x": 21,
                "y": 4,
                "id": 4,
                "rotation": 0,
                "reflected": false
            }
        },
        {
            "shape_block": {
                "x": 0,
                "y": -20,
                "id": 4,
                "rotation": 90,
                "reflected": false
            }
        },
        {
            "shape_block": {
                "x": 4,
                "y": -20,
                "id": 4,
                "rotation": 90,
                "reflected": false
            }
        },
        {
            "shape_block": {
                "x": 8,
                "y": -20,
                "id": 4,
                "rotation": 90,
                "reflected": false
            }
        },
        {
            "shape_block": {
                "x": 20,
                "y": 3,
                "id": 4,
                "rotation": 0,
                "reflected": false
            }
        }
    ],
    "dynamic_objects": [
        {
            "bouncy": {
                "x": 1,
                "y": 16,
                "id": "main_car"
            }
        },
        {
            "bouncy": {
                "x": 5,
                "y": 16,
                "id": "1"
            }
        },
        {
            "bouncy": {
                "x": 9,
                "y": 16,
                "id": "2"
            }
        },
        {
            "bouncy": {
                "x": 13,
                "y": 16,
                "id": "3"
            }
        },
        {
            "bouncy": {
                "x": -3.0000000000000004,
                "y": 16,
                "id": "4"
            }
        },
        {
            "ball": {
                "x": 1,
                "y": 13,
                "id": "X"
            }
        },
        {
            "ball": {
                "x": 9,
                "y": 13,
                "id": "Z"
            }
        },
        {
            "ball": {
                "x": 5,
                "y": 13,
                "id": "Y"
            }
        }
    ]
}
