{
    "name": "Swindle",
    "author_nickname": "Tom",
    "notes": "Getting around the block isn't as big an issue as it at first seems",
    "hint1": "",
    "hint2": "",
    "hint3": "",
    "discussion_id": "326",
    "discussion_slug": "326-swindle",
    "highlight_notes": false,
    "effects": {
        "wind": 30
    },
    "zoom": {
        "w": 30.729200403612904,
        "x": -0.6196141074576779,
        "y": -2.183368204614482
    },
    "shapes": [
        {
            "id": 4,
            "number": -1
        }
    ],
    "win_conditions": [
        {
            "bodyEnteredArea": [
                {
                    "RECT": [
                        {
                            "x": 9,
                            "y": 17
                        },
                        {
                            "x": 11,
                            "y": 19
                        }
                    ]
                },
                "main_car"
            ]
        }
    ],
    "lose_conditions": [
        {
            "greaterThan": [
                "time",
                2000
            ]
        }
    ],
    "blocks": [
        {
            "static_block": {
                "x": 3,
                "y": 19,
                "w": 14,
                "h": 2
            }
        },
        {
            "static_block": {
                "x": 3,
                "y": -3,
                "w": 2,
                "h": 8
            }
        },
        {
            "static_block": {
                "x": 3,
                "y": 12,
                "w": 2,
                "h": 7
            }
        },
        {
            "static_block": {
                "x": 15,
                "y": 12,
                "w": 2,
                "h": 7
            }
        },
        {
            "static_block": {
                "x": 9,
                "y": 13,
                "w": 2,
                "h": 2
            }
        },
        {
            "static_block": {
                "x": 15,
                "y": -3,
                "w": 2,
                "h": 8
            }
        }
    ],
    "dynamic_objects": [
        {
            "ball": {
                "x": 10,
                "y": -1,
                "id": "main_car"
            }
        }
    ]
}