{
    "name": "Three At Once",
    "author_nickname": "Tom",
    "notes": "Get all three balls into their zones at once!",
    "hint1": "The middle ball should bounce just once.",
    "hint2": "Build a tower to bounce the middle ball.",
    "hint3": "Push the edge balls up and down using overlapping blocks.",
    "discussion_id": "200",
    "discussion_slug": "200-three-at-once",
    "highlight_notes": false,
    "effects": {},
    "zoom": {
        "x": 0,
        "y": 0,
        "w": 29
    },
    "shapes": [
        {
            "id": 0,
            "number": 2
        },
        {
            "id": 1,
            "number": 2
        },
        {
            "id": 2,
            "number": 2
        },
        {
            "id": 3,
            "number": 2
        },
        {
            "id": 4,
            "number": 2
        }
    ],
    "win_conditions": [
        {
            "and": [
                {
                    "bodyEnteredArea": [
                        {
                            "RECT": [
                                {
                                    "x": 7,
                                    "y": 5
                                },
                                {
                                    "x": 11,
                                    "y": 9
                                }
                            ]
                        },
                        "1"
                    ]
                },
                {
                    "bodyEnteredArea": [
                        {
                            "RECT": [
                                {
                                    "x": -2,
                                    "y": 8
                                },
                                {
                                    "x": 2,
                                    "y": 12
                                }
                            ]
                        },
                        "main_car"
                    ]
                },
                {
                    "bodyEnteredArea": [
                        {
                            "RECT": [
                                {
                                    "x": 16,
                                    "y": 13
                                },
                                {
                                    "x": 20,
                                    "y": 17
                                }
                            ]
                        },
                        "2"
                    ]
                }
            ]
        }
    ],
    "lose_conditions": [
        {
            "greaterThan": [
                "time",
                10000
            ]
        }
    ],
    "blocks": [
        {
            "static_block": {
                "x": -5,
                "y": 22,
                "w": 31,
                "h": 3
            }
        },
        {
            "static_block": {
                "x": 15,
                "y": 22,
                "w": 2,
                "h": 2
            }
        }
    ],
    "dynamic_objects": [
        {
            "ball": {
                "x": 0,
                "y": 1,
                "id": "main_car"
            }
        },
        {
            "ball": {
                "x": 9,
                "y": 1,
                "id": "1"
            }
        },
        {
            "ball": {
                "x": 18,
                "y": 1,
                "id": "2"
            }
        }
    ]
}
