{
    "name": "Tunnel Vision ",
    "author_nickname": "Tom",
    "notes": "Try not to be too focused on one goal ;-)",
    "hint1": "The car can't fit through the tunnel.",
    "hint2": "Sometimes there is more than one goal on a level.",
    "hint3": "Scroll down and left from the car.",
    "discussion_id": "215",
    "discussion_slug": "215-tunnel-vision",
    "highlight_notes": false,
    "effects": {},
    "zoom": {
        "x": 0,
        "y": 0,
        "w": 23
    },
    "shapes": [
        {
            "id": 0,
            "number": -1
        },
        {
            "id": 1,
            "number": -1
        },
        {
            "id": 2,
            "number": -1
        },
        {
            "id": 3,
            "number": -1
        },
        {
            "id": 4,
            "number": -1
        }
    ],
    "win_conditions": [
        {
            "bodyEnteredArea": [
                {
                    "RECT": [
                        {
                            "x": 16,
                            "y": 11
                        },
                        {
                            "x": 19,
                            "y": 14
                        }
                    ]
                },
                "main_car"
            ]
        },
        {
            "bodyEnteredArea": [
                {
                    "RECT": [
                        {
                            "x": -10,
                            "y": 20
                        },
                        {
                            "x": -6,
                            "y": 24
                        }
                    ]
                },
                "main_car"
            ]
        }
    ],
    "lose_conditions": [
        {
            "greaterThan": [
                "time",
                20000
            ]
        }
    ],
    "blocks": [
        {
            "static_block": {
                "x": 2,
                "y": 14,
                "w": 17,
                "h": 2
            }
        },
        {
            "static_block": {
                "x": 8,
                "y": -21,
                "w": 7,
                "h": 32
            }
        },
        {
            "static_block": {
                "x": 11,
                "y": 13,
                "w": 1,
                "h": 2
            }
        },
        {
            "static_block": {
                "x": 11,
                "y": 11,
                "w": 1,
                "h": 1
            }
        }
    ],
    "dynamic_objects": [
        {
            "simple_car": {
                "x": 4,
                "y": 11,
                "id": "main_car"
            }
        }
    ]
}
