{
    "name": "Nudge Block",
    "author_nickname": "AndyB",
    "notes": "Nudge the block off the edge.",
    "hint1": "Maybe don't use the ball?",
    "hint2": "Try to tip something over to push the yellow block.",
    "hint3": "",
    "discussion_id": "222",
    "discussion_slug": "222-nudge-block",
    "highlight_notes": false,
    "effects": {},
    "zoom": {
        "w": 28.799999999999997,
        "x": 1.9600748936170234,
        "y": -8.801729361702126
    },
    "shapes": [
        {
            "id": 0,
            "number": -1
        },
        {
            "id": 1,
            "number": -1
        },
        {
            "id": 2,
            "number": -1
        },
        {
            "id": 3,
            "number": -1
        },
        {
            "id": 4,
            "number": -1
        }
    ],
    "win_conditions": [
        {
            "bodyEnteredArea": [
                {
                    "RECT": [
                        {
                            "x": 2,
                            "y": 12
                        },
                        {
                            "x": 4,
                            "y": 14
                        }
                    ]
                },
                "main_car"
            ]
        }
    ],
    "lose_conditions": [
        {
            "greaterThan": [
                "time",
                10000
            ]
        }
    ],
    "blocks": [
        {
            "static_block": {
                "x": 4,
                "y": 13,
                "w": 14,
                "h": 1
            }
        },
        {
            "static_block": {
                "x": 4,
                "y": 10,
                "w": 4,
                "h": 1
            }
        },
        {
            "shape_block": {
                "x": 7,
                "y": 12,
                "id": 3,
                "rotation": 180,
                "reflected": false
            }
        },
        {
            "shape_block": {
                "x": 16,
                "y": 11,
                "id": 0,
                "rotation": 90,
                "reflected": true
            }
        },
        {
            "shape_block": {
                "x": 16,
                "y": 8,
                "id": 0,
                "rotation": 90,
                "reflected": true
            }
        },
        {
            "shape_block": {
                "x": 16,
                "y": 5,
                "id": 0,
                "rotation": 90,
                "reflected": true
            }
        },
        {
            "shape_block": {
                "x": 13,
                "y": 7,
                "id": 3,
                "rotation": 180,
                "reflected": true
            }
        },
        {
            "shape_block": {
                "x": 11,
                "y": 7,
                "id": 3,
                "rotation": 180,
                "reflected": true
            }
        },
        {
            "shape_block": {
                "x": 10,
                "y": 7,
                "id": 4,
                "rotation": 0,
                "reflected": true
            }
        },
        {
            "shape_block": {
                "x": 16,
                "y": 2,
                "id": 2,
                "rotation": 0,
                "reflected": true
            }
        },
        {
            "shape_block": {
                "x": 16,
                "y": 0,
                "id": 2,
                "rotation": 0,
                "reflected": true
            }
        },
        {
            "shape_block": {
                "x": 16,
                "y": -2,
                "id": 2,
                "rotation": 0,
                "reflected": true
            }
        }
    ],
    "dynamic_objects": [
        {
            "ball": {
                "x": 15,
                "y": -7,
                "id": "1"
            }
        },
        {
            "box": {
                "x": 5,
                "y": 12,
                "id": "main_car"
            }
        }
    ]
}