{
    "name": "Give It Some Welly",
    "author_nickname": "Tom",
    "notes": "Kick the ball into the green square!",
    "hint1": "Hook up the boot so it swings around instead of falling down.",
    "hint2": "You may need a 'rope' of connected slope blocks.",
    "hint3": "Build a ramp at the bottom to guide the ball.",
    "discussion_id": "250",
    "discussion_slug": "250-give-it-some-welly",
    "highlight_notes": false,
    "effects": {},
    "zoom": {
        "w": 34.559999999999995,
        "x": 4.3959771428571575,
        "y": -5.93225142857141
    },
    "shapes": [
        {
            "id": 0,
            "number": 1
        },
        {
            "id": 1,
            "number": 1
        },
        {
            "id": 2,
            "number": 1
        },
        {
            "id": 3,
            "number": 3
        },
        {
            "id": 4,
            "number": 6
        }
    ],
    "win_conditions": [
        {
            "bodyEnteredArea": [
                {
                    "RECT": [
                        {
                            "x": 27,
                            "y": 9
                        },
                        {
                            "x": 29,
                            "y": 11
                        }
                    ]
                },
                "main_car"
            ]
        }
    ],
    "lose_conditions": [
        {
            "greaterThan": [
                "time",
                10000
            ]
        }
    ],
    "blocks": [
        {
            "static_block": {
                "x": 4,
                "y": 18,
                "w": 14,
                "h": 1
            }
        },
        {
            "shape_block": {
                "x": 6,
                "y": 5,
                "id": 0,
                "rotation": 270,
                "reflected": true
            }
        },
        {
            "shape_block": {
                "x": 7,
                "y": 7,
                "id": 0,
                "rotation": 180,
                "reflected": true
            }
        },
        {
            "static_block": {
                "x": 20,
                "y": 2,
                "w": 2,
                "h": 2
            }
        },
        {
            "static_block": {
                "x": 23,
                "y": 2,
                "w": 2,
                "h": 2
            }
        },
        {
            "static_block": {
                "x": 20,
                "y": -1,
                "w": 2,
                "h": 2
            }
        },
        {
            "static_block": {
                "x": 23,
                "y": -1,
                "w": 2,
                "h": 2
            }
        },
        {
            "static_block": {
                "x": 16,
                "y": 20,
                "w": 2,
                "h": 1
            }
        },
        {
            "static_block": {
                "x": 4,
                "y": 20,
                "w": 2,
                "h": 1
            }
        },
        {
            "shape_block": {
                "x": 6,
                "y": 2,
                "id": 0,
                "rotation": 270,
                "reflected": false
            }
        },
        {
            "shape_block": {
                "x": 8,
                "y": 5,
                "id": 0,
                "rotation": 180,
                "reflected": true
            }
        },
        {
            "shape_block": {
                "x": 7,
                "y": 3,
                "id": 0,
                "rotation": 270,
                "reflected": true
            }
        },
        {
            "shape_block": {
                "x": 8,
                "y": 2,
                "id": 0,
                "rotation": 270,
                "reflected": false
            }
        },
        {
            "shape_block": {
                "x": 10,
                "y": 2,
                "id": 0,
                "rotation": 0,
                "reflected": true
            }
        },
        {
            "shape_block": {
                "x": 11,
                "y": 4,
                "id": 0,
                "rotation": 180,
                "reflected": false
            }
        },
        {
            "shape_block": {
                "x": 11,
                "y": 1,
                "id": 0,
                "rotation": 0,
                "reflected": false
            }
        },
        {
            "shape_block": {
                "x": 12,
                "y": 3,
                "id": 0,
                "rotation": 0,
                "reflected": false
            }
        },
        {
            "shape_block": {
                "x": 14,
                "y": 1,
                "id": 0,
                "rotation": 0,
                "reflected": true
            }
        },
        {
            "shape_block": {
                "x": 15,
                "y": 3,
                "id": 0,
                "rotation": 90,
                "reflected": false
            }
        },
        {
            "shape_block": {
                "x": 14,
                "y": 2,
                "id": 3,
                "rotation": 90,
                "reflected": false
            }
        },
        {
            "shape_block": {
                "x": 16,
                "y": 3,
                "id": 3,
                "rotation": 90,
                "reflected": false
            }
        },
        {
            "shape_block": {
                "x": 16,
                "y": 1,
                "id": 3,
                "rotation": 90,
                "reflected": false
            }
        },
        {
            "shape_block": {
                "x": 22,
                "y": 1,
                "id": 1,
                "rotation": 270,
                "reflected": false
            }
        },
        {
            "shape_block": {
                "x": 20,
                "y": 1,
                "id": 3,
                "rotation": 180,
                "reflected": true
            }
        },
        {
            "shape_block": {
                "x": 17,
                "y": 3,
                "id": 3,
                "rotation": 270,
                "reflected": true
            }
        },
        {
            "shape_block": {
                "x": 19,
                "y": 1,
                "id": 4,
                "rotation": 0,
                "reflected": true
            }
        },
        {
            "shape_block": {
                "x": 18,
                "y": 2,
                "id": 4,
                "rotation": 0,
                "reflected": true
            }
        },
        {
            "shape_block": {
                "x": 19,
                "y": 2,
                "id": 4,
                "rotation": 180,
                "reflected": true
            }
        },
        {
            "shape_block": {
                "x": 18,
                "y": 3,
                "id": 4,
                "rotation": 180,
                "reflected": true
            }
        },
        {
            "shape_block": {
                "x": 16,
                "y": 19,
                "id": 0,
                "rotation": 0,
                "reflected": true
            }
        },
        {
            "shape_block": {
                "x": 20,
                "y": 18,
                "id": 3,
                "rotation": 90,
                "reflected": true
            }
        },
        {
            "shape_block": {
                "x": 19,
                "y": 19,
                "id": 2,
                "rotation": 90,
                "reflected": true
            }
        },
        {
            "shape_block": {
                "x": 19,
                "y": 17,
                "id": 4,
                "rotation": 270,
                "reflected": false
            }
        },
        {
            "shape_block": {
                "x": 20,
                "y": 16,
                "id": 4,
                "rotation": 270,
                "reflected": false
            }
        }
    ],
    "dynamic_objects": [
        {
            "ball": {
                "x": 14,
                "y": 16,
                "id": "main_car"
            }
        }
    ]
}
