{
    "name": "Piano String",
    "author_nickname": "AndyB",
    "notes": "Prestissimo!",
    "hint1": "Extend the piano left and turn it into a huge lever to flip the ball upwards.",
    "hint2": "Drop heavy stuff on the right of the piano to make the lever work.",
    "hint3": "Bounce the ball left at the start to get onto the end of the lever.",
    "discussion_id": "265",
    "discussion_slug": "265-piano-string",
    "highlight_notes": false,
    "effects": {},
    "zoom": {
        "w": 50.00000000000001,
        "x": 4.946638207043758,
        "y": -2.0811099252934895
    },
    "shapes": [
        {
            "id": 0,
            "number": -1
        },
        {
            "id": 1,
            "number": -1
        },
        {
            "id": 2,
            "number": -1
        },
        {
            "id": 3,
            "number": -1
        },
        {
            "id": 4,
            "number": -1
        }
    ],
    "win_conditions": [
        {
            "bodyEnteredArea": [
                {
                    "RECT": [
                        {
                            "x": 2,
                            "y": -5
                        },
                        {
                            "x": 31,
                            "y": -3
                        }
                    ]
                },
                "main_car"
            ]
        }
    ],
    "lose_conditions": [
        {
            "greaterThan": [
                "time",
                20000
            ]
        }
    ],
    "blocks": [
        {
            "shape_block": {
                "x": 5,
                "y": 14,
                "id": 0,
                "rotation": 90,
                "reflected": false
            }
        },
        {
            "shape_block": {
                "x": 7,
                "y": 14,
                "id": 0,
                "rotation": 90,
                "reflected": false
            }
        },
        {
            "shape_block": {
                "x": 11,
                "y": 14,
                "id": 0,
                "rotation": 90,
                "reflected": false
            }
        },
        {
            "shape_block": {
                "x": 13,
                "y": 14,
                "id": 0,
                "rotation": 90,
                "reflected": false
            }
        },
        {
            "shape_block": {
                "x": 15,
                "y": 14,
                "id": 0,
                "rotation": 90,
                "reflected": false
            }
        },
        {
            "shape_block": {
                "x": 8,
                "y": 16,
                "id": 0,
                "rotation": 270,
                "reflected": false
            }
        },
        {
            "shape_block": {
                "x": 16,
                "y": 16,
                "id": 0,
                "rotation": 270,
                "reflected": false
            }
        },
        {
            "shape_block": {
                "x": 19,
                "y": 14,
                "id": 0,
                "rotation": 90,
                "reflected": false
            }
        },
        {
            "shape_block": {
                "x": 21,
                "y": 14,
                "id": 0,
                "rotation": 90,
                "reflected": false
            }
        },
        {
            "shape_block": {
                "x": 22,
                "y": 16,
                "id": 0,
                "rotation": 270,
                "reflected": false
            }
        },
        {
            "shape_block": {
                "x": 25,
                "y": 14,
                "id": 0,
                "rotation": 90,
                "reflected": false
            }
        },
        {
            "shape_block": {
                "x": 27,
                "y": 14,
                "id": 0,
                "rotation": 90,
                "reflected": false
            }
        },
        {
            "shape_block": {
                "x": 29,
                "y": 14,
                "id": 0,
                "rotation": 90,
                "reflected": false
            }
        },
        {
            "shape_block": {
                "x": 30,
                "y": 16,
                "id": 0,
                "rotation": 270,
                "reflected": false
            }
        },
        {
            "shape_block": {
                "x": 2,
                "y": 16,
                "id": 0,
                "rotation": 270,
                "reflected": false
            }
        },
        {
            "static_block": {
                "x": 2,
                "y": 18,
                "w": 1,
                "h": 1
            }
        },
        {
            "static_block": {
                "x": 30,
                "y": 18,
                "w": 1,
                "h": 1
            }
        },
        {
            "shape_block": {
                "x": 0,
                "y": 15,
                "id": 0,
                "rotation": 0,
                "reflected": false
            }
        },
        {
            "shape_block": {
                "x": -3,
                "y": 15,
                "id": 0,
                "rotation": 0,
                "reflected": false
            }
        },
        {
            "shape_block": {
                "x": -6,
                "y": 15,
                "id": 0,
                "rotation": 0,
                "reflected": false
            }
        },
        {
            "shape_block": {
                "x": -9,
                "y": 15,
                "id": 0,
                "rotation": 0,
                "reflected": false
            }
        },
        {
            "shape_block": {
                "x": -12,
                "y": 15,
                "id": 0,
                "rotation": 0,
                "reflected": false
            }
        },
        {
            "shape_block": {
                "x": -18,
                "y": 15,
                "id": 0,
                "rotation": 180,
                "reflected": false
            }
        },
        {
            "shape_block": {
                "x": 21,
                "y": -17,
                "id": 2,
                "rotation": 180,
                "reflected": false
            }
        },
        {
            "shape_block": {
                "x": 19,
                "y": -17,
                "id": 2,
                "rotation": 180,
                "reflected": false
            }
        },
        {
            "shape_block": {
                "x": 17,
                "y": -17,
                "id": 2,
                "rotation": 180,
                "reflected": false
            }
        },
        {
            "shape_block": {
                "x": 17,
                "y": -15,
                "id": 2,
                "rotation": 180,
                "reflected": false
            }
        },
        {
            "shape_block": {
                "x": 19,
                "y": -15,
                "id": 2,
                "rotation": 180,
                "reflected": false
            }
        },
        {
            "shape_block": {
                "x": 21,
                "y": -15,
                "id": 2,
                "rotation": 180,
                "reflected": false
            }
        },
        {
            "shape_block": {
                "x": 21,
                "y": -13,
                "id": 2,
                "rotation": 180,
                "reflected": false
            }
        },
        {
            "shape_block": {
                "x": 19,
                "y": -13,
                "id": 2,
                "rotation": 180,
                "reflected": false
            }
        },
        {
            "shape_block": {
                "x": 17,
                "y": -13,
                "id": 2,
                "rotation": 180,
                "reflected": false
            }
        },
        {
            "shape_block": {
                "x": 3,
                "y": 9,
                "id": 4,
                "rotation": 270,
                "reflected": false
            }
        },
        {
            "shape_block": {
                "x": 2,
                "y": 10,
                "id": 4,
                "rotation": 270,
                "reflected": false
            }
        },
        {
            "shape_block": {
                "x": 3,
                "y": 11,
                "id": 1,
                "rotation": 90,
                "reflected": false
            }
        },
        {
            "shape_block": {
                "x": 2,
                "y": 13,
                "id": 1,
                "rotation": 270,
                "reflected": false
            }
        },
        {
            "shape_block": {
                "x": 4,
                "y": 16,
                "id": 0,
                "rotation": 0,
                "reflected": false
            }
        },
        {
            "shape_block": {
                "x": 6,
                "y": 17,
                "id": 0,
                "rotation": 270,
                "reflected": false
            }
        },
        {
            "shape_block": {
                "x": 10,
                "y": 16,
                "id": 0,
                "rotation": 0,
                "reflected": false
            }
        },
        {
            "shape_block": {
                "x": 13,
                "y": 16,
                "id": 0,
                "rotation": 0,
                "reflected": true
            }
        },
        {
            "shape_block": {
                "x": 18,
                "y": 16,
                "id": 0,
                "rotation": 0,
                "reflected": true
            }
        },
        {
            "shape_block": {
                "x": 15,
                "y": 17,
                "id": 0,
                "rotation": 270,
                "reflected": true
            }
        },
        {
            "shape_block": {
                "x": -15,
                "y": 15,
                "id": 0,
                "rotation": 0,
                "reflected": true
            }
        }
    ],
    "dynamic_objects": [
        {
            "ball": {
                "x": 3,
                "y": 8,
                "id": "main_car"
            }
        }
    ]
}
