{
    "name": "Basketanvil",
    "author_nickname": "Ray 'BLJ' Duck",
    "notes": "Bounce the anvil into the win area.",
    "hint1": "Use green T blocks as springs.",
    "hint2": "Build a tower of green blocks under the anvil, with a slope on top to direct it.",
    "hint3": " Build more blocks to the right to sproing it further.",
    "discussion_id": "113",
    "discussion_slug": "113-basketanvil",
    "highlight_notes": false,
    "effects": {},
    "zoom": {
        "x": 0,
        "y": 0,
        "w": 20
    },
    "shapes": [
        {
            "id": 0,
            "number": -1
        },
        {
            "id": 1,
            "number": -1
        },
        {
            "id": 2,
            "number": -1
        },
        {
            "id": 3,
            "number": -1
        },
        {
            "id": 4,
            "number": -1
        }
    ],
    "win_conditions": [
        {
            "bodyEnteredArea": [
                {
                    "RECT": [
                        {
                            "x": 1,
                            "y": 10
                        },
                        {
                            "x": 7,
                            "y": 12
                        }
                    ]
                },
                "main_car"
            ]
        }
    ],
    "lose_conditions": [
        {
            "greaterThan": [
                "time",
                5000
            ]
        }
    ],
    "blocks": [
        {
            "static_block": {
                "x": 0,
                "y": 18,
                "w": 20,
                "h": 2
            }
        },
        {
            "static_block": {
                "x": 9,
                "y": 2,
                "w": 1,
                "h": 5
            }
        },
        {
            "shape_block": {
                "x": 6,
                "y": 13,
                "id": 1,
                "rotation": 0,
                "reflected": false
            }
        },
        {
            "shape_block": {
                "x": 9,
                "y": 13,
                "id": 1,
                "rotation": 0,
                "reflected": false
            }
        },
        {
            "shape_block": {
                "x": 9,
                "y": 15,
                "id": 1,
                "rotation": 0,
                "reflected": false
            }
        },
        {
            "shape_block": {
                "x": 6,
                "y": 15,
                "id": 1,
                "rotation": 0,
                "reflected": false
            }
        },
        {
            "shape_block": {
                "x": 5,
                "y": 17,
                "id": 3,
                "rotation": 0,
                "reflected": false
            }
        },
        {
            "shape_block": {
                "x": 7,
                "y": 17,
                "id": 3,
                "rotation": 0,
                "reflected": false
            }
        },
        {
            "shape_block": {
                "x": 9,
                "y": 17,
                "id": 3,
                "rotation": 0,
                "reflected": false
            }
        },
        {
            "shape_block": {
                "x": 13,
                "y": 12,
                "id": 1,
                "rotation": 0,
                "reflected": false
            }
        },
        {
            "shape_block": {
                "x": 13,
                "y": 10,
                "id": 1,
                "rotation": 0,
                "reflected": false
            }
        },
        {
            "shape_block": {
                "x": 13,
                "y": 8,
                "id": 1,
                "rotation": 0,
                "reflected": false
            }
        },
        {
            "shape_block": {
                "x": 13,
                "y": 7,
                "id": 4,
                "rotation": 0,
                "reflected": true
            }
        },
        {
            "shape_block": {
                "x": 9,
                "y": 12,
                "id": 4,
                "rotation": 0,
                "reflected": true
            }
        }
    ],
    "dynamic_objects": [
        {
            "anvil": {
                "x": 13,
                "y": 3,
                "id": "main_car"
            }
        }
    ]
}
