{
    "name": "Underground Car Park",
    "author_nickname": "Tom",
    "notes": "Leave your car in the underground car park.",
    "hint1": "Reverse the car off the top level.",
    "hint2": "Build a ramp down to the basement.",
    "hint3": "Build around the outside (on the left) to make a road for your car.",
    "discussion_id": "152",
    "discussion_slug": "152-underground-car-park",
    "highlight_notes": false,
    "effects": {},
    "zoom": {
        "x": 0,
        "y": 0,
        "w": 30
    },
    "shapes": [
        {
            "id": 0,
            "number": -1
        },
        {
            "id": 1,
            "number": -1
        },
        {
            "id": 2,
            "number": -1
        },
        {
            "id": 3,
            "number": -1
        },
        {
            "id": 4,
            "number": -1
        }
    ],
    "win_conditions": [
        {
            "bodyEnteredArea": [
                {
                    "RECT": [
                        {
                            "x": 8,
                            "y": 11
                        },
                        {
                            "x": 11,
                            "y": 13
                        }
                    ]
                },
                "main_car"
            ]
        }
    ],
    "lose_conditions": [
        {
            "greaterThan": [
                "time",
                20000
            ]
        }
    ],
    "blocks": [
        {
            "static_block": {
                "x": 2,
                "y": 9,
                "w": 15,
                "h": 2
            }
        },
        {
            "static_block": {
                "x": 8,
                "y": 13,
                "w": 3,
                "h": 2
            }
        }
    ],
    "dynamic_objects": [
        {
            "simple_car": {
                "x": 4,
                "y": 4.999999999999999,
                "id": "main_car"
            }
        }
    ]
}
