{
    "name": "Understairs Cupboard",
    "author_nickname": "AndyB",
    "notes": "This one has to be a little different.",
    "hint1": "Build a great big thingy to guide the ball around the back.",
    "hint2": "It's best to go to the left and round.",
    "hint3": "Hook your structure on the ground on the right and build it all the way up and over the left.",
    "discussion_id": "162",
    "discussion_slug": "162-understairs-cupboard",
    "highlight_notes": false,
    "effects": {},
    "zoom": {
        "x": 0,
        "y": 0,
        "w": 20
    },
    "shapes": [
        {
            "id": 0,
            "number": -1
        },
        {
            "id": 4,
            "number": 4
        }
    ],
    "win_conditions": [
        {
            "bodyEnteredArea": [
                {
                    "RECT": [
                        {
                            "x": 9,
                            "y": 17
                        },
                        {
                            "x": 11,
                            "y": 19
                        }
                    ]
                },
                "main_car"
            ]
        }
    ],
    "lose_conditions": [
        {
            "greaterThan": [
                "time",
                10000
            ]
        }
    ],
    "blocks": [
        {
            "static_block": {
                "x": 5,
                "y": 11,
                "w": 2,
                "h": 2
            }
        },
        {
            "static_block": {
                "x": 11,
                "y": 17,
                "w": 2,
                "h": 2
            }
        },
        {
            "static_block": {
                "x": 13,
                "y": 19,
                "w": 4,
                "h": 1
            }
        },
        {
            "static_block": {
                "x": 9,
                "y": 15,
                "w": 2,
                "h": 2
            }
        },
        {
            "static_block": {
                "x": 7,
                "y": 13,
                "w": 2,
                "h": 2
            }
        },
        {
            "shape_block": {
                "x": 8,
                "y": 8,
                "id": 0,
                "rotation": 270,
                "reflected": false
            }
        },
        {
            "shape_block": {
                "x": 6,
                "y": 7,
                "id": 0,
                "rotation": 180,
                "reflected": false
            }
        },
        {
            "shape_block": {
                "x": 3,
                "y": 7,
                "id": 0,
                "rotation": 180,
                "reflected": false
            }
        },
        {
            "shape_block": {
                "x": 2,
                "y": 9,
                "id": 0,
                "rotation": 90,
                "reflected": false
            }
        },
        {
            "shape_block": {
                "x": 2,
                "y": 12,
                "id": 0,
                "rotation": 90,
                "reflected": false
            }
        },
        {
            "shape_block": {
                "x": 2,
                "y": 15,
                "id": 0,
                "rotation": 90,
                "reflected": false
            }
        },
        {
            "shape_block": {
                "x": 8,
                "y": 19,
                "id": 0,
                "rotation": 0,
                "reflected": false
            }
        },
        {
            "shape_block": {
                "x": 5,
                "y": 19,
                "id": 0,
                "rotation": 0,
                "reflected": false
            }
        },
        {
            "shape_block": {
                "x": 2,
                "y": 18,
                "id": 0,
                "rotation": 270,
                "reflected": true
            }
        },
        {
            "shape_block": {
                "x": 11,
                "y": 19,
                "id": 0,
                "rotation": 0,
                "reflected": true
            }
        },
        {
            "shape_block": {
                "x": 9,
                "y": 10,
                "id": 0,
                "rotation": 180,
                "reflected": true
            }
        },
        {
            "shape_block": {
                "x": 3,
                "y": 18,
                "id": 4,
                "rotation": 90,
                "reflected": true
            }
        },
        {
            "shape_block": {
                "x": 8,
                "y": 12,
                "id": 0,
                "rotation": 180,
                "reflected": true
            }
        }
    ],
    "dynamic_objects": [
        {
            "ball": {
                "x": 7,
                "y": 10,
                "id": "main_car"
            }
        }
    ]
}
