{
    "name": "dump right but harderer",
    "author_nickname": "TBE",
    "notes": "This time you're trying to get the balloon plaform into the green!",
    "hint1": "Pull the platform rightwards with some structure.",
    "hint2": "Build a long unwieldy swinging arm up to the right from the platform. Hopefully it will swing over far enough.",
    "hint3": "",
    "discussion_id": "184",
    "discussion_slug": "184-dump-right-but-harder",
    "highlight_notes": false,
    "effects": {},
    "zoom": {
        "x": 0,
        "y": 0,
        "w": 60
    },
    "shapes": [
        {
            "id": 0,
            "number": -1
        },
        {
            "id": 1,
            "number": -1
        },
        {
            "id": 2,
            "number": -1
        },
        {
            "id": 3,
            "number": -1
        },
        {
            "id": 4,
            "number": -1
        }
    ],
    "win_conditions": [
        {
            "bodyEnteredArea": [
                {
                    "RECT": [
                        {
                            "x": 11,
                            "y": 12
                        },
                        {
                            "x": 16,
                            "y": 16
                        }
                    ]
                },
                "main_car"
            ]
        }
    ],
    "lose_conditions": [],
    "blocks": [
        {
            "shape_block": {
                "x": 10,
                "y": 6,
                "id": 0,
                "rotation": 180,
                "reflected": true
            }
        },
        {
            "shape_block": {
                "x": 11,
                "y": 3,
                "id": 0,
                "rotation": 90,
                "reflected": true
            }
        },
        {
            "shape_block": {
                "x": 25,
                "y": 2,
                "id": 0,
                "rotation": 0,
                "reflected": false
            }
        },
        {
            "shape_block": {
                "x": 13,
                "y": 2,
                "id": 0,
                "rotation": 0,
                "reflected": false
            }
        },
        {
            "shape_block": {
                "x": 22,
                "y": 2,
                "id": 0,
                "rotation": 0,
                "reflected": false
            }
        },
        {
            "shape_block": {
                "x": 16,
                "y": 2,
                "id": 0,
                "rotation": 0,
                "reflected": false
            }
        },
        {
            "shape_block": {
                "x": 28,
                "y": 2,
                "id": 0,
                "rotation": 0,
                "reflected": false
            }
        },
        {
            "shape_block": {
                "x": 19,
                "y": 2,
                "id": 0,
                "rotation": 0,
                "reflected": false
            }
        }
    ],
    "dynamic_objects": [
        {
            "floating": {
                "x": 9,
                "y": 7,
                "id": "main_car"
            }
        },
        {
            "bouncy": {
                "x": 9,
                "y": 4,
                "id": "1"
            }
        }
    ]
}
