{
    "name": "Alley-oop!",
    "author_nickname": "Tom",
    "notes": "Get the ball into the bucket.",
    "hint1": "One way is to fling the ball in through the top hole.",
    "hint2": "Make a catapult with a heavy weight hanging out of the bottom of the level.",
    "hint3": "Ropes of chained slope blocks may help you build a catapult.",
    "discussion_id": "196",
    "discussion_slug": "196-alley-oop",
    "highlight_notes": false,
    "effects": {},
    "zoom": {
        "x": 0,
        "y": 0,
        "w": 26
    },
    "shapes": [
        {
            "id": 0,
            "number": -1
        },
        {
            "id": 1,
            "number": -1
        },
        {
            "id": 2,
            "number": -1
        },
        {
            "id": 3,
            "number": -1
        },
        {
            "id": 4,
            "number": -1
        }
    ],
    "win_conditions": [
        {
            "bodyEnteredArea": [
                {
                    "RECT": [
                        {
                            "x": 17,
                            "y": 18
                        },
                        {
                            "x": 20,
                            "y": 21
                        }
                    ]
                },
                "main_car"
            ]
        }
    ],
    "lose_conditions": [],
    "blocks": [
        {
            "static_block": {
                "x": 14,
                "y": 16,
                "w": 2,
                "h": 6
            }
        },
        {
            "static_block": {
                "x": -3,
                "y": 21,
                "w": 13,
                "h": 2
            }
        },
        {
            "static_block": {
                "x": 21,
                "y": 16,
                "w": 2,
                "h": 7
            }
        },
        {
            "static_block": {
                "x": 14,
                "y": 0,
                "w": 2,
                "h": 14
            }
        },
        {
            "static_block": {
                "x": 21,
                "y": -5,
                "w": 2,
                "h": 19
            }
        },
        {
            "shape_block": {
                "x": 14,
                "y": 14,
                "id": 2,
                "rotation": 0,
                "reflected": false
            }
        },
        {
            "shape_block": {
                "x": 21,
                "y": 14,
                "id": 2,
                "rotation": 0,
                "reflected": false
            }
        },
        {
            "static_block": {
                "x": 14,
                "y": 21,
                "w": 9,
                "h": 2
            }
        }
    ],
    "dynamic_objects": [
        {
            "ball": {
                "x": 1,
                "y": 15,
                "id": "main_car"
            }
        }
    ]
}
