{
    "name": "Shape Sorter",
    "author_nickname": "Tom",
    "notes": "Fill in the holes to get the car to the green area.",
    "hint1": "A carefully-dropped green block can bounce the car to the left. THe car should finish upright on the bottom platform.",
    "hint2": "The ball gets you over the first hole. A red and a slope should get you over the second, and one square higher.",
    "hint3": "Use the blue and yellow to fill the last 2 holes. To get over the blue you need to be high, which is why we needed to get higher in the previous step.",
    "discussion_id": "330",
    "discussion_slug": "330-shape-sorter",
    "highlight_notes": false,
    "effects": {},
    "zoom": {
        "w": 31.1779895708065,
        "x": 4.597262138063476,
        "y": -0.44710180474776823
    },
    "shapes": [
        {
            "id": 0,
            "number": 1
        },
        {
            "id": 1,
            "number": 1
        },
        {
            "id": 2,
            "number": 1
        },
        {
            "id": 3,
            "number": 1
        },
        {
            "id": 4,
            "number": 1
        }
    ],
    "win_conditions": [
        {
            "bodyEnteredArea": [
                {
                    "RECT": [
                        {
                            "x": 22,
                            "y": 16
                        },
                        {
                            "x": 25,
                            "y": 19
                        }
                    ]
                },
                "main_car"
            ]
        }
    ],
    "lose_conditions": [
        {
            "greaterThan": [
                "time",
                15000
            ]
        }
    ],
    "blocks": [
        {
            "static_block": {
                "x": 1,
                "y": 21,
                "w": 25,
                "h": 1
            }
        },
        {
            "static_block": {
                "x": 9,
                "y": 19,
                "w": 1,
                "h": 2
            }
        },
        {
            "static_block": {
                "x": 13,
                "y": 19,
                "w": 1,
                "h": 2
            }
        },
        {
            "static_block": {
                "x": 1,
                "y": 19,
                "w": 6,
                "h": 2
            }
        },
        {
            "static_block": {
                "x": 17,
                "y": 19,
                "w": 1,
                "h": 1
            }
        },
        {
            "static_block": {
                "x": 5,
                "y": 15,
                "w": 21,
                "h": 1
            }
        },
        {
            "static_block": {
                "x": 20,
                "y": 19,
                "w": 1,
                "h": 1
            }
        },
        {
            "static_block": {
                "x": 22,
                "y": 19,
                "w": 3,
                "h": 1
            }
        },
        {
            "static_block": {
                "x": 25,
                "y": 16,
                "w": 1,
                "h": 5
            }
        },
        {
            "static_block": {
                "x": 18,
                "y": 20,
                "w": 7,
                "h": 1
            }
        },
        {
            "shape_block": {
                "x": 21,
                "y": 19,
                "id": 4,
                "rotation": 0,
                "reflected": false
            }
        },
        {
            "static_block": {
                "x": 14,
                "y": 20,
                "w": 1,
                "h": 1
            }
        },
        {
            "static_block": {
                "x": 16,
                "y": 20,
                "w": 2,
                "h": 1
            }
        },
        {
            "static_block": {
                "x": 10,
                "y": 20,
                "w": 2,
                "h": 1
            }
        },
        {
            "static_block": {
                "x": 5,
                "y": 16,
                "w": 1,
                "h": 1
            }
        }
    ],
    "dynamic_objects": [
        {
            "simple_car": {
                "x": 7,
                "y": 14,
                "id": "main_car"
            }
        },
        {
            "ball": {
                "x": 6,
                "y": 18,
                "id": "1"
            }
        }
    ]
}
