<?xml version="1.0" encoding="UTF-8" standalone="no"?>
<!-- Created with Inkscape (http://www.inkscape.org/) -->

<svg
   width="895.67065mm"
   height="601.70465mm"
   viewBox="0 0 895.67065 601.70465"
   version="1.1"
   id="svg5"
   inkscape:version="1.1.2 (0a00cf5339, 2022-02-04)"
   sodipodi:docname="shape_1.svg"
   xmlns:inkscape="http://www.inkscape.org/namespaces/inkscape"
   xmlns:sodipodi="http://sodipodi.sourceforge.net/DTD/sodipodi-0.dtd"
   xmlns:xlink="http://www.w3.org/1999/xlink"
   xmlns="http://www.w3.org/2000/svg"
   xmlns:svg="http://www.w3.org/2000/svg">
  <sodipodi:namedview
     id="namedview7"
     pagecolor="#505050"
     bordercolor="#eeeeee"
     borderopacity="1"
     inkscape:pageshadow="0"
     inkscape:pageopacity="0"
     inkscape:pagecheckerboard="false"
     inkscape:document-units="mm"
     showgrid="false"
     width="300mm"
     inkscape:zoom="0.23702257"
     inkscape:cx="1099.0515"
     inkscape:cy="573.78502"
     inkscape:window-width="1920"
     inkscape:window-height="1025"
     inkscape:window-x="0"
     inkscape:window-y="29"
     inkscape:window-maximized="1"
     inkscape:current-layer="layer1"
     showguides="true"
     inkscape:guide-bbox="true"
     inkscape:snap-bbox="true"
     inkscape:snap-global="true"
     fit-margin-top="0"
     fit-margin-left="0"
     fit-margin-right="0"
     fit-margin-bottom="0" />
  <defs
     id="defs2">
    <linearGradient
       inkscape:collect="always"
       id="linearGradient53508">
      <stop
         style="stop-color:#419218;stop-opacity:1"
         offset="0"
         id="stop53504" />
      <stop
         style="stop-color:#63f01d;stop-opacity:1"
         offset="1"
         id="stop53506" />
    </linearGradient>
    <linearGradient
       inkscape:collect="always"
       id="linearGradient46576">
      <stop
         style="stop-color:#419218;stop-opacity:1"
         offset="0"
         id="stop46572" />
      <stop
         style="stop-color:#132d06;stop-opacity:1"
         offset="1"
         id="stop46574" />
    </linearGradient>
    <linearGradient
       inkscape:collect="always"
       id="linearGradient41620">
      <stop
         style="stop-color:#377816;stop-opacity:1"
         offset="0"
         id="stop41616" />
      <stop
         style="stop-color:#2f6713;stop-opacity:1"
         offset="1"
         id="stop41618" />
    </linearGradient>
    <linearGradient
       inkscape:collect="always"
       id="linearGradient36275">
      <stop
         style="stop-color:#377816;stop-opacity:1"
         offset="0"
         id="stop36271" />
      <stop
         style="stop-color:#4caa1d;stop-opacity:1"
         offset="1"
         id="stop36273" />
    </linearGradient>
    <linearGradient
       inkscape:collect="always"
       id="linearGradient22036">
      <stop
         style="stop-color:#5edf1e;stop-opacity:1"
         offset="0"
         id="stop22032" />
      <stop
         style="stop-color:#dffecf;stop-opacity:1"
         offset="1"
         id="stop22034" />
    </linearGradient>
    <inkscape:perspective
       sodipodi:type="inkscape:persp3d"
       inkscape:vp_x="41.848824 : 428.41454 : 1"
       inkscape:vp_y="0 : 999.99996 : 0"
       inkscape:vp_z="-162.21616 : 218.89214 : 1"
       inkscape:persp3d-origin="200 : 335.03796 : 1"
       id="perspective2245" />
    <clipPath
       clipPathUnits="userSpaceOnUse"
       id="clipPath20825">
      <rect
         style="opacity:0.392018;fill:#ffffff;fill-opacity:1;stroke:none;stroke-width:936.295;stroke-linecap:butt;stroke-linejoin:miter;stroke-miterlimit:4;stroke-dasharray:none;stroke-opacity:1;paint-order:stroke markers fill"
         id="rect20827"
         width="1106.6488"
         height="1114.7675"
         x="208.68936"
         y="236.50517" />
    </clipPath>
    <clipPath
       clipPathUnits="userSpaceOnUse"
       id="clipPath20829">
      <rect
         style="opacity:0.392018;fill:#ffffff;fill-opacity:1;stroke:none;stroke-width:247.728;stroke-linecap:butt;stroke-linejoin:miter;stroke-miterlimit:4;stroke-dasharray:none;stroke-opacity:1;paint-order:stroke markers fill"
         id="rect20831"
         width="292.80084"
         height="294.94888"
         x="55.215729"
         y="62.575329" />
    </clipPath>
    <clipPath
       clipPathUnits="userSpaceOnUse"
       id="clipPath20833">
      <rect
         style="opacity:0.392018;fill:#ffffff;fill-opacity:1;stroke:none;stroke-width:247.728;stroke-linecap:butt;stroke-linejoin:miter;stroke-miterlimit:4;stroke-dasharray:none;stroke-opacity:1;paint-order:stroke markers fill"
         id="rect20835"
         width="292.80084"
         height="294.94888"
         x="55.215729"
         y="62.575329" />
    </clipPath>
    <clipPath
       clipPathUnits="userSpaceOnUse"
       id="clipPath20837">
      <rect
         style="opacity:0.392018;fill:#ffffff;fill-opacity:1;stroke:none;stroke-width:936.295;stroke-linecap:butt;stroke-linejoin:miter;stroke-miterlimit:4;stroke-dasharray:none;stroke-opacity:1;paint-order:stroke markers fill"
         id="rect20839"
         width="1106.6488"
         height="1114.7675"
         x="208.68936"
         y="236.50517" />
    </clipPath>
    <clipPath
       clipPathUnits="userSpaceOnUse"
       id="clipPath20841">
      <rect
         style="opacity:0.392018;fill:#ffffff;fill-opacity:1;stroke:none;stroke-width:247.728;stroke-linecap:butt;stroke-linejoin:miter;stroke-miterlimit:4;stroke-dasharray:none;stroke-opacity:1;paint-order:stroke markers fill"
         id="rect20843"
         width="292.80084"
         height="294.94888"
         x="55.215729"
         y="62.575329" />
    </clipPath>
    <clipPath
       clipPathUnits="userSpaceOnUse"
       id="clipPath20845">
      <rect
         style="opacity:0.392018;fill:#ffffff;fill-opacity:1;stroke:none;stroke-width:247.728;stroke-linecap:butt;stroke-linejoin:miter;stroke-miterlimit:4;stroke-dasharray:none;stroke-opacity:1;paint-order:stroke markers fill"
         id="rect20847"
         width="292.80084"
         height="294.94888"
         x="55.215729"
         y="62.575329" />
    </clipPath>
    <clipPath
       clipPathUnits="userSpaceOnUse"
       id="clipPath20849">
      <rect
         style="opacity:0.392018;fill:#ffffff;fill-opacity:1;stroke:none;stroke-width:247.728;stroke-linecap:butt;stroke-linejoin:miter;stroke-miterlimit:4;stroke-dasharray:none;stroke-opacity:1;paint-order:stroke markers fill"
         id="rect20851"
         width="292.80084"
         height="294.94888"
         x="55.215729"
         y="62.575329"
         transform="scale(1,-1)" />
    </clipPath>
    <linearGradient
       inkscape:collect="always"
       xlink:href="#linearGradient22036"
       id="linearGradient28878"
       x1="759.35034"
       y1="246.61069"
       x2="754.31421"
       y2="437.81616"
       gradientUnits="userSpaceOnUse" />
    <linearGradient
       inkscape:collect="always"
       xlink:href="#linearGradient36275"
       id="linearGradient36277"
       x1="55.215729"
       y1="210.04977"
       x2="109.76923"
       y2="210.04977"
       gradientUnits="userSpaceOnUse" />
    <linearGradient
       inkscape:collect="always"
       xlink:href="#linearGradient41620"
       id="linearGradient41622"
       x1="1114.6938"
       y1="793.88892"
       x2="1315.3334"
       y2="793.88892"
       gradientUnits="userSpaceOnUse" />
    <linearGradient
       inkscape:collect="always"
       xlink:href="#linearGradient46576"
       id="linearGradient46578"
       x1="194.24768"
       y1="309.01398"
       x2="193.70741"
       y2="355.93658"
       gradientUnits="userSpaceOnUse" />
    <linearGradient
       inkscape:collect="always"
       xlink:href="#linearGradient53508"
       id="linearGradient53510"
       x1="199.82172"
       y1="-118.95808"
       x2="200.80431"
       y2="-303.72198"
       gradientUnits="userSpaceOnUse" />
    <clipPath
       clipPathUnits="userSpaceOnUse"
       id="clipPath20849-0">
      <rect
         style="opacity:0.392018;fill:#ffffff;fill-opacity:1;stroke:none;stroke-width:247.728;stroke-linecap:butt;stroke-linejoin:miter;stroke-miterlimit:4;stroke-dasharray:none;stroke-opacity:1;paint-order:stroke markers fill"
         id="rect20851-6"
         width="292.80084"
         height="294.94888"
         x="55.215729"
         y="62.575329"
         transform="scale(1,-1)" />
    </clipPath>
    <clipPath
       clipPathUnits="userSpaceOnUse"
       id="clipPath20837-0">
      <rect
         style="opacity:0.392018;fill:#ffffff;fill-opacity:1;stroke:none;stroke-width:936.295;stroke-linecap:butt;stroke-linejoin:miter;stroke-miterlimit:4;stroke-dasharray:none;stroke-opacity:1;paint-order:stroke markers fill"
         id="rect20839-6"
         width="1106.6488"
         height="1114.7675"
         x="208.68936"
         y="236.50517" />
    </clipPath>
    <clipPath
       clipPathUnits="userSpaceOnUse"
       id="clipPath20833-5">
      <rect
         style="opacity:0.392018;fill:#ffffff;fill-opacity:1;stroke:none;stroke-width:247.728;stroke-linecap:butt;stroke-linejoin:miter;stroke-miterlimit:4;stroke-dasharray:none;stroke-opacity:1;paint-order:stroke markers fill"
         id="rect20835-4"
         width="292.80084"
         height="294.94888"
         x="55.215729"
         y="62.575329" />
    </clipPath>
    <clipPath
       clipPathUnits="userSpaceOnUse"
       id="clipPath20829-5">
      <rect
         style="opacity:0.392018;fill:#ffffff;fill-opacity:1;stroke:none;stroke-width:247.728;stroke-linecap:butt;stroke-linejoin:miter;stroke-miterlimit:4;stroke-dasharray:none;stroke-opacity:1;paint-order:stroke markers fill"
         id="rect20831-6"
         width="292.80084"
         height="294.94888"
         x="55.215729"
         y="62.575329" />
    </clipPath>
    <clipPath
       clipPathUnits="userSpaceOnUse"
       id="clipPath20825-7">
      <rect
         style="opacity:0.392018;fill:#ffffff;fill-opacity:1;stroke:none;stroke-width:936.295;stroke-linecap:butt;stroke-linejoin:miter;stroke-miterlimit:4;stroke-dasharray:none;stroke-opacity:1;paint-order:stroke markers fill"
         id="rect20827-4"
         width="1106.6488"
         height="1114.7675"
         x="208.68936"
         y="236.50517" />
    </clipPath>
    <clipPath
       clipPathUnits="userSpaceOnUse"
       id="clipPath20849-8">
      <rect
         style="opacity:0.392018;fill:#ffffff;fill-opacity:1;stroke:none;stroke-width:247.728;stroke-linecap:butt;stroke-linejoin:miter;stroke-miterlimit:4;stroke-dasharray:none;stroke-opacity:1;paint-order:stroke markers fill"
         id="rect20851-8"
         width="292.80084"
         height="294.94888"
         x="55.215729"
         y="62.575329"
         transform="scale(1,-1)" />
    </clipPath>
    <clipPath
       clipPathUnits="userSpaceOnUse"
       id="clipPath20837-1">
      <rect
         style="opacity:0.392018;fill:#ffffff;fill-opacity:1;stroke:none;stroke-width:936.295;stroke-linecap:butt;stroke-linejoin:miter;stroke-miterlimit:4;stroke-dasharray:none;stroke-opacity:1;paint-order:stroke markers fill"
         id="rect20839-4"
         width="1106.6488"
         height="1114.7675"
         x="208.68936"
         y="236.50517" />
    </clipPath>
    <clipPath
       clipPathUnits="userSpaceOnUse"
       id="clipPath20833-0">
      <rect
         style="opacity:0.392018;fill:#ffffff;fill-opacity:1;stroke:none;stroke-width:247.728;stroke-linecap:butt;stroke-linejoin:miter;stroke-miterlimit:4;stroke-dasharray:none;stroke-opacity:1;paint-order:stroke markers fill"
         id="rect20835-6"
         width="292.80084"
         height="294.94888"
         x="55.215729"
         y="62.575329" />
    </clipPath>
    <clipPath
       clipPathUnits="userSpaceOnUse"
       id="clipPath20829-2">
      <rect
         style="opacity:0.392018;fill:#ffffff;fill-opacity:1;stroke:none;stroke-width:247.728;stroke-linecap:butt;stroke-linejoin:miter;stroke-miterlimit:4;stroke-dasharray:none;stroke-opacity:1;paint-order:stroke markers fill"
         id="rect20831-66"
         width="292.80084"
         height="294.94888"
         x="55.215729"
         y="62.575329" />
    </clipPath>
    <clipPath
       clipPathUnits="userSpaceOnUse"
       id="clipPath20825-5">
      <rect
         style="opacity:0.392018;fill:#ffffff;fill-opacity:1;stroke:none;stroke-width:936.295;stroke-linecap:butt;stroke-linejoin:miter;stroke-miterlimit:4;stroke-dasharray:none;stroke-opacity:1;paint-order:stroke markers fill"
         id="rect20827-0"
         width="1106.6488"
         height="1114.7675"
         x="208.68936"
         y="236.50517" />
    </clipPath>
    <linearGradient
       inkscape:collect="always"
       xlink:href="#linearGradient53508"
       id="linearGradient2886"
       gradientUnits="userSpaceOnUse"
       x1="199.82172"
       y1="-118.95808"
       x2="200.80431"
       y2="-303.72198" />
    <linearGradient
       inkscape:collect="always"
       xlink:href="#linearGradient22036"
       id="linearGradient2888"
       gradientUnits="userSpaceOnUse"
       x1="759.35034"
       y1="246.61069"
       x2="754.31421"
       y2="437.81616" />
    <linearGradient
       inkscape:collect="always"
       xlink:href="#linearGradient36275"
       id="linearGradient2890"
       gradientUnits="userSpaceOnUse"
       x1="55.215729"
       y1="210.04977"
       x2="109.76923"
       y2="210.04977" />
    <linearGradient
       inkscape:collect="always"
       xlink:href="#linearGradient46576"
       id="linearGradient2892"
       gradientUnits="userSpaceOnUse"
       x1="194.24768"
       y1="309.01398"
       x2="193.70741"
       y2="355.93658" />
    <linearGradient
       inkscape:collect="always"
       xlink:href="#linearGradient41620"
       id="linearGradient2894"
       gradientUnits="userSpaceOnUse"
       x1="1114.6938"
       y1="793.88892"
       x2="1315.3334"
       y2="793.88892" />
    <clipPath
       clipPathUnits="userSpaceOnUse"
       id="clipPath20849-2">
      <rect
         style="opacity:0.392018;fill:#ffffff;fill-opacity:1;stroke:none;stroke-width:247.728;stroke-linecap:butt;stroke-linejoin:miter;stroke-miterlimit:4;stroke-dasharray:none;stroke-opacity:1;paint-order:stroke markers fill"
         id="rect20851-61"
         width="292.80084"
         height="294.94888"
         x="55.215729"
         y="62.575329"
         transform="scale(1,-1)" />
    </clipPath>
    <clipPath
       clipPathUnits="userSpaceOnUse"
       id="clipPath20837-15">
      <rect
         style="opacity:0.392018;fill:#ffffff;fill-opacity:1;stroke:none;stroke-width:936.295;stroke-linecap:butt;stroke-linejoin:miter;stroke-miterlimit:4;stroke-dasharray:none;stroke-opacity:1;paint-order:stroke markers fill"
         id="rect20839-9"
         width="1106.6488"
         height="1114.7675"
         x="208.68936"
         y="236.50517" />
    </clipPath>
    <clipPath
       clipPathUnits="userSpaceOnUse"
       id="clipPath20833-09">
      <rect
         style="opacity:0.392018;fill:#ffffff;fill-opacity:1;stroke:none;stroke-width:247.728;stroke-linecap:butt;stroke-linejoin:miter;stroke-miterlimit:4;stroke-dasharray:none;stroke-opacity:1;paint-order:stroke markers fill"
         id="rect20835-1"
         width="292.80084"
         height="294.94888"
         x="55.215729"
         y="62.575329" />
    </clipPath>
    <clipPath
       clipPathUnits="userSpaceOnUse"
       id="clipPath20829-1">
      <rect
         style="opacity:0.392018;fill:#ffffff;fill-opacity:1;stroke:none;stroke-width:247.728;stroke-linecap:butt;stroke-linejoin:miter;stroke-miterlimit:4;stroke-dasharray:none;stroke-opacity:1;paint-order:stroke markers fill"
         id="rect20831-1"
         width="292.80084"
         height="294.94888"
         x="55.215729"
         y="62.575329" />
    </clipPath>
    <clipPath
       clipPathUnits="userSpaceOnUse"
       id="clipPath20825-77">
      <rect
         style="opacity:0.392018;fill:#ffffff;fill-opacity:1;stroke:none;stroke-width:936.295;stroke-linecap:butt;stroke-linejoin:miter;stroke-miterlimit:4;stroke-dasharray:none;stroke-opacity:1;paint-order:stroke markers fill"
         id="rect20827-6"
         width="1106.6488"
         height="1114.7675"
         x="208.68936"
         y="236.50517" />
    </clipPath>
    <linearGradient
       inkscape:collect="always"
       xlink:href="#linearGradient53508"
       id="linearGradient2999"
       gradientUnits="userSpaceOnUse"
       x1="199.82172"
       y1="-118.95808"
       x2="200.80431"
       y2="-303.72198" />
    <linearGradient
       inkscape:collect="always"
       xlink:href="#linearGradient22036"
       id="linearGradient3001"
       gradientUnits="userSpaceOnUse"
       x1="759.35034"
       y1="246.61069"
       x2="754.31421"
       y2="437.81616" />
    <linearGradient
       inkscape:collect="always"
       xlink:href="#linearGradient36275"
       id="linearGradient3003"
       gradientUnits="userSpaceOnUse"
       x1="55.215729"
       y1="210.04977"
       x2="109.76923"
       y2="210.04977" />
    <linearGradient
       inkscape:collect="always"
       xlink:href="#linearGradient46576"
       id="linearGradient3005"
       gradientUnits="userSpaceOnUse"
       x1="194.24768"
       y1="309.01398"
       x2="193.70741"
       y2="355.93658" />
    <linearGradient
       inkscape:collect="always"
       xlink:href="#linearGradient41620"
       id="linearGradient3007"
       gradientUnits="userSpaceOnUse"
       x1="1114.6938"
       y1="793.88892"
       x2="1315.3334"
       y2="793.88892" />
    <clipPath
       clipPathUnits="userSpaceOnUse"
       id="clipPath20849-81">
      <rect
         style="opacity:0.392018;fill:#ffffff;fill-opacity:1;stroke:none;stroke-width:247.728;stroke-linecap:butt;stroke-linejoin:miter;stroke-miterlimit:4;stroke-dasharray:none;stroke-opacity:1;paint-order:stroke markers fill"
         id="rect20851-2"
         width="292.80084"
         height="294.94888"
         x="55.215729"
         y="62.575329"
         transform="scale(1,-1)" />
    </clipPath>
    <clipPath
       clipPathUnits="userSpaceOnUse"
       id="clipPath20837-9">
      <rect
         style="opacity:0.392018;fill:#ffffff;fill-opacity:1;stroke:none;stroke-width:936.295;stroke-linecap:butt;stroke-linejoin:miter;stroke-miterlimit:4;stroke-dasharray:none;stroke-opacity:1;paint-order:stroke markers fill"
         id="rect20839-0"
         width="1106.6488"
         height="1114.7675"
         x="208.68936"
         y="236.50517" />
    </clipPath>
    <clipPath
       clipPathUnits="userSpaceOnUse"
       id="clipPath20833-50">
      <rect
         style="opacity:0.392018;fill:#ffffff;fill-opacity:1;stroke:none;stroke-width:247.728;stroke-linecap:butt;stroke-linejoin:miter;stroke-miterlimit:4;stroke-dasharray:none;stroke-opacity:1;paint-order:stroke markers fill"
         id="rect20835-9"
         width="292.80084"
         height="294.94888"
         x="55.215729"
         y="62.575329" />
    </clipPath>
    <clipPath
       clipPathUnits="userSpaceOnUse"
       id="clipPath20829-8">
      <rect
         style="opacity:0.392018;fill:#ffffff;fill-opacity:1;stroke:none;stroke-width:247.728;stroke-linecap:butt;stroke-linejoin:miter;stroke-miterlimit:4;stroke-dasharray:none;stroke-opacity:1;paint-order:stroke markers fill"
         id="rect20831-5"
         width="292.80084"
         height="294.94888"
         x="55.215729"
         y="62.575329" />
    </clipPath>
    <clipPath
       clipPathUnits="userSpaceOnUse"
       id="clipPath20825-1">
      <rect
         style="opacity:0.392018;fill:#ffffff;fill-opacity:1;stroke:none;stroke-width:936.295;stroke-linecap:butt;stroke-linejoin:miter;stroke-miterlimit:4;stroke-dasharray:none;stroke-opacity:1;paint-order:stroke markers fill"
         id="rect20827-5"
         width="1106.6488"
         height="1114.7675"
         x="208.68936"
         y="236.50517" />
    </clipPath>
    <linearGradient
       inkscape:collect="always"
       xlink:href="#linearGradient53508"
       id="linearGradient3112"
       gradientUnits="userSpaceOnUse"
       x1="199.82172"
       y1="-118.95808"
       x2="200.80431"
       y2="-303.72198" />
    <linearGradient
       inkscape:collect="always"
       xlink:href="#linearGradient22036"
       id="linearGradient3114"
       gradientUnits="userSpaceOnUse"
       x1="759.35034"
       y1="246.61069"
       x2="754.31421"
       y2="437.81616" />
    <linearGradient
       inkscape:collect="always"
       xlink:href="#linearGradient36275"
       id="linearGradient3116"
       gradientUnits="userSpaceOnUse"
       x1="55.215729"
       y1="210.04977"
       x2="109.76923"
       y2="210.04977" />
    <linearGradient
       inkscape:collect="always"
       xlink:href="#linearGradient46576"
       id="linearGradient3118"
       gradientUnits="userSpaceOnUse"
       x1="194.24768"
       y1="309.01398"
       x2="193.70741"
       y2="355.93658" />
    <linearGradient
       inkscape:collect="always"
       xlink:href="#linearGradient41620"
       id="linearGradient3120"
       gradientUnits="userSpaceOnUse"
       x1="1114.6938"
       y1="793.88892"
       x2="1315.3334"
       y2="793.88892" />
  </defs>
  <g
     inkscape:label="Layer 1"
     inkscape:groupmode="layer"
     id="layer1"
     transform="translate(-2.8072982e-6,1.7051513)">
    <path
       style="fill:none;stroke:#000000;stroke-width:0.264583px;stroke-linecap:butt;stroke-linejoin:miter;stroke-opacity:1"
       d="M 351.61511,61.122832 Z"
       id="path3587"
       clip-path="url(#clipPath20845)" />
    <path
       style="fill:none;stroke:#000000;stroke-width:0.264583px;stroke-linecap:butt;stroke-linejoin:miter;stroke-opacity:1"
       d="M 351.61511,361.12283 Z"
       id="path3591"
       clip-path="url(#clipPath20841)" />
    <g
       id="g2743">
      <rect
         style="fill:url(#linearGradient53510);fill-opacity:1;stroke:none;stroke-width:11.04;stroke-linecap:butt;stroke-linejoin:miter;stroke-miterlimit:18.2;stroke-dasharray:none;stroke-opacity:1;paint-order:stroke markers fill"
         id="rect2638"
         width="188.96005"
         height="188.96001"
         x="107.86923"
         y="-307.08649"
         transform="matrix(1.0361656,0,0,-1.0422321,-59.180882,-70.039839)"
         clip-path="url(#clipPath20849)" />
      <path
         id="path7490"
         style="fill:url(#linearGradient28878);fill-opacity:1;stroke:none;stroke-width:14.6079;stroke-linecap:butt;stroke-linejoin:miter;stroke-miterlimit:4;stroke-dasharray:none;stroke-opacity:1"
         transform="matrix(0.27415198,0,0,0.27265659,-59.180801,-66.474421)"
         d="M 215.86914,243.80273 407.69531,438.46289 H 1121.875 l 186.2773,-194.66016 z"
         clip-path="url(#clipPath20837)" />
      <path
         style="fill:url(#linearGradient36277);fill-opacity:1;stroke:none;stroke-width:3.8;stroke-linecap:butt;stroke-linejoin:miter;stroke-miterlimit:4;stroke-dasharray:none;stroke-opacity:1"
         d="m 107.86938,116.00997 0.86419,191.28193 -51.618337,48.33114 V 64.506376 Z"
         id="path7854"
         clip-path="url(#clipPath20833)"
         sodipodi:nodetypes="ccccc"
         transform="matrix(1.0608854,0,0,1.0296412,-60.592714,-66.418176)" />
      <path
         style="fill:url(#linearGradient46578);fill-opacity:1;stroke:none;stroke-width:3.8;stroke-linecap:butt;stroke-linejoin:miter;stroke-miterlimit:4;stroke-dasharray:none;stroke-opacity:1"
         d="m 54.669569,355.37672 53.199661,-48.29025 h 188.96006 l 49.28595,48.53657 z"
         id="path14311"
         clip-path="url(#clipPath20829)"
         transform="matrix(1.0293514,0,0,1.0305131,-56.274193,-66.474421)"
         sodipodi:nodetypes="ccccc" />
      <path
         id="path16368"
         style="fill:url(#linearGradient41622);fill-opacity:1;stroke:none;stroke-width:14.3622;stroke-linecap:butt;stroke-linejoin:miter;stroke-miterlimit:4;stroke-dasharray:none;stroke-opacity:1"
         d="M 1308.1523,243.80273 1121.875,438.46289 v 722.17971 l 186.2773,183.4453 z"
         transform="matrix(0.27415198,0,0,0.27265659,-59.180801,-66.474421)"
         clip-path="url(#clipPath20825)" />
    </g>
    <g
       id="g2743-4"
       transform="translate(296.78108,0.25379733)">
      <rect
         style="fill:url(#linearGradient2886);fill-opacity:1;stroke:none;stroke-width:11.04;stroke-linecap:butt;stroke-linejoin:miter;stroke-miterlimit:18.2;stroke-dasharray:none;stroke-opacity:1;paint-order:stroke markers fill"
         id="rect2638-8"
         width="188.96005"
         height="188.96001"
         x="107.86923"
         y="-307.08649"
         transform="matrix(1.0361656,0,0,-1.0422321,-59.180882,-70.039839)"
         clip-path="url(#clipPath20849-8)" />
      <path
         id="path7490-7"
         style="fill:url(#linearGradient2888);fill-opacity:1;stroke:none;stroke-width:14.6079;stroke-linecap:butt;stroke-linejoin:miter;stroke-miterlimit:4;stroke-dasharray:none;stroke-opacity:1"
         transform="matrix(0.27415198,0,0,0.27265659,-59.180801,-66.474421)"
         d="M 215.86914,243.80273 407.69531,438.46289 H 1121.875 l 186.2773,-194.66016 z"
         clip-path="url(#clipPath20837-1)" />
      <path
         style="fill:url(#linearGradient2890);fill-opacity:1;stroke:none;stroke-width:3.8;stroke-linecap:butt;stroke-linejoin:miter;stroke-miterlimit:4;stroke-dasharray:none;stroke-opacity:1"
         d="m 107.86938,116.00997 0.86419,191.28193 -51.618337,48.33114 V 64.506376 Z"
         id="path7854-1"
         clip-path="url(#clipPath20833-0)"
         sodipodi:nodetypes="ccccc"
         transform="matrix(1.0608854,0,0,1.0296412,-60.592714,-66.418176)" />
      <path
         style="fill:url(#linearGradient2892);fill-opacity:1;stroke:none;stroke-width:3.8;stroke-linecap:butt;stroke-linejoin:miter;stroke-miterlimit:4;stroke-dasharray:none;stroke-opacity:1"
         d="m 54.669569,355.37672 53.199661,-48.29025 h 188.96006 l 49.28595,48.53657 z"
         id="path14311-7"
         clip-path="url(#clipPath20829-2)"
         transform="matrix(1.0293514,0,0,1.0305131,-56.274193,-66.474421)"
         sodipodi:nodetypes="ccccc" />
      <path
         id="path16368-2"
         style="fill:url(#linearGradient2894);fill-opacity:1;stroke:none;stroke-width:14.3622;stroke-linecap:butt;stroke-linejoin:miter;stroke-miterlimit:4;stroke-dasharray:none;stroke-opacity:1"
         d="M 1308.1523,243.80273 1121.875,438.46289 v 722.17971 l 186.2773,183.4453 z"
         transform="matrix(0.27415198,0,0,0.27265659,-59.180801,-66.474421)"
         clip-path="url(#clipPath20825-5)" />
    </g>
    <g
       id="g2743-7"
       transform="translate(595.67063,-1.7051513)">
      <rect
         style="fill:url(#linearGradient2999);fill-opacity:1;stroke:none;stroke-width:11.04;stroke-linecap:butt;stroke-linejoin:miter;stroke-miterlimit:18.2;stroke-dasharray:none;stroke-opacity:1;paint-order:stroke markers fill"
         id="rect2638-3"
         width="188.96005"
         height="188.96001"
         x="107.86923"
         y="-307.08649"
         transform="matrix(1.0361656,0,0,-1.0422321,-59.180882,-70.039839)"
         clip-path="url(#clipPath20849-2)" />
      <path
         id="path7490-6"
         style="fill:url(#linearGradient3001);fill-opacity:1;stroke:none;stroke-width:14.6079;stroke-linecap:butt;stroke-linejoin:miter;stroke-miterlimit:4;stroke-dasharray:none;stroke-opacity:1"
         transform="matrix(0.27415198,0,0,0.27265659,-59.180801,-66.474421)"
         d="M 215.86914,243.80273 407.69531,438.46289 H 1121.875 l 186.2773,-194.66016 z"
         clip-path="url(#clipPath20837-15)" />
      <path
         style="fill:url(#linearGradient3003);fill-opacity:1;stroke:none;stroke-width:3.8;stroke-linecap:butt;stroke-linejoin:miter;stroke-miterlimit:4;stroke-dasharray:none;stroke-opacity:1"
         d="m 107.86938,116.00997 0.86419,191.28193 -51.618337,48.33114 V 64.506376 Z"
         id="path7854-5"
         clip-path="url(#clipPath20833-09)"
         sodipodi:nodetypes="ccccc"
         transform="matrix(1.0608854,0,0,1.0296412,-60.592714,-66.418176)" />
      <path
         style="fill:url(#linearGradient3005);fill-opacity:1;stroke:none;stroke-width:3.8;stroke-linecap:butt;stroke-linejoin:miter;stroke-miterlimit:4;stroke-dasharray:none;stroke-opacity:1"
         d="m 54.669569,355.37672 53.199661,-48.29025 h 188.96006 l 49.28595,48.53657 z"
         id="path14311-6"
         clip-path="url(#clipPath20829-1)"
         transform="matrix(1.0293514,0,0,1.0305131,-56.274193,-66.474421)"
         sodipodi:nodetypes="ccccc" />
      <path
         id="path16368-3"
         style="fill:url(#linearGradient3007);fill-opacity:1;stroke:none;stroke-width:14.3622;stroke-linecap:butt;stroke-linejoin:miter;stroke-miterlimit:4;stroke-dasharray:none;stroke-opacity:1"
         d="M 1308.1523,243.80273 1121.875,438.46289 v 722.17971 l 186.2773,183.4453 z"
         transform="matrix(0.27415198,0,0,0.27265659,-59.180801,-66.474421)"
         clip-path="url(#clipPath20825-77)" />
    </g>
    <g
       id="g2743-9"
       transform="translate(296.78108,299.9995)">
      <rect
         style="fill:url(#linearGradient3112);fill-opacity:1;stroke:none;stroke-width:11.04;stroke-linecap:butt;stroke-linejoin:miter;stroke-miterlimit:18.2;stroke-dasharray:none;stroke-opacity:1;paint-order:stroke markers fill"
         id="rect2638-84"
         width="188.96005"
         height="188.96001"
         x="107.86923"
         y="-307.08649"
         transform="matrix(1.0361656,0,0,-1.0422321,-59.180882,-70.039839)"
         clip-path="url(#clipPath20849-81)" />
      <path
         id="path7490-8"
         style="fill:url(#linearGradient3114);fill-opacity:1;stroke:none;stroke-width:14.6079;stroke-linecap:butt;stroke-linejoin:miter;stroke-miterlimit:4;stroke-dasharray:none;stroke-opacity:1"
         transform="matrix(0.27415198,0,0,0.27265659,-59.180801,-66.474421)"
         d="M 215.86914,243.80273 407.69531,438.46289 H 1121.875 l 186.2773,-194.66016 z"
         clip-path="url(#clipPath20837-9)" />
      <path
         style="fill:url(#linearGradient3116);fill-opacity:1;stroke:none;stroke-width:3.8;stroke-linecap:butt;stroke-linejoin:miter;stroke-miterlimit:4;stroke-dasharray:none;stroke-opacity:1"
         d="m 107.86938,116.00997 0.86419,191.28193 -51.618337,48.33114 V 64.506376 Z"
         id="path7854-10"
         clip-path="url(#clipPath20833-50)"
         sodipodi:nodetypes="ccccc"
         transform="matrix(1.0608854,0,0,1.0296412,-60.592714,-66.418176)" />
      <path
         style="fill:url(#linearGradient3118);fill-opacity:1;stroke:none;stroke-width:3.8;stroke-linecap:butt;stroke-linejoin:miter;stroke-miterlimit:4;stroke-dasharray:none;stroke-opacity:1"
         d="m 54.669569,355.37672 53.199661,-48.29025 h 188.96006 l 49.28595,48.53657 z"
         id="path14311-3"
         clip-path="url(#clipPath20829-8)"
         transform="matrix(1.0293514,0,0,1.0305131,-56.274193,-66.474421)"
         sodipodi:nodetypes="ccccc" />
      <path
         id="path16368-0"
         style="fill:url(#linearGradient3120);fill-opacity:1;stroke:none;stroke-width:14.3622;stroke-linecap:butt;stroke-linejoin:miter;stroke-miterlimit:4;stroke-dasharray:none;stroke-opacity:1"
         d="M 1308.1523,243.80273 1121.875,438.46289 v 722.17971 l 186.2773,183.4453 z"
         transform="matrix(0.27415198,0,0,0.27265659,-59.180801,-66.474421)"
         clip-path="url(#clipPath20825-1)" />
    </g>
  </g>
</svg>
